id,re_frame,de_frame,c_keep,c_change,c_collision,p_safe,decision
5000,5000,5000,7.106429840642,8.902429325506,-13.488488239503999,0.78,1
5000,5000,5000,5.047778883726,6.028077016546,0.0,0.8126,1
5000,5000,5000,6.25564298035,7.88730691664,-23.51907427206,0.5865,1
5000,5000,5000,7.454613651728,10.67511306559,-43.696210425511,0.6467,1
5000,5000,5000,3.676182454388,6.077387743819,-11.768949118087,0.6942,1
5000,5000,5000,4.17587780038,6.663626238728,-1.3373444015799998,0.7956000000000001,1
5000,5000,5000,2.7630424527499997,4.696172093946,-2.177101527389,0.7263,1
5000,5000,5000,5.157332698916,6.820912306274,-8.047026752979999,0.6735,1
5000,5000,5000,4.858190930066001,5.707854750601999,-0.38122981208200013,0.7972,1
5000,5000,5000,3.767644901936,5.583916499161,-4.674645928554,0.7508,1
5000,5000,5000,10.514321232996,22.96689084012,0.0,0.688,1
5000,5000,5000,9.06316707806,11.093520757774,-30.285317665474,0.827,1
5000,5000,5000,9.16391048724,12.045368799756,-44.609558416815,0.8287,1
5000,5000,5000,1.598359726842,6.005680159196,-14.748594520604001,0.668,1
5000,5000,5000,3.127227225632,5.730305687895999,-13.45132889384,0.6876,1
5000,5000,5000,6.32910832879,8.216014469695999,-24.336309308844,0.5661,1
5000,5000,5000,11.853870599259999,14.64912691358,-26.1685735341,0.826,1
5000,5000,5000,4.47517584691,5.860084253099999,-0.62754521172,0.7969999999999999,1
5000,5000,5000,4.453512893975001,5.87242664605,-20.152500814625,0.6000000000000001,1
5000,5000,5000,3.3518781553520003,7.628427133786,-3.3763600454339997,0.7858,1
5000,5000,5000,4.432972229,7.5048674535,-4.8910370268,0.71,1
5000,5000,5000,5.289682063078001,11.151160007235998,-2.461929466545,0.7349000000000001,1
5000,5000,5000,7.74241353144,11.27538075258,-50.2354450602,0.6739999999999999,1
5000,5000,5000,4.52669707731,10.015974617658,-42.494052363609995,0.6816,1
5000,5000,5000,3.87367951227,9.896974207626,-43.98634436177,0.6752,1
5000,5000,5000,8.882246106682,11.114856206456,-31.193194307672,0.8182999999999999,1
5000,5000,5000,4.36344268605,9.986224515149999,-42.867125363149995,0.6799999999999999,1
5000,5000,5000,6.139322845320001,7.366853290968,-22.225118797152,0.6188,1
5000,5000,5000,4.77452368426,6.723175397845,-8.791156100955,0.6055,1
5000,5000,5000,4.015641043091,11.313282340338,-116.825991681444,0.7481,1
5000,5000,5000,10.447444095553,22.680537437319998,0.0,0.6053,1
5000,5000,5000,3.078129398123,10.092973582309,-47.077389445705,0.6586000000000001,1
5000,5000,5000,7.520931164007999,10.719986967992,-24.329802049824,0.6092,1
5000,5000,5000,3.3289786918279995,4.951930870991999,-3.068493265607,0.7011,1
5000,5000,5000,2.961847686098,5.893841382829,-13.204112642759,0.546,1
5000,5000,5000,5.217454153896,6.28522344799,-2.831915082822,0.7286,1
5000,5000,5000,6.6828890324,10.52853190794,-38.85076797475,0.713,1
5000,5000,5000,3.751238718825,9.874661630744999,-44.266149111425,0.674,1
5000,5000,5000,5.144569292569,6.2775403269989996,0.0,0.8219,1
5000,5000,5000,8.886671501138,12.612789190420001,-39.259425081399996,0.6778,1
5000,5000,5000,4.429530790222,6.966224064056,-12.99254160921,0.6172000000000001,1
5000,5000,5000,6.9936993448,11.279031534228,-45.588271585,0.7756,1
5000,5000,5000,12.707004678789,24.411639016213,0.0,0.8200999999999999,1
5000,5000,5000,6.3031193888049994,8.40021281399,-13.588080976425,0.7030000000000001,1
5000,5000,5000,4.2486142221400005,5.89306913778,-4.35691213808,0.768,1
5000,5000,5000,10.759405191062,22.88098481928,0.0,0.5962,1
5000,5000,5000,9.460262475973,13.153030370551999,-23.156921393367,0.8232999999999999,1
5000,5000,5000,5.508610906313001,6.238405515789999,-19.879558082591,0.6576000000000001,1
5000,5000,5000,6.5644030160649995,13.88673333914,-1.975622411425,0.804,1
5000,5000,5000,4.60470798366,11.94214671754,-120.04421267877599,0.7404,1
5000,5000,5000,8.8157915818,10.9413313592,-30.029909439128,0.7916,1
5000,5000,5000,2.740996169595,6.00896728496,-13.19359290779,0.5900000000000001,1
5000,5000,5000,5.919376297308,10.205406063288,-50.02034512539,0.5492,1
5000,5000,5000,6.345618715482,10.339672121802,-39.629858141235,0.6818,1
5000,5000,5000,4.728804917492,6.261381419088,-5.3008953072230005,0.6579,1
5000,5000,5000,10.81002127144,19.87080000268,-0.91182572835,0.587,1
5000,5000,5000,5.48742340904,6.886657004448,-4.315299173824,0.702,1
5000,5000,5000,3.765257906175,10.128441605991,-46.9307203321,0.6957,1
5000,5000,5000,3.69977209409,6.825297047045,-4.363115687455,0.7735000000000001,1
5000,5000,5000,6.455987546092,7.240393374153999,-18.304186367786002,0.7060000000000001,1
5000,5000,5000,1.8944394031780005,6.111692039137,-17.508006249942,0.7368,1
5000,5000,5000,8.296087390093,10.52938020881,-15.151905707007,0.7876,1
5000,5000,5000,4.9596164429280005,5.77511289277,-0.404559297546,0.7898000000000001,1
5000,5000,5000,12.846307539544,22.010224042589,0.0,0.8252999999999999,1
5000,5000,5000,8.60637757604,11.704506576876,-43.315448205115,0.8027,1
5000,5000,5000,5.406073612695,10.070809726035,-58.0248828143,0.451,1
5000,5000,5000,5.891542249245,6.377025641123,-19.701634703576,0.6788000000000001,1
5000,5000,5000,13.080166571458,14.940122646014,-29.814147694845,0.8292999999999999,1
5000,5000,5000,6.466399368389,9.072235785081999,-26.530766225381,0.5085000000000001,1
5000,5000,5000,13.985419849132,24.738506229427998,0.0,0.5088,1
5000,5000,5000,13.276848764816,15.40785018922,-33.518921892676,0.7767999999999999,1
5000,5000,5000,5.030884790414,7.047692216502,-11.989821900568,0.78,1
5000,5000,5000,5.2140211934,6.792989266407,-6.3925959667450005,0.6651,1
5000,5000,5000,12.638048970982,19.835498031203,0.0,0.6738,1
5000,5000,5000,9.39098184445,11.590353525218,-28.265278830774,0.6444,1
5000,5000,5000,7.90946143704,11.278428798276,-41.69781044049,0.7702,1
5000,5000,5000,11.78010079954,19.862966553355,0.0,0.7535,1
5000,5000,5000,0.293421641264,4.453883227192,-20.68680579008,0.3852,1
5000,5000,5000,6.972392109642,8.066992164879,-16.891467791811,0.7310000000000001,1
5000,5000,5000,8.467100332120001,11.668896331740001,-47.4548544938,0.752,1
5000,5000,5000,2.8874880212300003,6.00938871134,-12.994233726660001,0.5800000000000001,1
5000,5000,5000,9.155552792766,12.042736131942,-44.81329345572,0.8261,1
5000,5000,5000,9.858514745138,12.808616932172,-44.059327209955,0.7977,1
5000,5000,5000,6.19442185665,7.61338395576,-22.838045074740002,0.6035,1
5000,5000,5000,7.737448410541,11.069992814609,-23.836760635098,0.6309,1
5000,5000,5000,6.849944551462,14.399653338872,-1.8844398385899999,0.8052,1
5000,5000,5000,2.300700596858,5.358015803523999,-15.56167632191,0.5993999999999999,1
5000,5000,5000,12.501057192471,21.665954425207,0.0,0.7738999999999999,1
5000,5000,5000,5.726926782872,7.210270533932,-7.037850336052,0.636,1
5000,5000,5000,5.14238182882,6.88770089794,-7.91322704016,0.616,1
5000,5000,5000,4.783037637308,5.730689401076,-0.871382427616,0.7936000000000001,1
5000,5000,5000,12.03967301929,14.69321717607,-26.720933255425003,0.8265,1
5000,5000,5000,5.412144468164,7.008352931343,-7.2694123955770005,0.6237,1
5000,5000,5000,5.182036547605,6.374106769755,0.0,0.8255,1
5000,5000,5000,3.91190254454,6.335583579520001,-4.96479595698,0.766,1
5000,5000,5000,2.743855761836,4.410341587186,-2.158903828404,0.7208,1
5000,5000,5000,10.799777256674,13.862082844556001,-43.191181255915,0.7521,1
5000,5000,5000,6.621979590416,10.424628744628,-37.587403544836,0.7103999999999999,1
5000,5000,5000,3.9712990706660003,6.198463808613001,-5.133266432447,0.7639,1
5000,5000,5000,8.139551868388,11.720003672612,-22.921112293464,0.6712,1
5000,5000,5000,3.207191974865,6.095434330644999,-12.362352884839,0.7758,1
5000,5000,5000,7.7923821210119995,9.540050025476,-14.06145842216,0.7712,1
5000,5000,5000,4.116380943764,5.688496804296,-4.3242194140159995,0.6768,1
5000,5000,5000,4.869629224006,6.748228156632,-0.5470954370100003,0.8228,1
5000,5000,5000,4.047093995456001,6.012652039535,-7.705936110414999,0.7678,1
5000,5000,5000,4.408732710511,11.004814409898,-102.079466384724,0.6700999999999999,1
5000,5000,5000,6.17004109516,12.41866710854,-100.87916492217599,0.6004,1
5000,5000,5000,13.302751937536,22.254315408994,0.0,0.5924,1
5000,5000,5000,11.302827591848,14.926168605124001,-45.261843752619995,0.5920000000000001,1
5000,5000,5000,6.758143276475001,12.584936423916,-93.486692891776,0.5528000000000001,1
5000,5000,5000,3.28442620255,9.957077148594,-47.1306595072,0.6838000000000001,1
5000,5000,5000,6.337261021008,10.337039453988,-39.83359318014,0.6792,1
5000,5000,5000,12.704204768684,18.57537178242,0.0,0.7839999999999999,1
5000,5000,5000,9.167939935054,11.739508558664,-39.429729411959,0.83,1
5000,5000,5000,13.574006591168999,25.0,0.0,0.6221,1
5000,5000,5000,3.791905046824,7.508468156928,-2.18838174804,0.8012,1
5000,5000,5000,11.116442175101,15.440770508008,-60.22008848496098,0.6799,1
5000,5000,5000,9.0494493307,11.127607950875,-30.382362098357,0.8204,1
5000,5000,5000,3.622027962896,5.977686372386,-9.092321520418,0.658,1
5000,5000,5000,7.416304471134,11.098298741958,-51.48671081508,0.6389,1
5000,5000,5000,3.358943275061,6.781461920218,-23.989673363669,0.4365,1
5000,5000,5000,13.60815600325,23.365663933925,0.0,0.5549999999999999,1
5000,5000,5000,12.407767380548,15.661753778212,-41.70809858443,0.6742,1
5000,5000,5000,8.331407991675,12.24714279934,-61.93118325824,0.732,1
5000,5000,5000,8.30151753685,10.649251321553999,-27.624679527622,0.5932,1
5000,5000,5000,11.529188425892,15.116879181046002,-44.736236923405,0.5980000000000001,1
5000,5000,5000,9.859836107261,14.482417443268,-68.047596010459,0.5941000000000001,1
5000,5000,5000,13.410541607788,22.646556064852,0.0,0.5791999999999999,1
5000,5000,5000,3.4953726465729997,5.0349345119699995,-1.4433539869560001,0.7541,1
5000,5000,5000,0.08627570328499999,4.595657940954999,-20.583702716435,0.42,1
5000,5000,5000,12.39935376372,18.4978795003,0.0,0.74,1
5000,5000,5000,3.725227748144,6.766531430942,-4.435317319798,0.7726000000000001,1
5000,5000,5000,4.7406363892600005,5.585210610043999,-0.16734538979199987,0.7936000000000001,1
5000,5000,5000,6.7581402239260004,10.466208712208001,-37.202210217296,0.7169,1
5000,5000,5000,2.528833525425,9.687790144112999,-47.4448496395,0.6651,1
5000,5000,5000,11.276317093882,16.78715800795,0.0,0.7353999999999999,1
5000,5000,5000,5.402585773955,6.758083788726,-2.899341632413,0.744,1
5000,5000,5000,5.507622845965,6.917269674858,-4.652431921779,0.692,1
5000,5000,5000,13.272198440275,14.943030125771,-30.547413848253,0.8268,1
5000,5000,5000,3.334907719316,7.667604211188,-3.328225623872,0.7864,1
5000,5000,5000,8.318773697120001,11.3523987174,0.0,0.826,1
5000,5000,5000,3.62099892894,9.80654254632,-51.9492094182,0.5720000000000001,1
5000,5000,5000,2.979022135412,4.624568233968,-2.510392755203,0.7119,1
5000,5000,5000,9.593310523681,14.070042928469,-19.610691366018003,0.8169,1
5000,5000,5000,12.716034895057,14.58391167397,-31.272914845478,0.8182999999999999,1
5000,5000,5000,10.60657328088,21.08715854801,0.0,0.6869999999999999,1
5000,5000,5000,3.196724535316,6.012433406057999,-12.568414831734,0.5644,1
5000,5000,5000,9.884232486516,22.39418403452,0.0,0.648,1
5000,5000,5000,13.284723711529999,20.54714219109,0.0,0.724,1
5000,5000,5000,7.2985424322100005,8.448587523809,-24.385779718259002,0.7445,1
5000,5000,5000,8.068522591746,11.452462763202,-48.98417930532,0.7091,1
5000,5000,5000,9.180830312214,11.914050911224,-42.264612933818995,0.83,1
5000,5000,5000,1.1862540851749999,6.031433192875,-15.247146423025,0.765,1
5000,5000,5000,8.2161045382,11.46590302086,-42.409571056924996,0.7845,1
5000,5000,5000,5.873545805205,10.261412963349,-39.416200117405,0.6948,1
5000,5000,5000,12.44275509546,15.842477970900003,-40.7716614939,0.646,1
5000,5000,5000,10.010929615803999,12.77284986934,-34.243256855516,0.7676,1
5000,5000,5000,8.77143703524,11.0802135348,-33.307583362230005,0.7909999999999999,1
5000,5000,5000,2.8394094149119997,4.5198752456369995,-2.393706424418,0.7236,1
5000,5000,5000,2.880360980516,4.566818242116,-2.494336108424,0.7248,1
5000,5000,5000,12.697197655631,24.280892130927,0.0,0.8179,1
5000,5000,5000,5.726926782872,7.210270533932,-7.037850336052,0.636,1
5000,5000,5000,9.191933067547,11.570644818128,-29.075099690913,0.8287,1
5000,5000,5000,2.4588542443340002,9.645855272086,-47.189924026614,0.6634,1
5000,5000,5000,7.4398070605,9.844369208225,-27.954354890335,0.622,1
5000,5000,5000,1.907116487918,5.180734906204,-16.56660366861,0.5574,1
5000,5000,5000,7.906341894485,11.964607114872,-64.830447169988,0.83,1
5000,5000,5000,6.20054396902,7.640776251847999,-22.906147994472,0.6018,1
5000,5000,5000,10.945191315732,15.481345027469999,0.0,0.8226,1
5000,5000,5000,6.081044599196,11.192801406148,-74.154330386376,0.4884,1
5000,5000,5000,5.475291864864,6.79533400321,-5.2592708680980005,0.6674,1
5000,5000,5000,12.33006944441,18.480267618,0.0,0.73,1
5000,5000,5000,3.2292301569479998,6.016837089974,-12.514213766402001,0.5732,1
5000,5000,5000,6.068657315528,7.975060771004,-12.739155070035999,0.78,1
5000,5000,5000,4.962109288436,6.479623177104001,-5.672962314158999,0.6507000000000001,1
5000,5000,5000,3.9443538328520003,6.113718136126,-11.321790329097999,0.7668,1
5000,5000,5000,6.2924811933,12.29262782775,-89.33482674256,0.561,1
5000,5000,5000,6.065277643735,10.480791786665,-38.163657510785,0.7535000000000001,1
5000,5000,5000,13.179421215837,16.03135199479,-38.020823152782,0.6951,1
5000,5000,5000,3.962813852648,6.218052347314,-5.109199221666,0.7642,1
5000,5000,5000,9.121062220707,13.921976370381001,-43.452202152145,0.6474,1
5000,5000,5000,4.1281444784,5.978710468277001,-5.485035616195,0.7561,1
5000,5000,5000,4.511998527857,6.584007939250999,-11.615155315833999,0.78,1
5000,5000,5000,3.988269506702,6.159286731211,-5.181400854009,0.7633,1
5000,5000,5000,9.624726586752,13.283101956180001,-39.573285468899996,0.6712,1
5000,5000,5000,6.7784070493840005,10.46708850032,-49.030910809358005,0.5726,1
5000,5000,5000,3.4317406292750006,6.102545568175,-12.041820269485,0.777,1
5000,5000,5000,6.032035937550001,10.936302619434,-45.9881499352,0.7518,1
5000,5000,5000,9.165126537584,12.87882673238,-18.023295979516,0.8088,1
5000,5000,5000,12.496153680892,21.600580982564,0.0,0.7727999999999999,1
5000,5000,5000,9.660609794152002,14.263851619316,-43.128524715219996,0.6464,1
5000,5000,5000,8.346249443956,11.65835029726,-36.071159630924,0.7363999999999999,1
5000,5000,5000,12.999303518797,25.0,0.0,0.7673,1
5000,5000,5000,13.315366633017,15.161349475389999,-31.739100464262002,0.8090999999999999,1
5000,5000,5000,4.939406461528,10.588382703804001,-82.171657234152,0.5648,1
5000,5000,5000,4.29036605145,5.88038322085,-4.08460512945,0.77,1
5000,5000,5000,8.19689679737,9.795098988373,-27.389180855023,0.7865,1
5000,5000,5000,4.60934821219,6.197273733642,-2.940915693204,0.7922,1
5000,5000,5000,4.47891831022,6.2653632411619995,-0.79024896457,0.7974,1
5000,5000,5000,4.043197000288001,5.73010153004,-20.258645210416002,0.5776000000000001,1
5000,5000,5000,9.410571844783,12.859996008992,-24.252880337357002,0.8242999999999999,1
5000,5000,5000,11.049896667504,23.45369162488,0.0,0.722,1
5000,5000,5000,12.919204672215999,19.720182883721,0.0,0.8217,1
5000,5000,5000,9.345974024236,12.479051338964,-25.677626964544,0.8256,1
5000,5000,5000,10.427099658766,13.05147476236,-33.786281161664,0.7754,1
5000,5000,5000,5.214570628722,10.372455152496,-71.84908952644801,0.5102,1
5000,5000,5000,12.84225769884,22.137448551415,0.0,0.8255,1
5000,5000,5000,5.194525632617,6.406295584006999,0.0,0.8267,1
5000,5000,5000,4.060368191396,5.9861754110600005,-6.83678382664,0.7648,1
5000,5000,5000,4.353856625012,6.337407467268,-10.250965301259999,0.747,1
5000,5000,5000,3.101704475484,9.729664821312,-50.181740793879996,0.6072000000000001,1
5000,5000,5000,7.71823852975,13.03310072315,-44.29376348815,0.65,1
5000,5000,5000,8.092514432324,10.873692394492,-33.427315607404,0.7806,1
5000,5000,5000,2.8705609322099996,4.470819630948999,-1.9453901563320002,0.7256,1
5000,5000,5000,11.519426243206,14.569764441098,-25.174326035715,0.8251,1
5000,5000,5000,5.113346580039,6.197068291369,0.0,0.8189,1
5000,5000,5000,12.04797771914,18.756560554604,0.0,0.7128,1
