id,re_frame,de_frame,c_keep,c_change,c_collision,p_safe,decision
2843,8273,8274,5.402569815,9.5803686215,0,1,0
2854,8443,8420,0.2906453819,5.311078707,0,0.13,0
1862,5441,5411,13.9067485562,14.1921788595,-1.2132635248,0.91,0
2812,8182,8187,9.2701716817,10.4435709627,-5.6609182988,0.39,0
1889,5528,5526,13.9800550702,13.7531620185,0,0.97,0
1889,5674,5685,3.9388289657,9.8934735918,0,0.15,0
2401,7096,7085,12.3560372068,13.4254740607,0,0.43,0
2896,8421,8418,3.871978527,8.8759547561,0,0.98,0
2896,8503,8478,4.662657675,3.7848138906,0,0.42,0
2376,7058,7042,14.4515685744,12.9552702149,0,0.85,0
1570,4493,4469,14.0682627459,14.0635345442,0,0.95,0
1570,4592,4588,9.0959385033,12.2728631848,-20.5540572429,0.91,0
1469,4228,4213,11.6903034653,12.8676135966,0,0.9,0
2065,6319,6313,16.3736179357,16.9694300007,0,0.49,0
2581,7753,7721,12.1504524005,20.8969253549,0,0.36,0
1881,5510,5482,13.3629018702,12.6767312513,0,0.85,0
1881,5663,5650,10.5294769708,8.4172699225,0,0.66,0
2287,7027,7026,13.1865319858,19.798450844,-37.0813293312,0.64,0
1481,4254,4256,16.7815231812,12.9742599647,0,0.95,0
2868,8380,8380,7.6771365973,5.7526370237,0,0.34,0
1337,3802,3759,10.282601354,13.1892220115,0,0.23,0
1337,3942,3957,11.7941277199,13.4686393782,-0.4381109087,0.86,0
779,2064,2073,10.3435686291,17.6411584879,0,1,0
3002,9082,9072,9.6999823047,10.6893335548,-2.8452394984,0.69,0
2723,8099,8065,12.7234890742,4.0727494099,-9.3210944498,0.99,0
2805,8238,8206,8.5890897783,9.5174158521,-37.5910420423,0.5,0
2835,8759,8725,13.7307231866,14.484873247,0,0.87,0
1556,4460,4431,14.3489619423,13.6113996426,0,0.41,0
1556,4558,4561,6.0837674868,11.9287311681,-24.5652581714,0.23,0
2648,7733,7729,13.7196429947,15.1226517131,-0.783975981,0.36,0
2748,8156,8127,8.0494945989,8.8398798102,-29.2054262654,0.75,0
1082,2765,2769,1.2504611638,6.7824756641,-4.9604079122,0.79,0
1194,3353,3365,12.8238269906,25,-9.4097316391,0.2,0
2162,6414,6381,13.476867402,14.4422496884,0,0.98,0
2754,8178,8139,9.4170919841,8.6081001528,0,0.41,0
2886,8473,8447,5.0738294466,5.4768650061,0,0.25,0
898,2320,2300,14.1771240642,14.2052493998,-13.648928159,0.66,0
2657,7993,7943,13.3147202466,9.7534715914,0,0.95,0
1723,4934,4927,7.9560220874,11.0940715277,-27.503390096,0.55,0
1581,4498,4506,16.3259119374,14.3077378876,-14.1493034458,0.13,0
2625,7886,7866,11.8923249612,10.7596462376,-4.6636145143,0.95,0
1549,4572,4576,7.0355562133,12.187971487,-37.3474469764,0.23,0
3007,9115,9068,12.5986076097,15.2972887519,0,0.31,0
2730,8173,8169,2.8056828778,5.3759104778,-20.1483716679,0.58,0
1166,3271,3246,14.3452373227,16.3972921524,-10.6162326538,0,0
1370,3852,3885,1.1325563897,5.2484462002,-26.419873496,0.13,0
1370,4029,4030,12.6575837006,13.9097171958,0,0.92,0
1127,3115,3122,11.9291402964,14.5739535493,-5.0224572414,0.93,0
184,642,634,13.9565376339,13.8369227848,0,0.95,0
1780,5347,5341,16.9157442465,17.9144782438,0,0.62,0
1746,4976,4981,3.6985515206,8.8108022743,-15.0679099041,0.92,0
1301,3721,3710,11.9633931992,10.3390418432,0,0.31,0
2368,7044,7011,14.7295062213,13.9966661212,0,1,0
1648,4730,4730,7.1078907284,8.5612783282,-0.3341557759,0.15,0
2525,7642,7644,13.4110640226,13.5021266361,0,0.95,0
2862,8377,8347,7.8883921185,25,0,0.09,0
2732,8051,8031,11.5393623274,12.589656268,0,0.09,0
2732,8188,8164,1.522321479,7.0062436718,0,0.09,0
1945,5650,5636,14.0901121215,13.8715700677,0,0.99,0
2671,7827,7829,13.6969940393,14.0380248437,-2.3703217565,0.96,0
966,2507,2503,3.5245566825,7.8368160999,-30.6008657858,0.9,0
980,2469,2471,9.3409869841,12.7691272244,-7.6805091479,0.57,0
1102,2884,2838,8.1160348996,12.1700132061,-41.3041979837,0.26,0
2103,6384,6365,10.8106506613,16.2437025132,0,0.55,0
2603,7676,7640,12.1588017431,13.6361538953,0,0.82,0
2414,7106,7107,10.4669651769,18.6846411299,-16.574047591,0.98,0
2809,8172,8160,10.5723094724,12.1072043971,0,0.38,0
2954,8649,8626,2.5396689483,4.5447696155,0,0,0
2542,7752,7728,5.7661759441,9.1998208533,-43.1718652607,0.17,0
2474,7660,7621,2.3638257789,7.9433053909,-54.2644817373,0.9,0
1135,3150,3156,13.8577089881,13.551253068,0,0.76,0
1468,4222,4202,14.2074503363,20.807034034,0,0.44,0
2057,6301,6300,15.7736002612,17.5156050506,-5.4005485379,0.25,0
2674,7802,7756,11.0886261411,12.9217553331,0,0.85,0
3011,9131,9097,12.3463792894,10.7402581706,0,0.05,0
1158,3231,3234,12.1241823436,15.8589572473,-35.5479645542,0.86,0
2471,7549,7501,14.2630169226,19.7524140549,-39.319086639,0.28,0
2814,8213,8166,7.8616996589,9.276057192,-22.844082728,0.95,0
396,880,880,8.2691175663,12.6975749544,-39.4797808102,0.44,0
1405,3895,3873,11.1552763279,11.5730741924,0,0.4,0
1787,5406,5377,10.3563608611,12.7508847847,0,0.42,0
1596,4596,4611,8.2798242458,13.4881689243,-20.5072191632,0.99,0
2031,5942,5936,11.0400738955,25,0,0.27,0
2517,7800,7780,4.6386671838,6.6538007592,-12.6017965677,0.38,0
1278,3670,3670,10.19050591,12.3621813771,-11.3174336413,1,0
1712,4868,4845,9.023140545,1.8351940629,0,1,0
2737,8195,8180,5.3167209949,3.6033941733,0,0.56,0
973,2487,2453,10.3333060596,13.2023881836,0,0,0
2524,7250,7225,11.3023685232,10.9498303097,0,0.16,0
1240,3500,3508,8.9510476138,13.9582458258,-30.5566903738,0.76,0
1982,5807,5808,14.1401000889,10.6086209125,0,0.37,0
2700,8113,8070,8.0720807004,7.451757411,-0.8381878872,0.57,0
2590,7772,7759,14.1572562498,13.9576094027,0,0.58,0
1247,3590,3551,14.568203384,12.3760791543,0,1,0
2615,7836,7833,10.9977987953,11.1246579161,0,0.89,0
2996,9095,9072,12.1499186572,11.391424867,0,0.99,0
1286,3694,3681,17.2180479263,11.112543363,0,0.86,0
1769,5310,5291,14.5732487711,18.8203828005,0,0.81,0
2714,8023,8023,10.0840157244,10.0849221442,0,0.87,0
944,2355,2348,13.1178164904,14.7062984016,0,0.18,0
2500,7647,7626,11.8907960434,12.8222386649,0,0.72,0
147,543,501,18.1903112786,15.2046395917,0,0.96,0
2833,8226,8235,7.6612325257,9.5910293268,-0.1309673715,0.52,0
2277,7004,7011,12.4005270309,18.0971913718,-46.5839155425,1,0
2515,7249,7209,12.2490363775,11.9571516122,0,0.24,0
2864,8327,8310,6.9599822425,8.8409313386,0,0,0
2864,8481,8473,3.9220736982,3.0071776323,0,0.51,0
152,546,528,13.4395295086,18.1262717463,0,0.13,0
1348,3809,3789,5.7612505064,3.5892774669,0,0.95,0
1348,3967,3965,13.3988727903,12.9599932258,0,0.96,0
1504,4268,4256,14.525663569,14.9123386483,-4.3297234926,0.83,0
2650,7928,7892,12.3386441233,10.2250830516,0,0.98,0
843,2199,2164,14.6254343732,12.7101785527,0,0.18,0
2170,6203,6203,0.4566814902,7.1279072343,-30.355325381,0.14,0
2719,8132,8105,3.6197062026,4.6486313844,-6.85331196,0.95,0
1276,3691,3651,11.0069344514,13.4587390997,-25.6975628549,0.27,0
1897,5575,5561,14.6609829574,16.1334419581,0,0.31,0
2458,7147,7114,12.9261712598,12.4829273091,0,0.43,0
2384,7038,7044,13.6666056254,13.8985851038,0,0.91,0
1976,5780,5776,11.7983351133,13.0056238612,0,1,0
2602,7822,7791,13.3773576358,12.2245768095,0,0.64,0
1695,4864,4861,9.780287762,13.1349635592,-32.2265526885,0.46,0
1599,4657,4656,8.3937889286,10.7281358494,0,0.58,0
1256,3648,3603,12.3845441166,11.7750177247,-10.5785618713,0.78,0
1977,6043,6042,15.6088977659,16.2343273987,-5.0424291513,0.66,0
2612,7857,7839,11.1274801695,9.1324014321,0,0.56,0
1435,3960,3960,3.981579696,10.2028245637,-4.6804970477,0.92,0
1525,4375,4379,10.1552915671,16.4694570697,0,0.06,0
2691,8093,8066,6.9236023821,7.1957891839,0,0.18,0
2698,8093,8079,1.7775168831,3.7786693973,-12.113606187,0,0
241,773,743,13.7867794807,16.2285341428,-10.2543797845,0.97,0
1444,3988,3977,7.5195640625,9.0211961085,-8.1579347064,0.42,0
2792,8255,8238,6.4796401195,7.1654687986,-0.3933245913,0.2,0
2826,8479,8483,5.1482777638,7.6866552241,0,0.98,0
1775,5361,5327,9.9459249811,13.1902401496,0,0.8,0
1539,4385,4385,11.9264569605,14.1425965168,-7.104116045,0.88,0
1561,4454,4419,12.9889345159,24.5815888747,0,0.94,0
2550,7683,7647,15.1158671668,14.7556381359,0,0.66,0
2659,7804,7793,9.8100914043,10.669140117,0,1,0
2849,8333,8335,6.9913298516,6.2385795913,-3.5165893575,0.09,0
1541,4452,4445,12.7165456169,25,-50.04444154,0.29,0
1937,5792,5796,2.2342794827,7.3688360468,-1.6475900885,0.17,0
2568,7716,7696,13.9712159361,14.6476672138,0,0.98,0
2568,7796,7777,3.8157734823,10.4221384648,-44.4105230512,0.8,0
1989,5808,5764,13.315486306,10.5182287714,0,1,0
1989,5893,5898,4.7954325144,8.1424809227,-12.0162666126,0.76,0
2894,8428,8412,10.3388545357,9.1111153216,0,0.41,0
2035,5812,5790,11.5550295756,10.6421631293,0,0.73,0
825,2156,2162,17.2905367281,16.3643457313,0,1,0
1694,4823,4808,6.6296503843,8.5101921167,0,0.07,0
2523,7315,7319,9.2686486434,10.1263238109,-32.7303190981,0.61,0
2468,7466,7474,14.9397004892,14.8092704279,0,0.9,0
2468,7557,7585,3.4939684856,5.1885803943,-83.4653748179,0.8,0
1107,2902,2898,7.6810498431,8.9103627482,-38.1689407189,0.26,0
1755,5021,5015,6.3531309463,9.16931976,-26.0030753512,0.58,0
2819,8197,8174,9.5664359133,10.1281864026,0,0.79,0
1093,2802,2811,0.8505658303,6.1872862071,-9.3313448991,0.42,0
2675,8037,8023,7.8258619479,7.75337557,-2.9243425959,0.85,0
2717,8161,8128,5.2798271358,3.254886614,0,0,0
971,2450,2454,8.9359977156,12.293562784,-16.5798788691,0.94,0
2872,8500,8450,4.7437781758,2.8195682421,-0.1254837007,0.26,0
1796,5388,5382,18.9762530871,16.7369793378,0,0.99,0
1112,2899,2898,7.8807969559,10.8705842132,-22.0739168016,0.72,0
1984,5798,5756,11.9868248474,10.9628698448,0,0.97,0
2734,8112,8091,11.9951081391,10.7094740392,-14.4936719764,0.83,0
2129,6416,6375,19.9089700109,21.0628639249,0,1,0
1359,3935,3912,11.4838458141,9.5674814453,0,0.83,0
2699,8074,8071,7.5619187707,8.7434797765,0,0.31,0
417,919,871,12.0970953088,14.3255769437,0,0.14,0
417,1010,1008,0.5826491995,9.7800928653,-73.3767225683,0.08,0
891,2299,2272,15.6165970921,14.559863385,0,0.29,0
2494,7182,7162,6.1034814292,9.2898727801,0,0.81,0
2591,7781,7752,8.7835449114,12.354546351,0,0.97,0
2654,7968,7918,11.3980837134,13.1888332029,0,0.86,0
2589,7621,7622,10.482480796,7.866809809,-20.1679630502,0.48,0
1913,5589,5540,13.6899976857,12.1913764249,0,0.93,0
2228,6713,6706,14.9977689134,15.8222001903,-68.8828409809,0.79,0
2572,7721,7721,11.1123079986,19.647915503,0,0.11,0
2572,7818,7775,5.898144798,10.5115563581,-48.5031506691,0.63,0
1925,5661,5665,9.5620803762,12.9108123769,-40.4738490871,0.87,0
1246,3533,3542,5.8695858247,13.8573378089,-41.6797348058,0.9,0
2727,8089,8046,14.6773171314,9.6035570387,0,0.88,0
979,2487,2477,9.6343483047,11.0457629551,0,1,0
2093,6382,6355,13.2314699688,15.2894937468,-34.9847157662,0.66,0
1592,4549,4550,11.2968885739,9.7053901278,0,0.12,0
1592,4659,4641,9.1189151092,12.4944135907,-7.9678193531,0.54,0
2156,6396,6400,13.9310178246,16.4462082681,-8.5984775391,0.68,0
2205,6687,6667,15.9420498157,15.6491236724,0,0.99,0
1245,3615,3591,8.5761065558,8.8439185578,0,1,0
1462,4197,4151,11.0034453104,12.1043716831,-0.5776341662,0.53,0
181,672,705,0.0496871128,8.7992941656,-54.5658223612,0,0
867,2211,2221,9.7241409182,14.6901273949,-0.3720203376,1,0
1926,5600,5563,13.7604338786,13.6439704285,0,0.58,0
1926,5733,5736,9.2184604193,8.9303681329,0,0.91,0
1404,3907,3870,8.8286795661,4.827661348,0,0.18,0
1185,3396,3349,12.8353073034,14.5820873892,-37.6365167827,0.47,0
458,990,962,12.4357894904,11.3842752924,0,0.93,0
1702,4838,4817,10.0896269824,7.7552059051,-1.6446263059,0.33,0
1163,3251,3251,14.0177052009,16.7153228756,-36.8934419128,0.86,0
194,682,710,0.3258840906,9.5336720745,-72.0947521337,0.36,0
2988,8805,8769,4.9254577856,5.2406917077,0,0.54,0
1942,5750,5712,12.3845611853,12.5667978642,0,0.31,0
1942,6020,5992,15.646750073,14.9229451776,-9.0855110428,0.9,0
2079,5913,5904,10.9290966214,11.0012941501,0,0.5,0
2079,6003,5995,8.5391831007,8.2823357356,0,0.31,0
2593,7807,7772,10.9989349718,13.5516032709,-19.2158490336,0.52,0
2687,8052,8044,6.6188199758,7.5025481656,-5.224492308,0.47,0
2623,7693,7689,10.9592431957,12.2205151279,-11.0033212792,0.01,0
2623,8040,8016,3.5686504209,1.9877280899,0,0,0
2008,5840,5846,6.4226352604,12.9005140493,-14.5908925502,0.05,0
2304,6869,6823,14.8359135919,16.891178725,-28.6212633983,0.18,0
220,691,641,13.4998009938,15.6514777593,0,0.98,0
2870,8398,8395,4.3202260287,9.4354994406,0,0.11,0
932,2375,2376,14.6920110455,15.4624048563,0,1,0
2604,7798,7799,10.5204603856,13.7088736032,0,1,0
2871,8849,8849,9.8616553515,11.0512300288,-22.8744380743,0.93,0
1578,4506,4512,10.0692925061,15.3783751967,-12.8403341411,0.96,0
2913,8500,8470,8.5181902363,7.7430833081,0,0.87,0
1708,4850,4829,9.5260247685,5.7515338858,-8.5644503287,0.22,0
883,2294,2280,13.911024352,20.1096930456,0,0.37,0
1970,5747,5746,11.0031209006,11.0636166718,0,0.88,0
1970,5857,5851,8.6282941817,9.7933781413,-11.1672400213,0.31,0
2466,7455,7423,15.3422123173,15.0616129478,0,0.35,0
2326,6948,6940,13.3348646045,15.1818656391,-35.6623523404,0.9,0
2127,6408,6400,12.7950073422,17.5605124583,0,0.91,0
2472,7243,7243,9.7522528627,11.8558837752,-9.21013376,0.19,0
2462,7165,7125,11.8326069156,13.2978629224,-12.7194895482,0.26,0
2240,6776,6771,15.0438064461,15.9653329657,0,1,0
2858,8295,8266,6.8062542767,8.652528776,-13.5919335806,0.98,0
2858,8814,8817,6.6048598723,14.0900662523,-33.1278855374,0.93,0
2713,8138,8171,0.3509538892,3.7069065134,-16.7156456117,0,0
1691,4798,4787,10.3436590981,9.3937131134,0,0.41,0
1698,4878,4874,9.2506950608,12.1759087148,-31.5923883251,0.67,0
1309,3777,3805,0.0402939352,5.7739319044,-31.7000497041,0,0
1580,4562,4517,16.0626649336,16.9633396078,-17.9554998027,0.76,0
1685,4791,4770,9.5303561536,9.1829160612,0,0.89,0
1364,3964,3932,10.2752056582,9.8707325635,0,0.94,0
1221,3508,3487,13.9149133011,12.4472776873,0,1,0
2487,7198,7196,3.3916035377,7.4188260743,-7.4097762531,0,0
2588,7792,7746,13.6969238114,14.2123714739,-50.0478556271,0.69,0
1453,3999,3979,7.8979164033,8.3416456277,0,0.51,0
1260,3581,3579,12.6030357205,15.1371591466,-1.1805593348,0.94,0
1325,3781,3759,7.9490547059,7.6096331001,0,0.18,0
1423,3930,3931,7.2438239239,10.0176784024,-4.2273073334,0.35,0
1196,3405,3384,14.6706221362,14.9297574427,0,0.6,0
1964,5844,5836,8.1943920651,3.0104429402,-11.9896556261,0.19,0
1600,4672,4660,9.227692158,9.0718301278,-2.6084843804,0.55,0
2582,7588,7580,13.887774409,13.2320178012,-13.5348223398,0.51,0
2478,7360,7364,10.2850116498,12.3606320279,0,1,0
2478,7688,7655,10.749822998,7.6320419977,0,0.17,0
1772,5346,5298,13.2090043001,13.2005980479,0,0.23,0
1248,3621,3605,12.1428382667,11.400538224,0,0.4,0
1741,4966,4957,7.9708113727,10.0227010104,-4.6096495195,0.8,0
2134,6100,6094,6.1631144114,7.3582840397,-4.9493002651,1,0
1998,5815,5819,7.9473396296,12.456790854,-20.6646612074,0.58,0
882,2243,2242,13.0397574749,16.7057104178,0,0.99,0
1557,4438,4439,13.3719920343,14.5081286759,-11.6220266437,0.3,0
2599,7783,7778,14.0527210229,16.7209655996,-26.6782210575,0,0
1566,4472,4459,11.6795921493,12.8192001957,-5.9391634763,0.32,0
1566,4578,4578,7.8530606915,11.9693670297,-38.770857268,0.71,0
1981,6090,6068,16.4358465267,16.401236428,-7.8867502654,0.93,0
2054,5990,5990,12.3969234931,10.8520779137,-1.8196786023,0.83,0
1047,2591,2575,10.7904559913,11.6706227237,-37.7338990825,0.17,0
1129,3175,3127,15.8933482873,13.8110990074,0,0.85,0
2688,7830,7831,6.818476738,8.6037785342,0,1,0
2191,6663,6613,17.0106664466,16.9794396955,0,1,0
2876,8867,8864,8.4470844098,13.23135351,-28.7156525282,0.99,0
1170,3294,3286,14.5161964232,19.3688682893,0,0.4,0
977,2499,2492,13.0049060708,15.0539312836,0,0.95,0
1208,3446,3426,14.1604400403,14.4452675143,0,0.55,0
1955,5820,5826,3.6091034666,7.1340658507,-10.2456806574,0.28,0
2337,6918,6908,17.9449808215,14.5360372688,0,1,0
1727,4882,4836,7.7437756003,9.3354809319,-9.1578733549,0.71,0
1727,5158,5169,6.9676059883,13.4234266756,-12.2416744271,1,0
1420,3919,3875,11.1743380973,11.0812219914,-0.8752323421,0.43,0
1420,4120,4103,17.1499013347,11.6039727453,0,0.85,0
2711,8069,8056,9.455825914,9.1230634923,0,0.83,0
1681,4811,4812,9.2485102421,15.2948374893,-8.5687607364,1,0
2533,7269,7258,6.5715131441,3.5321495766,0,0.32,0
1389,3864,3897,1.1146398927,5.7382189544,-26.8406776162,0.24,0
1188,3317,3339,12.4257710929,14.3331244028,0,1,0
1609,4627,4619,25,15.1077283207,-2.6376151064,0.5,0
2910,8925,8928,11.7415663863,10.9034738399,0,0.73,0
302,828,823,11.3898200736,9.1284143572,-6.4024921932,0.04,0
2861,8381,8377,0.0689999469,5.6873450387,-14.393505965,0.64,0
822,2182,2153,17.3658438912,15.405212304,0,0.95,0
2218,6709,6703,16.0659869955,17.3147571776,-12.0226235218,0.9,0
1882,5563,5519,14.804849238,14.6697816227,0,0.86,0
1668,4769,4741,9.4724486594,9.0808569051,-6.6090671161,0.85,0
1593,4549,4544,12.0680622524,12.7599188248,0,0.27,0
2899,8455,8427,9.3647453422,8.37999473,0,0.85,0
2587,7599,7605,18.1461212853,13.1905641903,-10.878342472,0.91,0
2085,6353,6385,14.6015721112,15.136410495,-23.2281265438,0.88,0
769,2063,2061,15.0969696172,15.3808366651,-2.8588288016,0.81,0
2469,7184,7141,11.7025166503,10.9794661726,0,0.3,0
996,2542,2536,11.8712588087,14.0446252012,0,0.5,0
996,2615,2615,6.8030672524,10.7198813265,-84.5479260252,0.33,0
2175,6225,6223,2.4630188907,7.3790836032,-18.0999531724,0.95,0
2840,8357,8342,2.735725743,0.949801326,0,0,0
1844,5431,5433,13.5370307257,14.7344821285,-2.1212647265,0.99,0
280,813,768,13.3225412333,15.7773827347,0,0.18,0
2431,7130,7112,14.1990384215,12.1394149177,0,0.4,0
2645,7752,7756,11.5189979091,12.5857338847,-1.3903279745,0.49,0
2573,7718,7717,15.1740230619,14.4123846783,-36.4479009229,0.48,0
2859,8373,8387,1.1827897211,4.3026954172,0,0.68,0
2829,8223,8203,9.170928931,9.6385529378,-2.5102377474,0.37,0
1353,3813,3801,8.9439377739,9.1118397357,0,0.7,0
1854,5473,5472,10.8982741779,13.9138585958,-15.3899134327,0.99,0
1870,5532,5525,11.9510614102,12.2778003721,-17.8776761147,0.96,0
2616,7820,7817,11.5461228396,25,-16.4163467027,0.54,0
948,2374,2372,11.7179491249,12.7275452123,-21.4009391579,0.2,0
2509,7669,7631,15.1441775274,14.1267988042,0,0.97,0
2444,7450,7422,18.0922485795,20.9807267334,0,0.57,0
1920,5939,5890,14.3916797889,19.863266406,-31.6466196292,0.14,0
2916,8552,8556,0.1825977991,3.4186741306,-2.5096153989,0.86,0
2441,7166,7171,8.9906236217,11.5168450631,-16.5348270271,0.91,0
1234,3506,3472,11.8372104472,12.1318780138,0,0.98,0
2249,6760,6713,15.5539143397,16.1399433177,-6.0657829795,0.61,0
239,741,728,13.0604610995,15.2609199239,-10.8217457628,0.13,0
2621,7855,7876,10.5534857229,11.6916750243,-14.5408708511,0.17,0
2881,8883,8876,9.3668594132,12.1904006533,-27.6158984822,0.92,0
2423,7519,7504,2.9723642427,6.6115990381,-41.1077569602,0.75,0
2140,6114,6116,1.7971411763,9.2076644216,-43.7385349522,0.55,0
2073,5900,5889,8.1539312745,5.9274711191,0,0.29,0
2073,5991,5980,8.9083153633,8.9413709069,0,0.33,0
2144,6116,6114,4.5295332252,9.8021799797,-36.5580070405,0.37,0
2877,8879,8866,9.2401170914,16.5663873065,-29.3560089382,0.49,0
1621,4685,4691,7.3902190298,11.0376508416,-20.3159826707,0.54,0
2644,7950,7907,13.7608896391,10.8878152854,0,0.46,0
2576,7766,7795,3.9704147415,7.3657712901,-22.0943672288,0.69,0
1963,5999,5996,19.3322117642,16.2774147452,0,1,0
1576,4523,4521,14.8801605051,14.7652172641,-12.0480754181,0.99,0
2130,6075,6084,4.8001548514,7.2533707234,-4.7307337141,1,0
2548,7293,7293,2.7140015699,7.5091668948,0,0.97,0
1161,3233,3237,14.1463721263,17.4171606286,-19.2027382168,0.24,0
2552,7316,7294,9.4382619665,10.9543161013,0,0.28,0
871,2214,2219,14.2014617316,13.7338895853,0,1,0
2536,7664,7662,13.2928936156,14.4971482671,-15.2721060482,0.49,0
1904,5573,5535,12.9027381849,13.3161565498,0,0.82,0
801,2151,2117,13.2522205894,14.9554365666,0,0.74,0
2728,8075,8078,10.9654258662,11.3173472495,-6.7064241985,0.6,0
2372,7051,7022,15.0304773397,13.1179392897,0,0.55,0
2943,8581,8553,4.19579966,4.2800017151,0,0.39,0
2463,7451,7447,13.6978634829,15.6525288436,-9.2317955779,0.78,0
2646,7923,7902,10.9102207797,12.6470729019,0,0.31,0
475,1010,1005,11.4689073324,11.8397989784,-1.4291316923,0.73,0
137,528,509,16.0492815375,14.8310594653,0,0.97,0
1367,3790,3749,9.422695343,12.5822777929,-12.3406221847,0.99,0
2828,8207,8205,9.9238403824,11.6924595398,-1.5348054769,0.13,0
2828,8283,8258,0.2292292797,1.0610658598,-9.0791140664,0.06,0
2764,8264,8226,2.2936758083,4.282420977,0,0.27,0
2570,7339,7331,4.4177972471,3.1998552144,0,0.26,0
1027,2593,2588,11.3573145001,13.3848640301,0,0.97,0
43,331,330,15.0756670839,14.8794953485,-14.0555931692,1,0
1033,2596,2566,10.9752492828,10.1625909551,0,0.54,0
1934,5970,5989,17.2887249025,18.4012910367,0,0.55,0
2729,8059,8067,5.5957018532,12.2757667014,0,0.13,0
2992,9070,9076,8.31878585,11.4124979496,0,0.6,0
104,447,431,16.9161347689,16.4653976804,0,0.49,0
2160,6556,6525,16.6185991441,15.2999149051,0,0.97,0
2479,7247,7197,16.2648663192,14.3063492682,0,1,0
2041,5856,5813,10.992965816,10.6593788988,0,0.65,0
2041,5958,5944,4.0334206035,5.1739521131,-12.2841985584,0.8,0
468,992,958,11.3123387866,14.0811659099,0,0.19,0
468,1080,1077,2.247261673,9.7714213462,-50.8574683183,0,0
2930,8508,8484,7.4205239083,8.1044504295,0,0.35,0
1768,5322,5313,11.7613743855,13.1038939701,0,0.42,0
2361,7020,6996,13.6291438112,14.7919330442,0,0.9,0
3018,9099,9063,11.9002251823,12.1387843363,0,0.25,0
2695,7845,7845,10.284649673,14.1164717273,-33.3740238899,0.99,0
2695,8020,8001,11.4297351093,16.2425211758,0,0.36,0
2874,8401,8404,2.9163988615,7.6238703069,0,0.93,0
2059,5873,5868,11.9257054122,10.8026290181,0,0.39,0
2059,5972,5967,8.6703234262,8.0502305185,0,0.26,0
2605,7638,7648,10.659867431,13.4683177833,0,0.93,0
904,2318,2305,14.0281679717,14.6534821163,-18.6638310067,0.83,0
422,888,878,12.7437769146,13.2095431657,0,0.43,0
1225,3462,3464,13.3917180291,15.3068838904,0,0.71,0
1394,3860,3872,4.0280720845,10.2884292916,-6.0018080714,0.07,0
1159,3214,3217,14.8714809179,15.623585371,-8.8450671294,0.9,0
968,2483,2448,12.5966489043,12.3999141444,0,0.97,0
1346,3792,3756,8.7332145606,8.6347113675,0,0.44,0
281,765,739,14.0072134024,13.9345999898,0,0.32,0
485,1395,1409,16.3424776312,15.0800365141,0,0.99,0
2704,8054,8046,10.2072569692,10.581798313,0,0.24,0
2594,7415,7390,1.8090513764,6.9166434846,0,0.58,0
2594,7638,7592,10.2551115947,16.3747747223,-11.4104545077,0.01,0
164,565,570,13.2287662673,20.1382779845,0,0.43,0
2498,7599,7573,14.3940148228,15.0895131791,-50.5684375951,0.17,0
1190,3415,3417,9.5392628475,13.7779123107,-8.8491759953,1,0
2032,5956,5925,10.7343774887,25,0,0.01,0
1262,3595,3608,7.0972413008,12.5190122966,0,0.96,0
1006,2552,2550,9.9834487934,12.5297777069,0,0.55,0
2924,8458,8426,3.3135197956,6.856344851,-5.5311149597,0.74,0
925,2339,2334,13.6454764273,15.4249827491,0,0.03,0
1874,5502,5460,14.6552631841,21.0538359171,0,0.77,0
1239,3607,3605,6.8791382224,8.8289150652,0,0.94,0
2641,7894,7857,10.0114714142,11.501689618,0,0.46,0
2033,5935,5921,8.0494937892,9.1092408715,-15.0351288496,0.43,0
788,2106,2071,16.527540773,25,-1.9624666371,0.31,0
1285,3678,3677,14.8069319683,14.0410742372,-6.839011102,0.39,0
1284,3749,3729,7.8236062453,13.2753965785,0,0.23,0
1878,5517,5475,14.8065304222,17.9169277224,0,0.32,0
1304,3730,3718,11.2546161386,11.9979982639,-2.9538539266,0.85,0
1657,4750,4742,9.2841192348,9.098410957,-0.7635629638,0.85,0
1657,4847,4810,2.2663590291,5.9583396991,-37.1449013402,0.33,0
2411,7345,7378,17.1400147483,17.0707500018,-5.150397936,0.91,0
1908,5568,5564,14.4671742451,14.4671742451,0,0.77,0
2618,8182,8181,6.9026351731,10.4463167687,-9.532931717,0.84,0
2983,9036,9034,9.9159810396,15.4998499843,-14.1478062001,0.1,0
2620,7835,7799,13.5159602707,13.1243360292,0,0.8,0
2628,7698,7706,14.7018340072,14.7906406377,0,0.39,0
2214,6619,6631,14.7180717327,17.1317299294,0,0.44,0
1001,2542,2531,11.9057241143,12.878937351,-10.9144405464,0.46,0
1623,4704,4669,11.1399246762,12.1317758462,-2.2173608223,0.32,0
2464,7217,7219,11.3513399231,12.8104918962,0,0,0
2554,8053,8060,8.3247661608,8.7306608828,0,1,0
2725,8159,8136,7.5314418772,5.1521358699,0,0.47,0
834,2179,2180,12.6925795845,14.4374467006,0,0.83,0
2235,6711,6704,22.1551753163,16.8001725204,0,0.98,0
2516,7795,7793,3.0540362163,3.8534427163,0,0.45,0
3014,8880,8875,6.3778575509,8.323460608,-9.0774129273,0.76,0
1515,4287,4309,12.202332367,14.4478019246,0,0.99,0
2567,7327,7305,9.880991182,7.9873265339,0,0.54,0
2567,7867,7897,1.0489430509,3.1668845201,-10.1653089931,0.34,0
363,855,863,10.7135650251,12.387034509,-17.6250982917,0.98,0
1431,3947,3911,9.8464367086,9.4140174162,-0.9539053672,0.59,0
1758,5278,5287,10.5953249881,12.3461157396,0,1,0
2592,7732,7724,13.1240239992,17.2843941266,-47.4232430914,0,0
1980,5858,5847,10.5298510338,10.635269736,-15.3673606123,0.82,0
1877,5541,5530,13.6736666517,12.9313366215,-21.5326863674,0.88,0
295,857,854,21.8385650491,15.2139212988,-35.1117246096,0.9,0
1226,3515,3487,14.7672308032,16.2616946535,0,0.55,0
2105,5949,5900,10.446617023,9.728771956,0,0.16,0
2105,6047,6053,1.7818818029,7.8534397418,-12.8945569135,0.17,0
2694,8103,8070,7.5113661217,6.5101572781,0,0.52,0
887,2284,2280,13.6817552392,20.6408879717,-2.9184493461,0.38,0
1088,2841,2836,6.0875450176,5.5013801439,0,0.79,0
896,2303,2313,13.3060374901,12.9176389697,0,0.9,0
1752,4997,4993,8.3277559602,6.6199295505,-8.4436436888,0.38,0
2672,8034,8007,5.1154260444,9.2288835894,-1.0338918481,0.22,0
1762,5028,5020,7.5878925659,9.0354646366,-32.8831413552,0.36,0
827,2210,2164,15.3360422133,14.763896511,-1.0655222447,0.75,0
1554,4601,4593,8.2653745672,11.9771944899,-54.0810579214,0.63,0
2556,7709,7680,13.7690139446,13.5020610098,0,0.2,0
1526,4351,4332,13.9905358072,12.5674419902,0,0.33,0
2480,7702,7710,0.494784229,4.4240977551,-26.0771818244,0.33,0
2565,7742,7712,12.8328564576,9.4806382376,0,0.5,0
2119,6157,6161,6.6076255444,11.3369258383,0,0.03,0
1168,3266,3277,12.7459488142,16.8538579312,-9.637411646,1,0
2569,7730,7724,12.1729997742,12.669683997,-1.2409512627,0.37,0
1995,5882,5832,13.1582793769,15.7232838829,-5.6277505961,1,0
2579,7577,7592,11.5640452654,15.6199225069,0,0.99,0
1021,2579,2575,10.9687616956,11.037212802,0,1,0
2596,7812,7782,6.9073144743,12.262530661,0,0.14,0
1069,2751,2719,9.4866244529,12.8541805932,0,0.38,0
2705,7986,7964,11.7056412583,12.0914906139,0,0.37,0
1066,2716,2670,12.473605935,11.9463672685,0,0.58,0
2586,7783,7816,3.9845688351,6.6973475936,-32.9479994729,0.47,0
59,348,335,15.1865439911,15.1865439911,0,0.99,0
1352,3921,3901,6.4714863774,11.7151093658,0,0.71,0
1005,2507,2502,11.0367929704,8.5499523572,-14.5919537042,0.21,0
247,782,733,16.389280506,25,-67.6343366636,0.78,0
865,2266,2244,14.6843506287,13.3800852316,0,0.85,0
2716,8084,8039,9.8855060252,8.8709610404,-5.9181425078,0.66,0
2540,7727,7758,4.6851334534,4.203995287,-6.7226615753,0.1,0
2003,5887,5879,11.8650352095,25,0,1,0
2003,6174,6140,16.8703618673,18.7202360821,0,0.86,0
852,2233,2214,14.4027125262,12.9089208553,0,0.53,0
223,667,626,13.8018124435,17.9809804015,0,0.25,0
2948,8638,8630,2.1136998671,3.6379360796,-2.1481379573,0.38,0
1294,3708,3722,5.7690645544,11.0479832664,0,0.86,0
2092,5925,5893,11.2093316839,9.0642796275,0,0.2,0
1099,2826,2824,5.208810659,2.5290724072,0,0.67,0
2669,7796,7776,12.0946853837,12.6030916924,0,1,0
3032,9128,9103,15.2390323966,13.2067969674,0,0.87,0
2911,8538,8530,2.3363554963,2.9059978831,-6.9069948628,0.47,0
2142,6480,6460,15.6547027445,15.7525014124,-18.8384499277,0.96,0
2731,8105,8113,3.7977671931,9.2204288226,-11.7205145855,0.25,0
972,2468,2480,6.2105173877,13.6925857826,0,1,0
945,2376,2354,16.7091746328,13.0560076865,0,0.66,0
376,953,945,5.341630669,9.9259337091,-49.2045202038,0.33,0
2331,6906,6907,11.3751932819,20.9531475647,-26.5097212837,0.93,0
404,860,855,12.2785740179,11.2064661997,0,0.95,0
1914,5874,5865,15.6445114341,17.1150980114,0,0.93,0
2766,8160,8151,9.6115351276,9.4957789607,-17.4155017149,0.14,0
3024,9148,9102,12.6242779712,11.6746257068,0,0.9,0
1296,3705,3708,8.5120726714,12.5440158515,0,0.07,0
304,837,826,12.1472187043,13.5722482063,0,0.66,0
1012,2494,2488,11.3097808775,13.327795516,0,0.02,0
1366,4013,4007,13.0415927928,13.1666248104,0,0.35,0
1615,4692,4662,11.367979934,13.5275691223,-25.7549885929,0.9,0
1717,4913,4920,4.9280685592,7.2119155048,-24.3951396301,0.94,0
2761,8189,8151,9.6220971313,10.4217409741,0,0.29,0
2055,5848,5856,11.0922992322,10.9776051614,0,0.92,0
1152,3192,3200,12.9421656876,14.8095172903,-10.6626502573,1,0
2907,8468,8463,3.1246267071,6.4051593335,0,0.99,0
1409,4118,4104,12.4377593489,13.3875958396,0,0.98,0
