id,re_frame,de_frame,c_keep,c_change,c_collision,p_safe,decision
9,686,697,1.876797466109959,10.690876519485252,-0.6241500182721134,1.0,1
39,938,921,7.2980147651670775,8.8710690474938,-13.538962336302477,0.89,1
43,449,438,8.623214423752836,15.932043657329366,0.0,0.96,1
72,743,733,12.751202846180645,13.16200791063981,-0.18453505844990434,0.94,1
78,556,578,2.035210462019695,10.968629434055186,-5.973359177284976,1.0,1
99,1054,1033,7.624852521154065,8.767914937595922,0.0,0.87,1
122,1180,1164,6.6989996969504695,9.022305178125485,-27.83447755765564,0.88,1
123,1254,1263,2.5423412216858234,7.678979933261998,-14.379156625250436,0.91,1
144,1118,1137,0.2991297845290958,9.672112676924028,-35.20216337331865,0.0,1
339,1854,1851,0.2267491224643436,8.244329654375353,-34.28927498766018,0.95,1
342,2219,2224,12.793357052971604,14.486077266240045,0.0,1.0,1
352,2118,2099,11.841126472815459,8.01953884126797,0.0,0.94,1
362,2175,2175,11.143796731254238,14.574722823154218,0.0,0.96,1
425,2463,2433,8.416907860425352,11.175058803107227,-21.267929884336315,0.93,1
469,2742,2755,5.772647203959719,13.931914148897121,-2.211709695239103,1.0,1
492,2796,2787,12.865841943486293,13.90194266954636,0.0,1.0,1
502,2776,2791,9.207899241143721,15.502217776591941,0.0,0.99,1
502,2877,2846,17.491580138132022,23.811917634947847,0.0,0.94,1
510,2862,2859,12.181055360985303,15.602986741772577,0.0,1.0,1
520,3081,3049,12.664619328587042,13.970331905322283,-31.9512093723146,0.94,1
521,2926,2910,10.398408547077945,14.651354637756201,-22.800744976706362,0.99,1
526,3106,3118,3.7240673551155363,10.94043977792625,-7.424620503973241,1.0,1
554,3016,3021,14.691014584382076,21.857719864669804,0.0,0.97,1
555,2973,2974,13.71421831555682,10.72616710941316,0.0,1.0,1
561,3023,3019,10.737762052843442,13.020599328250634,-11.039897605881036,0.98,1
565,3042,3053,7.664264078135263,12.798877310202416,-10.005761265096968,0.98,1
567,3014,2989,5.374512412929298,11.582913836530196,-31.38677460196787,0.98,1
571,3062,3070,12.270844487134754,16.520118347611483,0.0,0.98,1
593,3145,3119,11.547364537591095,15.352054106453092,-5.912022622755863,0.96,1
597,3179,3173,14.464885596496407,17.1863842599853,-5.835932215082801,0.97,1
652,3574,3570,6.706812917098298,7.938219410266915,0.0,0.89,1
657,3253,3225,9.935498875422486,9.217223219859372,0.0,1.0,1
665,3620,3627,6.403111834678351,8.012618189653057,0.0,0.99,1
668,3406,3425,8.678562271073694,25.0,0.0,1.0,1
710,3976,3964,10.865919486654123,14.081222834588571,-24.275092995918715,0.99,1
722,3942,3952,11.203874512577775,17.291791717881228,0.0,1.0,1
791,4171,4142,12.769466515191333,12.763729264324152,0.0,1.0,1
819,4144,4121,9.04190434411339,12.957719905686465,0.0,0.96,1
823,4292,4300,16.720835718633765,17.69173629341506,0.0,0.95,1
828,4197,4192,12.260785125098204,18.462655735718215,0.0,0.84,1
840,4322,4327,16.151106699618555,22.28072457280539,0.0,0.91,1
848,4376,4391,9.121343796760632,14.371440760263743,-17.371021831328182,0.96,1
848,4514,4515,6.6227916676646545,12.319945559958482,-30.26777396647169,0.97,1
849,4227,4205,5.307671706364665,10.365547217432159,-39.854214118369924,0.98,1
849,4485,4460,6.8006846101297995,12.020638756251273,0.0,1.0,1
851,4574,4558,8.229503687820424,12.040275951905105,-56.08201685833332,0.74,1
852,4554,4568,6.512210810008944,13.877878854542972,-26.52135021623462,0.98,1
863,4434,4458,5.215164371449079,12.436388514125838,0.0,1.0,1
909,4429,4438,8.18013633361494,10.897244191954954,0.0,0.97,1
917,5080,5075,4.007124293785479,6.114665419159039,-11.396964089377365,0.82,1
963,4643,4666,9.298494495048622,12.375269340605117,-14.181391615743188,0.98,1
963,4933,4945,6.7334244876154905,11.039245895301686,0.0,1.0,1
1016,4921,4904,2.3227627952601866,9.614348233800683,-47.53053785743188,0.77,1
1019,5036,5024,9.669411258611209,12.432533194691828,0.0,0.99,1
1082,5764,5750,9.405325322017294,8.644382568748258,0.0,1.0,1
1104,5909,5882,10.248416418718218,12.78946266442346,0.0,0.99,1
1109,5875,5849,9.959620805381139,15.501027520679978,0.0,1.0,1
1130,5895,5879,6.718666865972897,10.06187456884312,-7.490612177011177,0.99,1
1136,6127,6131,12.751136283020381,25.0,0.0,0.75,1
1142,5946,5933,9.621366122499271,11.080671865291064,-7.720277670174495,0.99,1
1162,5602,5588,4.072350205540214,5.96828310764786,-5.466371343336935,0.79,1
1162,5711,5702,4.590775263367036,8.713585571405192,-4.845741526616376,0.87,1
1162,5972,5953,1.3573843977168218,4.576472738163528,-7.221867435128469,0.89,1
1162,6147,6170,8.842427386259207,10.96803753321866,-38.4804868050709,0.91,1
1190,6283,6248,9.214322225918314,12.015523268045534,-46.167211745472095,0.79,1
1195,5928,5902,2.197297680973641,4.212481968316555,-4.655191191314691,0.59,1
1195,6146,6159,10.908218650114968,13.659614522496074,0.0,0.95,1
1195,6299,6277,6.130456022940846,6.7650535842260044,-8.750320729180519,1.0,1
1216,5580,5579,3.480655227012932,6.538128669608831,0.0,0.97,1
1250,6319,6345,0.38146873808091225,8.692774716078493,-29.79636127854135,1.0,1
1263,6369,6375,9.948807729219515,14.96619251213011,0.0,1.0,1
1281,6556,6575,4.579989007014199,25.0,0.0,0.99,1
1314,6955,6947,8.335282499624642,9.915595392144317,-17.548038648453627,0.81,1
1346,7232,7233,11.294957599756525,13.895318917314858,-13.202676943993469,1.0,1
1371,7259,7248,9.456938456369434,11.392638478368042,-10.035705170911708,0.98,1
1377,6829,6796,6.594458640310283,10.409554633251457,-40.213530657689596,0.67,1
1380,6688,6696,2.676700812103235,9.626015626377347,-20.918036675353378,0.98,1
1389,6654,6680,10.539471880625243,11.650465338735797,0.0,0.93,1
1390,6825,6792,6.630267991741064,9.128277394200147,-26.154174378818738,0.51,1
1393,6753,6749,8.540171543373997,10.28504359405587,-5.3672273110564666,0.95,1
1404,6820,6805,10.08442126495481,12.373922263635924,-14.292618023180347,0.98,1
1404,7234,7245,0.37015349506515377,9.314561269085461,-9.116936198687927,1.0,1
1434,7164,7181,3.5863555177809325,11.624917915052157,-135.41020111102597,0.82,1
1434,7294,7291,11.457990706956032,25.0,0.0,0.89,1
1445,7011,6966,7.585642584288462,8.650703343365116,-28.02208954970863,0.93,1
1448,7307,7311,8.936319425912497,9.288683242254633,0.0,0.91,1
1481,7409,7417,5.856298534130534,10.845393220785967,0.0,1.0,1
1559,7939,7959,8.271271463691283,12.825725600764319,-3.2644167146601233,0.94,1
1582,7879,7885,7.455080620091906,13.580282622491712,-0.7316761597407663,0.95,1
1626,7868,7859,8.224508893349492,11.094629006611004,-6.760592236939388,0.88,1
1674,8307,8319,5.5298669454001,19.7826245765597,0.0,0.94,1
1724,8492,8470,11.56900734013214,10.765224772972712,0.0,0.95,1
1746,8656,8666,12.587245975409406,25.0,0.0,0.98,1
1760,8636,8624,9.263234689356231,11.037065486980433,-20.786094301697844,0.85,1
1770,8811,8812,13.898665186316556,18.052585918452156,0.0,0.92,1
1803,9042,9052,0.44734737205995007,8.586605580193098,-41.97850900831433,0.98,1
1807,8790,8809,5.859654961518211,3.4287229003370365,-15.492257089344013,0.96,1
1822,8994,9006,6.277738421754598,25.0,-22.271925313780017,0.99,1
1827,8985,8961,6.71106887775052,12.485829739701,-90.90779385264754,0.42,1
1827,9114,9133,3.629124673736718,12.395523331665665,0.0,1.0,1
1828,8692,8670,5.870691346906545,7.237424143941099,-5.868660983221176,0.7,1
1838,9364,9346,3.599350568946757,9.56586622169575,-38.730449213565485,0.9,1
1845,9163,9150,12.172331488997271,13.008263756722616,0.0,0.95,1
1872,9097,9072,10.42830377487936,17.70181139919392,0.0,0.95,1
1910,9325,9306,9.145310367413295,6.578950986210558,-25.742826553865367,0.99,1
1912,9321,9299,5.546534074615767,10.121931348583818,-59.45824105506408,0.43,1
1927,9676,9686,0.6351021918302558,9.281727275499057,-21.46652357108848,1.0,1
