id,re_frame,de_frame,c_keep,c_change,c_collision,p_safe,subj_v,adj_lead_v,adj_lead_rd,adj_lag_v,adj_lag_rd,decision
9,686,697,1.876797466109959,10.690876519485252,-0.6241500182721134,0.99,8.58449937144045,10.718377664001418,-1.2073920569945935,8.570894840018571,15.59838337991657,1
39,938,941,5.633591842100149,8.402403327673628,-17.54688867675333,0.94,6.97168082723357,8.410089512683514,0.7035684084184481,9.188481050584675,28.360822656952774,1
43,449,439,8.661634573196345,16.00258080755137,0.0,0.98,8.532015502273522,9.444812081523946,37.7437163319906,6.701296593812555,7.755709770672066,1
72,743,732,12.734145547151943,13.077658196371473,-0.1802880803825453,0.95,12.226376003925715,13.024173001347357,6.884721403518256,12.231365521413135,12.590101427734663,1
78,556,578,2.035210462019695,10.968629434055186,-5.973359177284976,1.0,8.942926653145575,10.993153470264968,-0.8330698429506889,9.474660321169782,22.196345742101155,1
99,1054,1033,7.624852521154065,8.767914937595922,0.0,0.88,7.867111264576067,8.034492732174702,15.9556377802745,7.518280589452579,4.525206622796828,1
122,1180,1150,6.225813411723324,8.814337140984556,-30.344815040079787,0.86,5.463808646588622,8.927898293926733,-1.5658103137602044,9.06938080914029,31.230097182905986,1
123,1254,1268,0.7054166034204705,7.50281814940422,-19.03685176043148,0.83,6.027788645970901,7.512284280855532,-0.6450252034910839,8.379310944731877,12.532999787769995,1
144,1118,1126,3.0949811373028644,9.786659601942292,0.0,0.99,9.203743735003428,9.761971804685635,4.278399659969107,0.0,94.8184048222744,1
339,1854,1851,0.2267491224643436,8.244329654375353,-34.28927498766018,0.96,2.641562754677461,9.117974163457305,-11.702137947127545,4.698524507764776,31.221061564695606,1
342,2219,2224,12.793357052971604,14.486077266240045,0.0,1.0,13.380597343046514,13.938908991716197,17.167372758428556,0.0,95.27583036227813,1
352,2118,2099,11.841126472815459,8.01953884126797,0.0,0.97,7.15958938046892,7.974716031020657,5.731367310348105,2.7788020355613328,3.377956312557024,1
362,2175,2177,11.025763581049924,13.68056935535449,0.0,0.99,12.680803708538638,8.520440129039233,34.74198135638923,6.991084319460297,-3.8341281617865848,1
425,2463,2429,8.157759599619096,11.1300539427883,-24.345289539311114,0.96,8.730077435791186,11.17109404841589,0.5874843945250774,10.966470813590234,16.713535728807415,1
469,2742,2755,5.772647203959719,13.931914148897121,-2.211709695239103,1.0,12.24212769025242,13.945911976539472,0.722572876425204,12.303157907082326,22.441191368131165,1
492,2796,2787,12.865841943486293,13.90194266954636,0.0,1.0,12.436350440984762,13.894319240859904,4.692302159640121,10.540241537026686,42.314523797969684,1
502,2776,2791,9.207899241143721,15.502217776591941,0.0,1.0,11.241640344201913,12.339573738737386,31.405973240393266,9.995939488541213,5.427505580523849,1
502,2877,2840,17.50899081453924,24.599580154006254,0.0,0.96,15.530597322451241,12.715144339385379,51.28231645909085,11.863548475657204,-0.4043764840944677,1
510,2862,2859,12.181055360985303,15.602986741772577,0.0,1.0,13.287206674334675,15.399659435630241,14.281956059745767,11.274945749730339,7.654031377001208,1
520,3081,3044,12.779828879152857,14.15520862825995,-35.943405706093095,0.95,12.449597931340932,14.166626650581334,2.7122407012074063,13.518413067279067,33.2092407040983,1
521,2926,2906,4.764937924357038,14.494476514870765,-16.613069295258974,1.0,10.421729562929084,13.93754798550516,21.540478681506812,11.766330471734669,14.535906252857526,1
526,3106,3118,3.7240673551155363,10.94043977792625,-7.424620503973241,1.0,9.986193688811918,10.846824542485418,8.110000667670022,10.68232935452253,23.6421682935023,1
554,3016,3020,14.588290707323525,21.850079665288145,0.0,0.96,16.53496147217872,13.880192776172803,44.169918913098144,11.626364716752024,-0.8845714755443739,1
555,2973,2975,13.391565497129829,10.715690156805227,0.0,1.0,12.664092295361385,10.461452169161047,9.877249659789797,9.564411123413386,14.187234891301491,1
561,3023,3020,10.703237606108598,13.034557691911637,-11.65670914583454,1.0,10.927801390638683,13.061341880821313,1.9225342292198633,11.676320064252202,30.55260088499785,1
565,3042,3054,7.222835238661437,12.883253207887016,-10.6384372257258,0.98,11.492228365374945,12.68593209829854,11.86244818980451,12.353697298411431,12.079306580244985,1
567,3014,2989,5.374512412929298,11.582913836530196,-31.38677460196787,0.97,6.035179530576342,12.21280556987378,8.759051956097828,9.17350099525759,18.552724393404727,1
571,3062,3070,12.270844487134754,16.520118347611483,0.0,0.99,13.547252274743878,15.533330291337634,24.383240551815447,11.636771441614588,4.048740689357246,1
593,3145,3121,11.750845691738245,15.587835696159523,-4.763869608303122,0.98,11.245385550850967,15.84726557724803,-2.989450187154077,9.777900684779103,32.88389769057691,1
597,3179,3174,14.462604934176726,17.259760076291204,-4.751202067389557,0.95,14.366814683891635,14.368082567077002,31.457445241043303,14.697353081358198,12.484525982969757,1
652,3574,3570,6.706812917098298,7.938219410266915,0.0,0.91,6.427322370770987,7.948031575519567,0.08404814861947685,4.699172356919139,14.274281403348287,1
657,3253,3220,9.41137506221126,9.061323011546841,0.0,1.0,9.16059768711123,8.053842631722018,17.71423177328481,7.042279809384352,22.339682665028015,1
665,3620,3627,6.403111834678351,8.012618189653057,0.0,1.0,7.624060735128888,8.010208780300987,0.9876119329817996,5.397139029825449,11.10074543499896,1
668,3406,3426,8.285124448611802,24.95989827203064,0.0,1.0,16.14597200735846,12.02872275704065,51.55565786389781,10.761568344960725,12.016028503059726,1
710,3976,3949,10.443847925005477,13.663319605317463,-9.181134027898901,0.99,11.004500858335692,13.726170985812548,-5.907271110208373,8.95136142318697,49.76245086666315,1
722,3942,3952,11.203874512577775,17.291791717881228,0.0,1.0,12.864115880642652,13.620169094547558,33.81056129106488,9.254647361152301,10.548914537544253,1
791,4171,4139,12.644468319904243,12.727236797262831,0.0,1.0,12.526915216157603,11.133045546566214,22.211101589022093,8.304227803730512,18.31038631937644,1
819,4144,4118,9.068250233171774,13.267693352093632,0.0,0.97,9.598046151183008,8.026217561361056,32.25777500316934,4.335268783321162,-5.1690502988757325,1
823,4292,4300,16.720835718633765,17.69173629341506,0.0,0.95,17.547676742770893,12.269285134927204,33.083781915241445,12.773157015818605,-0.9111017143123616,1
828,4197,4192,12.260785125098204,18.462655735718215,0.0,0.78,11.68044057247502,13.812709881652085,37.987153181472664,6.34211632468791,-8.08168727502822,1
840,4322,4325,15.96339797253306,22.34448256320809,0.0,0.81,17.648544287763595,14.449146871333085,44.833782133624965,8.18108839515866,-10.529366691713737,1
848,4376,4392,9.083433561465089,14.389694548275711,-17.83623159697984,0.97,10.46223414812504,14.57662397988,-0.9568757298784849,11.661361612815845,21.403538838854956,1
848,4514,4518,5.461187303866292,12.393692075633385,-33.28318370531351,1.0,8.686560189846523,12.577772056511314,-7.152873405743341,0.0,98.77095835147198,1
849,4227,4205,5.307671706364665,10.365547217432159,-39.854214118369924,0.97,5.305703270551998,10.821069716079377,-5.76420336512582,0.0,95.5543515342988,1
849,4485,4460,6.8006846101297995,12.020638756251273,0.0,1.0,15.333962268971622,10.631249134146769,16.54727490410707,11.417896618307937,6.981120443254196,1
851,4574,4544,8.414571563364786,13.27608442723531,-65.63658813079878,0.95,7.4533514324607255,13.96712352142362,-2.14396281370997,12.313762370797724,43.578360578262384,1
852,4554,4568,6.512210810008944,13.877878854542972,-26.52135021623462,0.98,11.948221197132725,13.853468626465741,7.3887908065207455,14.021310972812858,35.907150265247026,1
863,4434,4458,5.215164371449079,12.436388514125838,0.0,1.0,10.770864498017389,12.439371451279003,3.8209709016302895,9.147286326412056,17.556691731678004,1
909,4429,4439,8.152670469961944,10.90605237894934,0.0,0.95,9.736860881887837,10.452539145238173,14.487712282612222,9.548203791054222,8.71460699663802,1
917,5080,5076,3.993112265274104,6.120323661985421,-11.240488731055157,0.8,4.419825412295105,6.133040657077724,1.181757035911545,6.2464368588441035,13.040459574162114,1
963,4643,4654,3.660221699511159,14.906105141548922,-15.269194348646396,0.97,10.518951661077187,12.38376430737303,29.22927882854237,11.818153913465126,16.306324020663553,1
963,4933,4945,6.7334244876154905,11.039245895301686,0.0,1.0,8.564214411730775,11.084214143038661,1.150061992149979,6.230270081983548,18.877606418256534,1
1016,4921,4904,2.3227627952601866,9.614348233800683,-47.53053785743188,0.66,3.1241680261953046,10.747566981275607,-6.9236147234137695,8.372103158648997,24.281873028870216,1
1019,5036,5024,9.669411258611209,12.432533194691828,0.0,1.0,9.089074964890033,11.361193439498392,21.85375604861059,8.192471909476343,28.1610812919702,1
1082,5764,5750,9.405325322017294,8.644382568748258,0.0,0.99,7.7902906909067235,7.913676243597031,16.138302885880314,2.448478359658304,8.999361272637927,1
1104,5909,5882,10.248416418718218,12.78946266442346,0.0,0.99,10.118993078598056,11.815454329404234,20.385479169678163,7.079797715652853,8.130853022703771,1
1109,5875,5849,9.959620805381139,15.501027520679978,0.0,0.99,11.176762192509951,13.135264514308707,36.49850407741173,7.986685018122408,20.56358109799854,1
1130,5895,5879,6.718666865972897,10.06187456884312,-7.490612177011177,1.0,6.163473329614669,9.888143125446083,14.497638623289046,6.971071314974163,21.20671629835326,1
1136,6127,6130,12.749404183897996,25.0,0.0,0.7,13.804977874773973,5.61585662747478,69.42101908359427,10.66781873011529,-3.616574440248952,1
1142,5946,5928,9.189998734384318,10.80453143769586,-9.982165530441343,1.0,8.930819871941083,10.657330505959974,10.572040008857723,0.0,95.73280881090045,1
1162,5602,5591,4.055635550909136,6.023202979082632,-5.514968364878971,0.74,4.552289389444298,5.98696272049479,5.367294833251194,5.544847012333598,6.913341222617525,1
1162,5711,5702,4.590775263367036,8.713585571405192,-4.845741526616376,0.9,3.613100376905725,9.158267308425915,0.6235544834894142,4.553866610676842,12.950469981279982,1
1162,5972,5951,1.2946850037347508,4.516468739527235,-7.132229741397177,0.84,1.428264286987228,4.604494225171815,-1.3796111731314165,3.4209111810625488,14.604836219536821,1
1162,6147,6172,8.828820196371055,11.235270984366949,-43.757326683355316,0.91,7.3647411494741535,11.416501903300587,-3.3356168611397896,11.47861595810023,33.1815949208622,1
1190,6283,6248,9.214322225918314,12.015523268045534,-46.167211745472095,0.87,8.133567498991095,12.215842549307137,-6.108729559289752,12.294203280263547,41.24061728638353,1
1195,5928,5904,2.3178865506900483,4.233704436060021,-4.093886367160108,0.64,1.9582239794979244,4.26330398864063,2.1700768777891284,3.218475347610246,5.153226362350827,1
1195,6146,6162,10.852750444593681,13.455666713592885,-2.7182944126993682,1.0,12.485820495413742,13.457894782392419,0.2621776199424275,0.0,94.8184000644466,1
1195,6299,6273,7.847694150322654,8.537050476344177,-7.237585370404112,1.0,10.900076549329421,11.143403442314838,7.225873406599021,11.853113839855482,41.47183946972045,1
1216,5580,5579,3.480655227012932,6.538128669608831,0.0,0.95,5.975317892894918,6.5377600151241,0.27209820207126256,3.002636194703291,12.41028715738521,1
1250,6319,6336,0.46113921255512696,8.461973215011685,-29.68999329893693,0.99,5.607406415646902,9.581228561470247,-9.300613190256305,7.843026085924889,68.79973440999213,1
1263,6369,6374,9.981777824013012,15.25657210039056,0.0,1.0,10.494318451407885,5.032397699913629,37.83526500599186,7.663075771821252,18.44795659817708,1
1281,6556,6576,4.412780435484825,25.0,0.0,0.99,11.51433785673851,5.214193032074644,63.17209342282658,8.79178519095867,3.3194230564800975,1
1314,6955,6938,7.8140970278996456,9.497777098714126,-13.86621147326249,0.84,5.338554418136399,9.728401510077273,1.217914548718749,7.148427216252061,14.078230431890738,1
1346,7232,7234,10.928247507326699,13.905583802403477,-14.308667683848638,1.0,12.526020754377765,12.959430219745814,20.13881652455342,13.614940735259005,13.927711318884509,1
1371,7259,7233,9.187281983144265,11.147121280800906,-14.27524082170264,0.93,9.385524604310824,11.16146871677275,1.7573289281024813,10.702866269072057,20.77774832224827,1
1377,6829,6793,6.434027877039651,10.372811576868987,-38.8154376134598,0.71,6.7686066604095645,10.520416224330779,-3.8065652166981625,10.552370756747353,19.08529539404102,1
1380,6688,6697,2.28514812554213,9.666038504455534,-21.693206118343575,0.99,7.48527887430855,9.696572019250928,-0.36436658570229064,9.776100625686704,21.766534993248637,1
1389,6654,6676,10.199054225469826,11.64630231092413,0.0,0.99,9.737285123069322,11.666713890340699,-0.7428105308221147,7.8412615818904525,31.912079445722288,1
1390,6825,6802,7.481913745386626,9.324923793299346,-16.443015918410488,0.59,6.922488027182887,9.365763278877985,-1.0408470246302501,8.785800113982578,6.9709095401279475,1
1393,6753,6750,8.3706803080705,10.266360734811892,-4.944234383805146,0.97,9.042012622087128,10.206287941689059,6.927124311614193,9.549930771303531,11.828760663147271,1
1404,6820,6805,10.08442126495481,12.373922263635924,-14.292618023180347,0.94,9.978774139170785,12.414738704187187,0.2049397908796493,11.093423503641318,23.453446561647354,1
1404,7234,7245,0.37015349506515377,9.314561269085461,-9.116936198687927,1.0,6.791997944947295,9.362152070183509,-0.24153639260489967,7.703735935509606,28.785576079866097,1
1434,7164,7180,3.602894792343564,11.637173667262307,-132.3098432430211,0.81,4.910365991996191,13.149766617241612,-10.32411201332167,10.230487485938331,25.7301945162938,1
1434,7294,7291,11.457990706956032,25.0,0.0,0.88,13.54213832633391,9.231127872718845,55.441892413843014,7.018455597684668,-6.5170797042183946,1
1445,7011,7004,6.382945840711476,10.117454541430957,-11.269847518631082,1.0,6.931815635399186,9.38064864110272,18.30959382324101,8.277129442202897,12.949536580531962,1
1448,7307,7310,9.310498457557792,9.293768252849384,0.0,0.94,10.60024998250516,8.753253305605273,13.64668875348434,8.102493825187537,4.087978797397704,1
1481,7409,7417,5.856298534130534,10.845393220785967,0.0,1.0,10.014142857635292,10.33238677614794,15.148852519162219,7.261184495521117,5.207694034359924,1
1559,7939,7958,8.638053752502959,12.844350825887204,-2.100361564777952,0.95,11.340793400523934,12.22586138847803,17.448588471397358,11.522150247788584,5.332435999196047,1
1582,7879,7885,7.455080620091906,13.580282622491712,-0.7316761597407663,0.95,10.639252443013316,11.256703005734783,26.786580653409374,10.705423558842192,8.539737682391914,1
1626,7868,7845,5.996321517585082,10.666463981633646,0.0,0.93,8.163985536699478,10.712629545530884,1.3991740218671822,8.04436288254005,9.197747558364098,1
1674,8307,8327,4.451816651531177,21.271117425538513,0.0,0.87,10.946342831229446,15.144634203166586,45.31622213080729,10.20285654502966,2.1007661843912286,1
1724,8492,8470,11.56900734013214,10.765224772972712,0.0,0.96,13.039562670448063,8.33805731820144,21.74217135595144,7.718450922330602,-4.163411097051758,1
1746,8656,8666,12.587245975409406,25.0,0.0,0.97,13.967055896207334,12.114909235659509,63.65494059788557,10.009436269187125,-0.7021259176758123,1
1760,8636,8614,9.403031328248188,11.424932449401723,-18.656265578481563,0.83,8.93466891922962,11.429261078125725,6.628390677058206,10.658467209773754,12.774450658201635,1
1770,8811,8812,13.898665186316556,18.052585918452156,0.0,0.92,14.787911216109901,11.015110101384582,37.46228113424319,10.978268138460614,-2.216015775071515,1
1803,9042,9054,0.4064197918406432,8.573001447205108,-42.42661342188346,0.99,5.131555620793775,8.698320986107866,1.072207576248715,11.396773707769366,42.743347619564624,1
1807,8790,8804,0.23021372145557217,5.425010084771327,-11.250659399223965,1.0,7.331430391891708,7.196364238640065,14.24192866960793,8.741245437851495,18.216585361492633,1
1822,8994,9006,6.277738421754598,25.0,-22.271925313780017,1.0,12.763797357108333,8.932549098798862,72.3082307253918,15.117804548526578,27.91977989586415,1
1827,8985,8965,6.742679543351895,12.632113163133313,-96.6705535849769,0.45,6.298633575174729,13.597839267542517,-4.668024380806708,14.203378311784252,24.507550128100334,1
1827,9114,9134,3.3719429798561515,12.411775337669877,0.0,1.0,10.563698422553104,12.27388330563616,10.787829520761107,10.282783516048138,9.730407687833317,1
1828,8692,8677,6.153635889242076,7.399222986623319,-3.74152638750869,0.73,4.110519098054996,7.50688389047376,1.607413258889693,4.865194847729594,4.30920263927179,1
1838,9364,9347,3.6792670703636112,9.62505152885087,-39.13675668652763,0.93,3.406287569330849,10.501895098668719,-2.3745672779213343,7.520305143208996,29.710300753405367,1
1845,9163,9136,11.418217371584978,12.27492852272966,0.0,0.94,10.404426664462346,10.00454095412932,25.169233269543035,8.795658209982737,5.279543281619019,1
1872,9097,9073,10.485964395907565,17.774207411693894,0.0,0.94,10.717159794934675,11.571576101323528,38.818282457131374,9.912091195355442,6.150240506609117,1
1910,9325,9304,8.961922166210105,7.257616090598322,-30.211032055890723,0.95,6.131134794994439,8.180837828724611,12.21147114556419,9.90674225914832,29.15027884531451,1
1912,9321,9299,5.546534074615767,10.121931348583818,-59.45824105506408,0.47,5.279052434347607,10.500703585179677,-4.142952726389845,11.059041997920467,18.390147255974316,1
1927,9676,9686,0.6351021918302558,9.281727275499057,-21.46652357108848,0.99,5.995451052571366,9.354375923308488,6.489171132920241,0.0,95.58475850983076,1
