id,re_frame,de_frame,c_keep,c_change,c_collision,p_safe,subj_v,adj_lead_v,adj_lead_rd,adj_lag_v,adj_lag_rd,decision
37,752,767,7.326076463223204,13.813909493094071,-12.704595755644196,1.0,12.443028273565172,13.821414144932683,-0.3533739023169584,13.38823596074648,13.77460188851765,1
71,849,865,10.960854300723755,12.300208039472464,-0.641773026697831,0.92,11.778345536113283,12.287539386739175,3.161112161197366,11.82735512865515,10.652989860083954,1
81,887,886,12.943479348535753,14.180402267183888,0.0,0.98,13.116948811477549,13.783732008576234,15.317538420099595,12.269243053449381,15.583065105292235,1
92,887,880,9.87326456982321,11.06506575586613,0.0,0.99,9.340179812531655,10.872960120168173,11.620726008543205,9.275133503418838,15.69406820649877,1
110,1049,1065,13.646975329886013,15.372933585700645,0.0,0.97,14.569878463963747,15.328046026640163,7.208964451366711,14.105760465719575,13.793209087105547,1
139,1286,1298,9.957427691772235,17.82580698348551,-34.45665550856201,0.97,14.807710838973101,17.90779931228424,-1.7057159190663507,16.797454074773377,16.15596132202282,1
157,1312,1305,17.52134151598955,17.55443921026127,0.0,0.96,18.329793813829138,16.58034571550509,20.918045992828127,17.08415776050961,4.868258247120579,1
182,1433,1453,8.317913412016074,14.938431725231295,-35.6810557654749,0.99,12.57007176885784,14.964371934420162,5.7009302031598565,15.177883196829773,37.2297189662697,1
213,1476,1471,14.29046811363404,16.95647505695705,-2.206613361616476,0.99,15.490166525641472,16.72334814950906,15.203315081748002,15.553217287998152,20.62703048211458,1
245,1689,1681,11.359850508217688,13.652545619838081,-32.35211731848393,1.0,10.885259064439564,13.540878518291404,12.558316510855889,13.47643815004782,48.37692780556435,1
291,1951,1923,4.393481938143657,11.046024703995712,-7.018254303507213,1.0,10.84774890733201,11.045090545560315,0.49216099361143506,11.502755452552785,17.203409906436224,1
299,1891,1908,4.8700023093961,12.160990210043938,-3.8223815028576946,1.0,12.23016968047281,11.983187703079263,10.383726619050663,12.544573352984532,10.927078762814023,1
344,1969,1979,10.041628664877399,14.353903631839454,0.0,1.0,13.892964173943826,14.325562701735356,5.079722671960926,0.0,94.05669441930287,1
384,2148,2153,12.445431972805512,13.204079249942563,0.0,0.93,12.882719297013171,13.152133955787267,6.57798846582898,12.409941540967798,11.03933432173005,1
417,2512,2495,0.16396567759089423,10.1246557982558,-55.54693357414981,0.97,3.0579976433431417,11.583204696268005,-4.260313810916401,0.0,96.48856772332888,1
420,2150,2137,0.05122473493679011,4.260850365069526,-22.203046248310333,0.32,0.2449189895101917,4.46086581726067,-1.9833241204185628,4.936086653574337,11.045908735074049,1
420,2421,2411,0.14958295351614082,5.772729238998921,-13.220703417055349,0.99,2.698836856294164,5.859483610808004,-1.6480245121604886,0.0,92.5044723764087,1
457,2322,2337,2.2945295009004925,11.56987268352042,-49.78367020544221,0.98,8.025111503567501,11.70454588485062,-2.090665786191325,12.568271525313227,27.22679523794923,1
483,2408,2409,12.087874945403897,12.081655977871518,-16.012182085805815,0.9,10.971880373778989,12.050655867474944,5.787157133741125,12.297597325637721,14.348448917569558,1
512,2828,2821,10.965104274542563,12.456866861380204,0.0,1.0,11.167114605913293,10.516940146649235,24.2782319855105,6.7529378472585835,11.018171562293494,1
520,2570,2563,9.127335247018392,11.18970014814047,-30.49984631812707,0.9,9.058648691956698,11.218259658148067,0.5223983575198261,11.733704193751135,16.089037651800087,1
653,3218,3231,5.4453963333668325,11.406605943320066,0.0,0.91,9.382522772051736,11.36154569236817,8.129061000659007,9.066552043913715,5.789018204833071,1
767,3979,3978,12.527535506080943,12.517131149088176,0.0,0.89,11.657347275571304,12.473411733286971,6.5831428613929575,10.36591524570746,5.9969751596776755,1
770,3946,3936,11.630475343446246,11.309796335136593,-10.00583444764602,0.88,8.437543816997803,11.35708028772453,8.408579103934073,9.44001708014254,13.280756667962166,1
793,4172,4162,11.271227954507108,14.353909832573363,-33.52139041798292,0.97,11.346935576825585,14.434924166857865,-0.9616351065781479,13.495235821207187,39.664798810141995,1
796,4142,4127,12.670351515469179,13.239418374102078,0.0,0.92,12.53303576253324,13.22640360992932,4.2632225241791275,12.215320218779382,8.217065250681332,1
806,3740,3740,2.04240716187911,8.10192438165587,-8.55676979554025,1.0,6.4085006181377056,8.115240924477884,1.117177411909835,0.0,95.5826683952488,1
851,4191,4199,7.47826103229568,12.569715656343758,0.0,1.0,12.159726464285141,12.407289389119697,10.65821667576185,11.415640386408846,13.243374746653314,1
883,4258,4224,11.584618204428713,12.6959421965962,-6.34918370134141,0.88,11.061907718930804,12.70828056334047,0.8665689119361843,11.588472882586482,14.923135411448612,1
907,4260,4242,11.064917100454858,12.079456223404703,0.0,0.91,11.057580694344761,12.033498751912944,6.704527680458526,10.114873057258844,8.163382722366068,1
923,4492,4453,11.493046544660798,17.148483980452063,-31.509344562884486,0.98,13.487404124176749,17.084825664883066,19.75377005425775,0.0,95.2764385854032,1
952,4468,4489,14.2979245939518,16.67678927191567,-1.6408218078441303,0.98,15.441854689634615,16.67374484709375,4.4634457171071915,15.51045642820703,17.074840096341127,1
967,4391,4403,12.177555845510573,25.0,0.0,0.99,12.965199536692278,11.940207579135942,52.401788832281696,9.077895535887643,6.244139804978734,1
1007,4566,4577,6.286257671737517,14.401180220661699,0.0,0.99,12.381941483490039,12.878957882244887,24.34401178371681,12.300416362787436,5.471300575536418,1
1057,4757,4746,13.08415327674794,16.410474018393597,0.0,1.0,12.479233423564352,13.979567936473847,30.717448177440474,12.353178644659215,19.893477460230624,1
1084,4737,4718,13.37071445616799,17.6203541405128,-12.447359938176579,0.99,12.539741293128747,14.94861412677381,34.330224929033285,13.174056280730445,36.66413417739079,1
1120,4849,4842,12.670287719426849,16.266215287486617,0.0,0.97,13.373096624784129,14.299786851858151,28.324060450258507,12.170260271228068,4.965730558870576,1
1129,4910,4880,12.543484229529584,15.297487816379695,-39.51435002745603,0.85,11.694465236837056,15.452268299716774,-4.920609102352987,14.20583399282775,28.788306142174847,1
1163,5048,5063,14.540010388675718,25.0,0.0,0.95,15.523423934714822,13.895170197833561,74.08858319976781,12.274285210549177,-0.8576550549556101,1
1173,5190,5165,6.829186914430888,13.822611690803186,-44.31903688740929,0.91,10.729942860206018,13.912216486722372,0.542515723904188,13.96431667807365,16.566021656777686,1
1208,5263,5242,13.119994107345637,16.36761732335264,-38.27999571180663,0.69,13.147388153328478,16.481030074787864,-5.648204393386001,15.55999726443239,14.672956319940099,1
1213,5201,5177,12.525198023564833,14.574717785945126,-23.744870596889882,0.99,12.75640902650054,14.521049969945263,9.037934326161306,14.417828990500242,14.646531277999859,1
1233,5316,5320,8.816048364955469,14.881612350999106,0.0,1.0,14.889016783783406,13.982364531616716,19.713849735543192,14.296862186425844,9.552347557748597,1
1360,5763,5764,11.334431781655057,15.571076869030547,-8.453266212517919,1.0,12.439853212064351,15.66293594680845,-2.148576540778027,13.00314211518059,14.426574373747407,1
1371,5561,5582,5.153884688659281,10.225644516611109,-30.543673714499306,1.0,12.510258441641966,13.90436758274829,11.549220500432867,13.463785269028335,25.667001241255484,1
1400,5697,5700,4.514255632843298,9.846133788403398,0.0,1.0,10.71626447849363,10.301935367349271,13.495501572295169,10.594669722798766,20.183338806202933,1
1468,6022,6041,9.892906776252284,19.675182496266697,0.0,1.0,15.622774682391345,13.78110050231234,39.10459032971307,0.0,95.42800110664788,1
1500,5886,5879,12.450737190098618,13.561990943997323,0.0,0.97,13.65715915955374,12.312835113779483,20.77512221632435,13.451874844193428,11.93167996159102,1
1637,6521,6529,3.065000520510587,11.336337309353162,-14.367179103870885,0.94,9.260540279995315,11.363563641235086,-3.332129310188432,10.591732549324362,14.845597121522221,1
1669,6996,6986,5.26331338634559,6.591513395022897,0.0,0.79,4.908067999270548,6.599129323208674,2.5760286145510065,4.842699605266311,8.073774214573755,1
1759,7368,7379,10.36660354460582,13.101787506356125,0.0,1.0,11.641467848750281,11.828178496970665,21.694144286882278,6.335422472026002,5.8626563922389,1
1769,7208,7212,1.205136155547938,8.387056800363657,-0.6431418441264757,1.0,7.549423224613781,7.022306834399159,19.703041335968493,7.6590867268855805,17.584450036576037,1
1771,7217,7220,1.0552628363975807,6.410471264831677,-11.030460962935045,0.93,6.3428215138825665,6.3003704895855,7.662298920057225,7.8118487999071204,10.390193395521884,1
1810,7082,7083,4.920511952783026,8.386805381889294,-13.267238952096518,0.96,5.949288064117859,8.429097216537688,1.5038061368528588,7.648788431651869,14.526537379544564,1
1812,6808,6775,11.091082689022338,11.26067482928121,0.0,0.96,10.426178053380351,11.229881102200066,5.6267808596428495,9.158744036417543,30.863359565979337,1
1835,6801,6792,8.712224509117345,12.423077087326291,0.0,1.0,9.454395595882081,12.431290498215763,9.554512210429166,9.01629297005453,18.228941358759187,1
1835,7559,7541,10.429090672981854,11.61719960519875,0.0,0.99,10.367842692670076,9.998581123051798,22.476671304884732,7.04079197441722,2.8160954277334973,1
1863,7277,7290,4.857750967967926,6.729961891723684,0.0,0.99,5.5254322567578065,6.735072986479122,-0.8753530961965472,3.7924314040769445,14.238307309605712,1
1934,7672,7695,7.611291898243605,12.337149689062935,-2.0245261685341314,1.0,11.380728744096396,12.260379332848013,8.244219844534909,0.0,96.19004142634586,1
1957,7616,7589,5.918926800040586,6.380730631826868,-19.773413686750025,0.68,4.74016756600003,6.393573607600386,-1.4704605466279919,7.557408695304808,18.945675113861075,1
2009,7961,7977,7.697692093612349,12.773655785940353,0.0,1.0,13.624051080159033,14.086676315101062,22.207903966772705,13.442899479605321,15.719547064003617,1
2039,7935,7936,5.973057633022256,9.928071601571023,-7.780454620788463,0.94,8.83414874996431,9.77950819881308,9.613853212255975,9.644264372264928,11.700001937244265,1
2087,8091,8096,12.166338792867561,15.48675788137364,0.0,1.0,15.383947281036166,15.232741894884276,13.325769303744494,12.784594053488915,24.832871334919894,1
2113,7837,7820,0.24587387970817537,5.960159244089677,-16.685461349225,0.71,3.072813098657834,6.031850030198802,-2.347773450006763,5.920104327591993,13.213513743157819,1
2136,7920,7892,4.939529241493078,5.522324730575004,0.0,0.83,5.606720979675958,5.386460130159312,7.990987569814607,5.276713044583053,4.802836860170012,1
2136,8222,8244,13.974101670622371,15.472717964070611,0.0,0.99,15.701517328921872,13.450256492778268,24.722819275057677,12.497545197255423,8.300285623600018,1
2139,8203,8220,11.18255594533351,14.316562512830311,0.0,1.0,12.371065546420404,14.027057683277295,14.658081159368265,11.182929855337667,18.724952774394268,1
2159,8089,8078,7.0827074929400125,10.26342865692144,-2.2061525057454148,0.97,6.714268858406161,10.404142302150893,1.8917494091292435,6.757314669194649,21.082755966403855,1
2243,8645,8632,7.348884216650954,11.098549939462911,0.0,0.03,7.646502455268197,10.019590123365449,21.40251669360386,7.58617570326145,-10.706214870241546,1
2285,8456,8434,8.182211668944705,10.456705816188945,-20.105556352023086,0.98,7.645205779199317,10.525150596006497,-3.8138257258965824,0.0,94.67064139734835,1
2293,8708,8703,0.2687904297145907,11.020392389273843,-44.266654511597906,0.97,5.677518916922345,11.53912180828676,-3.3644939756286645,0.0,93.15611423651747,1
2303,8769,8780,0.23203337385880257,9.319858014693093,-0.9832076654733047,1.0,7.75646849922785,9.33034810654793,0.7372123107072781,7.860020479984222,11.920259096698139,1
2368,8655,8637,9.854003510493351,10.860458190701259,0.0,0.93,9.98801849296678,10.860440945220079,1.34441867816372,9.203094802036905,13.161012247673682,1
2374,9039,9029,9.429888486500543,13.49322560726695,-11.867866153231954,1.0,9.740075714575518,11.883504072186291,25.38542404129855,0.0,96.49530344153106,1
2433,8898,8885,9.135591215028342,12.518701555065116,-7.636238414323759,0.89,9.445699005273482,12.607455408604151,0.7544689737801704,10.168705036400162,9.436301097710405,1
2455,9206,9210,11.048796213257182,15.083138044172003,-1.958966711467362,0.97,12.35619058585766,14.170186666418177,22.758146585811712,12.503600170824864,10.470561112137366,1
2481,9451,9466,3.7374170616472426,10.626443434287758,0.0,0.99,10.37122966127587,10.562713608735985,6.675042674737028,8.779509297496125,6.1459911208594535,1
2517,9187,9177,2.124479381154118,11.80132079607312,-27.351478338612793,0.98,7.881585230661737,11.9903999478417,-3.444774075184144,10.282258849984167,23.608458452012286,1
2549,9439,9450,7.3735345421764205,11.226778750082355,-5.803443931632953,0.97,11.436748952641432,10.683144469077261,15.171709147354676,11.93567894808822,9.318452343254117,1
2607,9330,9331,8.010435476127416,7.569580552416111,-4.405030225842373,0.7,6.543126205658907,7.178324509024026,12.441161344711617,7.159388706229681,3.8997433088003843,1
