ego_id,ego_backward,d01,d02,d03,v01,v02,v03,l0,decision
2779.0,8564.0,10.12396467278802,48.75631330319522,-1.3178306116024823,-1.0523157044283735,0.28547259216130527,-2.2970230535639145,1.0,1.0
2779.0,8563.0,10.22844210146269,48.726146522354256,-1.5465241090691757,-0.959351630530719,0.3655420698099121,-2.2364143276837503,1.0,1.0
2779.0,8562.0,10.323611489972194,48.69036154188732,-1.7706664857375847,-0.8676613415708445,0.44454072808092704,-2.1715628297581677,1.0,1.0
2779.0,8561.0,10.409596742236062,48.64567376820894,-1.9867253511031757,-0.7773296263727865,0.522630578288032,-2.103817635276128,1.0,1.0
2779.0,8560.0,10.487163391549757,48.593066536813026,-2.197660341104414,-0.6888015775046696,0.5995367096642834,-2.034662066723455,1.0,1.0
2779.0,8559.0,10.555201244336956,48.53272672066035,-2.4006910292741654,-0.6031633353117787,0.6744237466707652,-1.9661116104157355,1.0,1.0
2779.0,8558.0,10.614260629653188,48.469173464360566,-2.601831929059027,-0.5219399074878268,0.7460365887867795,-1.9004987485957727,1.0,1.0
2779.0,8557.0,10.667911779662148,48.40427730469699,-2.8015631792150293,-0.4475029213150439,0.8122976778186164,-1.8409087090113507,1.0,1.0
2779.0,8555.0,10.752316349069929,48.237088218030806,-3.165541649292745,-0.32804607108309547,0.9210806096761779,-1.7513224923673887,1.0,1.0
2779.0,8554.0,10.783101061950958,48.14425203723775,-3.3406664831004234,-0.2840012703181962,0.9633830561851422,-1.7233237132829649,1.0,1.0
2779.0,8553.0,10.80840544564029,48.04887582548293,-3.515735024132769,-0.24855284022270752,1.0000934628686888,-1.7054273984918362,1.0,1.0
2779.0,8552.0,10.830781283537561,47.94877554774062,-3.6832224098863966,-0.2195860924086972,1.033643364227979,-1.6962342263764354,1.0,1.0
2779.0,8551.0,10.851384860232912,47.845521296290414,-3.839339390138747,-0.1958251111974061,1.065612877452308,-1.69503029911706,1.0,1.0
2779.0,8550.0,10.871318489438778,47.73957836011516,-4.002466717953052,-0.17617824975390306,1.097353856740737,-1.7013034469319077,1.0,1.0
2779.0,8549.0,10.88915048778884,47.62890166582666,-4.166215517368566,-0.15975572823580286,1.1300263086278424,-1.7144860532792876,1.0,1.0
2779.0,8548.0,10.905068394883955,47.51733557738436,-4.335752145273535,-0.14574294682629407,1.1652060650768608,-1.7338613574734083,1.0,1.0
2779.0,8547.0,10.919468859282517,47.40135958757229,-4.508602082990262,-0.13340740114257343,1.2036959270848158,-1.7589869495838508,1.0,1.0
2779.0,8546.0,10.93297630937576,47.27932677761046,-4.683095228393547,-0.12192518009261555,1.246384268453335,-1.7892742463191968,1.0,1.0
2779.0,8545.0,10.9450218656402,47.1567699886063,-4.864062721208552,-0.1105191642028931,1.2940337741921777,-1.8241996088315915,1.0,1.0
2779.0,8544.0,10.954990160801799,47.03222400106094,-5.051398265957035,-0.0984602972059676,1.3476871663447216,-1.863267370328212,1.0,1.0
2779.0,8543.0,10.96648143471512,46.88092541435021,-5.2213600235786695,-0.0850697972248522,1.408269763811271,-1.905857879433075,1.0,1.0
2779.0,8542.0,10.980786670247284,46.709281573587724,-5.381132888859615,-0.06972448942582155,1.4762955606240098,-1.9513693927656046,1.0,1.0
2779.0,8541.0,10.989954283461117,46.54467650827391,-5.5591542422639515,-0.051671876106588854,1.55192670189383,-1.9989732938318001,1.0,1.0
2779.0,8540.0,10.994571718008189,46.38413194365673,-5.754092004472014,-0.02993284834564136,1.6353689603109753,-2.0474822465574647,1.0,1.0
2779.0,8539.0,10.997620342158655,46.21903186155449,-5.957341713652232,-0.003895743697917453,1.7264319688875656,-2.096009668116019,1.0,1.0
2779.0,8538.0,10.998131539350624,46.0476395055523,-6.167752135970696,0.026743547123054157,1.8245049065192642,-2.1436334423395476,1.0,1.0
2779.0,8537.0,10.996779398174397,45.86510773853967,-6.381772492789212,0.061873117335149885,1.9277439224155408,-2.1895575200562476,1.0,1.0
2779.0,8536.0,10.991036464659885,45.66909935596131,-6.600232693287634,0.101096783673853,2.034684077838955,-2.2329090815872012,1.0,1.0
2779.0,8535.0,10.980401548546013,45.46562350672478,-6.8239991502833925,0.14428738237672079,2.1449699055923652,-2.272501491779952,1.0,1.0
2779.0,8534.0,10.966100297696556,45.250595243937106,-7.051444801841641,0.19150704561981158,2.2594992610346303,-2.306651251712527,1.0,1.0
2856.0,8788.0,18.385371525941835,100.0,-8.79319822070467,-2.515873268918483,9.60947268112491,-4.1680359424630655,1.0,1.0
2856.0,8787.0,18.63617910905743,100.0,-9.20919364491105,-2.235910904909632,9.803194669645613,-4.2092748016018025,1.0,1.0
2856.0,8786.0,18.8576590845294,100.0,-9.629590844429764,-1.966661720343609,9.984418834003451,-4.270349244147203,1.0,1.0
2856.0,8785.0,19.05073608920901,100.0,-10.058210199044243,-1.7195688423923574,10.143919027993062,-4.354396220776984,1.0,1.0
2856.0,8784.0,19.209275636863765,100.0,-10.49275086727014,-1.4985621839400238,10.28100510492741,-4.456614944167828,1.0,1.0
2856.0,8783.0,19.35957901912775,100.0,-10.936184111108606,-1.3017677634018767,10.399852325398994,-4.569336463890899,1.0,1.0
2856.0,8782.0,19.489724418763274,100.0,-11.390450919314949,-1.1199696817496712,10.511030591108394,-4.679650148051168,1.0,1.0
2856.0,8781.0,19.60170326785692,100.0,-11.85587387296393,-0.9467290008020743,10.621899010018492,-4.779841294276967,1.0,1.0
2856.0,8780.0,19.69661785555084,100.0,-12.335044930477402,-0.7780807013225317,10.737180971597468,-4.865568303288391,1.0,1.0
2856.0,8778.0,19.836484660369194,100.0,-13.313945072571014,-0.4794653913169764,10.963242307516177,-5.00396789213235,1.0,1.0
2856.0,8777.0,19.88597482638508,100.0,-13.815041527331417,-0.3558608170666755,11.069896118358145,-5.053556221290972,1.0,1.0
2856.0,8776.0,19.92255594643086,100.0,-14.320048886549134,-0.2517680522890231,11.172433876158511,-5.084087276702196,1.0,1.0
2856.0,8775.0,19.947928335415384,100.0,-14.82972013418682,-0.16743190836406008,11.272119453051667,-5.091089589736178,1.0,1.0
2856.0,8774.0,19.964693782040086,100.0,-15.339951360732723,-0.10290704075800505,11.369406323765665,-5.072874967376222,1.0,1.0
2856.0,8773.0,19.974614234375025,100.0,-15.84819461313559,-0.05810640711994708,11.464200229023477,-5.030169925513793,1.0,1.0
2856.0,8772.0,19.980270927702065,100.0,-16.345307098132757,-0.03292352924831121,11.555646324570937,-4.965884606850686,1.0,1.0
2856.0,8771.0,19.983465328723156,100.0,-16.83769310815507,-0.02793123638436512,11.642759246381644,-4.883718119147288,1.0,1.0
2856.0,8770.0,19.986325473883824,100.0,-17.32832374365451,-0.04096604883755006,11.726113869860704,-4.785799472918377,1.0,1.0
2856.0,8769.0,19.990216478595414,100.0,-17.808563409861595,-0.06701144360116018,11.807800715629842,-4.672369029722216,1.0,1.0
2856.0,8768.0,19.996690980082434,100.0,-18.276353179248584,-0.0999173408187648,11.889444552490046,-4.544251655819567,1.0,1.0
2856.0,8767.0,20.006718536576898,100.0,-18.730271042832392,-0.13362301183512848,11.971778215450843,-4.402946470598229,1.0,1.0
2856.0,8766.0,20.020757024400467,100.0,-19.171190999649937,-0.16318035204306902,12.053202075382565,-4.252337231494433,1.0,1.0
2856.0,8765.0,20.037336775577813,100.0,-19.597577166258425,-0.18427316966763208,12.132535330605572,-4.095579676057186,1.0,1.0
2856.0,8764.0,20.055439139287557,100.0,-20.00880580690302,-0.19453108722131418,12.20910923778964,-3.935156657840869,1.0,1.0
2856.0,8763.0,20.074771082609885,100.0,-20.40062692937336,-0.19071202618059502,12.284574747336507,-3.772138668470122,1.0,1.0
2856.0,8762.0,20.09427015005059,100.0,-20.781049845119306,-0.17174950377710374,12.360919485640252,-3.607337629899419,1.0,1.0
2856.0,8761.0,20.114107607854777,100.0,-21.157326304083423,-0.13813068241873339,12.439739628888491,-3.4418731408073597,1.0,1.0
2856.0,8760.0,20.129553436258306,100.0,-21.516046037454984,-0.09092285358971708,12.521906953595591,-3.275483231967458,1.0,1.0
2856.0,8759.0,20.13839260848036,100.0,-21.846309089187812,-0.0329718953676732,12.60764822297372,-3.1058855173668647,1.0,1.0
2856.0,8758.0,20.141628353948562,100.0,-22.155296950395886,0.03145447513445632,12.69681108688807,-2.928689522768561,1.0,1.0
966.0,2630.0,14.234751060831513,12.067944209258798,5.922538166422314,-1.3251226098330484,3.631915054420036,1.68396745317051,1.0,1.0
966.0,2629.0,14.366832471830207,11.705705743333226,6.089198963903671,-1.2091260019847887,3.8225631408181417,1.7029438896574707,1.0,1.0
966.0,2628.0,14.487587388136774,11.325136507112973,6.257626067209155,-1.0876294518365306,4.004150407656056,1.7325384821682643,1.0,1.0
966.0,2627.0,14.596273992063232,10.922994256725872,6.433280762339234,-0.9619690177385465,4.175528430924778,1.7713834435951394,1.0,1.0
966.0,2626.0,14.69257332838501,10.505126508534687,6.611165384084041,-0.834650450774765,4.336419340731673,1.8170776006993314,1.0,1.0
966.0,2625.0,14.775014146437599,10.071375963180685,6.792904508773201,-0.71018117803618,4.486675126869201,1.8669186490658518,1.0,1.0
966.0,2624.0,14.844712606041043,9.622568710759822,6.979565022547673,-0.5925811246270083,4.624196761986127,1.9184882247110249,1.0,1.0
966.0,2623.0,14.903866992187318,9.160157163119976,7.171346501709216,-0.48464904544772835,4.746458456154128,1.9706119729340745,1.0,1.0
966.0,2622.0,14.95240448983725,8.684651609891034,7.369029238920089,-0.3860929821184982,4.853751359351648,2.024795372963178,1.0,1.0
966.0,2621.0,14.991051345794858,8.19995823339579,7.570799214928516,-0.29519378045901057,4.9503109963217895,2.085533445344206,1.0,1.0
966.0,2620.0,15.020474995172378,7.705749315123569,7.778370045884467,-0.20939776537994703,5.04153271327953,2.1575100851990214,1.0,1.0
966.0,2619.0,15.04168861496899,7.200855076294744,7.9949804604858805,-0.12702987476909122,5.129379435798045,2.242770673888746,1.0,1.0
966.0,2618.0,15.054727068433692,6.686648640710274,8.220646616493037,-0.04655129432455318,5.212882036755124,2.3407891340589764,1.0,1.0
966.0,2617.0,15.05942726519936,6.172098681306295,8.447999864779092,0.03360763912470155,5.288831609608753,2.448137443387166,1.0,1.0
966.0,2616.0,15.055569344400254,5.646371632143001,8.689425410388594,0.11435166348131354,5.354892269273844,2.560362597283767,1.0,1.0
966.0,2615.0,15.044887583539179,5.104078158165805,8.951963819906613,0.1961956615461018,5.410328547174394,2.6749401752747675,1.0,1.0
966.0,2614.0,15.027030050925049,4.549683325571124,9.233483354876409,0.2800828229776551,5.4561355396919415,2.7909699036628064,1.0,1.0
966.0,2613.0,15.000644963856445,3.992933643028863,9.524555483295696,0.36717279571907824,5.494972249342707,2.9091824537509066,1.0,1.0
966.0,2612.0,14.963983848560645,3.432795121793305,9.825932193274767,0.4595067521228531,5.530783895759703,3.0313300879240463,1.0,1.0
966.0,2611.0,14.918117526713274,2.8820669908863863,10.126757242506901,0.5573440446322611,5.567530802941378,3.1584387163068532,1.0,1.0
966.0,2610.0,14.862455060462139,2.3268814286901716,10.441145206036943,0.6585704647770738,5.607699379454392,3.2911204625401727,1.0,1.0
966.0,2609.0,14.796630837181823,1.7660262604845514,10.770296700691123,0.7590957851482738,5.650711270534312,3.4291852590809375,1.0,1.0
966.0,2608.0,14.719986458482197,1.1996386190392343,11.11469275810098,0.8558823457222298,5.694664948349947,3.573730313493936,1.0,1.0
966.0,2607.0,14.634333935912522,0.6297643632296115,11.47209063310052,0.9474786070961896,5.737605024857879,3.7264428015086883,1.0,1.0
966.0,2606.0,14.540305207116091,0.05672265211538274,11.843254106410157,1.0341050369115292,5.778418564002009,3.8887762741600786,1.0,1.0
966.0,2605.0,14.43750165466409,16.703143962500263,-9.231682014888243,1.1176289104375412,7.153500448927997,5.818056089311358,1.0,1.0
966.0,2604.0,14.325864339565015,15.987761259183117,-8.650037786675979,1.2008042025668777,7.24317452614442,5.8580471779312,1.0,1.0
966.0,2603.0,14.205724522960452,15.26255285870981,-8.063372603606133,1.2863919325795843,7.332357190054207,5.899411580198919,1.0,1.0
966.0,2602.0,14.076946353824695,14.530095954936613,-7.474230917617414,1.3755513634470269,7.421357864220061,5.943114637017986,1.0,1.0
966.0,2601.0,13.939304613203248,13.787085787904402,-6.879144604389257,1.4669935385422077,7.508364837887412,5.990513977992703,1.0,1.0
966.0,2600.0,13.792763962622999,13.036397974085645,-6.280121792341551,1.558216776832567,7.590910550039932,6.042655229491703,1.0,1.0
966.0,2599.0,13.636889871943822,12.278015293190066,-5.676773234135201,1.6466205807958891,7.666644163370447,6.10037385511711,1.0,1.0
966.0,2598.0,13.472149289385044,11.512193114776977,-5.067443314419872,1.7303274084992362,7.734232973064638,6.1642796869109615,1.0,1.0
2586.0,7860.0,10.228669366831213,8.767941111088334,6.285507031760645,-0.9655443966167092,1.9843595827951659,2.2314469334078564,1.0,1.0
2586.0,7859.0,10.324757750465935,8.565802845061498,6.512469587693713,-0.8421866471392998,2.129090012903294,2.3465120298837716,1.0,1.0
2586.0,7858.0,10.408366957183603,8.34811566062389,6.752202797969499,-0.7265771185929646,2.2697614170744838,2.449741902486584,1.0,1.0
2586.0,7857.0,10.480740740126507,8.11192583421608,7.007187378605988,-0.6225076265669962,2.40212139372855,2.538747533344186,1.0,1.0
2586.0,7856.0,10.542367407305548,7.867631122884575,7.26610398475345,-0.533893401237024,2.52304175101359,2.612041450757845,1.0,1.0
2586.0,7855.0,10.595541960846575,7.612634796243128,7.530636973788061,-0.4616542688174694,2.6328674288858407,2.67016205495454,1.0,1.0
2586.0,7854.0,10.641373932624944,7.348066717119025,7.7985838658689,-0.4039429563581378,2.734481341285682,2.7151246283981125,1.0,1.0
2586.0,7853.0,10.681675257222878,7.075539551520748,8.06880336657842,-0.3568292860061377,2.8314445078591097,2.7499718089420435,1.0,1.0
2586.0,7852.0,10.717285413457205,6.792528435924197,8.34349209455772,-0.3179269769377453,2.9260197515558417,2.7767302901361868,1.0,1.0
2586.0,7851.0,10.749066416605615,6.500945957516564,8.619999813738008,-0.28542128209837925,3.01982183393944,2.7968895696052463,1.0,1.0
2586.0,7850.0,10.777827085768763,6.200883529897325,8.897778635395202,-0.2575929930650478,3.1143060384040173,2.811856690926882,1.0,1.0
2586.0,7849.0,10.803559932355512,5.888532408666464,9.179882700979803,-0.23273295652195403,3.2110369110764587,2.8230900683960973,1.0,1.0
2586.0,7848.0,10.826939804025514,5.568618538834016,9.461050895910297,-0.20933830327534464,3.3111715076426242,2.831851515078655,1.0,1.0
2586.0,7847.0,10.847777631322955,5.236317905883908,9.7452326761465,-0.18614502910903186,3.415475752502632,2.8392140895212585,1.0,1.0
2586.0,7846.0,10.866368913951959,4.894451781583555,10.02918591372028,-0.1621000550306042,3.5243072218312763,2.846033238106622,1.0,1.0
2586.0,7845.0,10.882639558179406,4.542433694961716,10.313926980650916,-0.13647342562242049,3.63749693313117,2.852870792350446,1.0,1.0
2586.0,7844.0,10.896358080825323,4.178058796176643,10.59998032222745,-0.10845508588901032,3.7544208201935025,2.860321777598783,1.0,1.0
2586.0,7843.0,10.90717898234314,3.8032488204866297,10.885050161067033,-0.07757698789796041,3.873964161513999,2.8688864459163255,1.0,1.0
2586.0,7842.0,10.914724879476637,3.413344994336171,11.172814544750455,-0.04317893229094549,3.99483513955481,2.879241610038662,1.0,1.0
2586.0,7841.0,10.919180611641139,3.0125239161772157,11.459799748178138,-0.004528270617872199,4.115492705312928,2.8921177885944203,1.0,1.0
2586.0,7840.0,10.919708267736382,2.600249633890101,11.749092614040492,0.039360513759132854,4.233827349746337,2.908251204387713,1.0,1.0
2586.0,7839.0,10.915780984658113,2.1786849959605803,12.038829567080231,0.08938308565068143,4.3463222150052765,2.9283045716778733,1.0,1.0
2586.0,7838.0,10.90683600499625,1.7444215350486445,12.332582869359856,0.14634439013304545,4.449567634645456,2.9528408656563276,1.0,1.0
2586.0,7837.0,10.892065265136921,1.3012932931905965,12.627889757882588,0.2103821446102967,4.5414260126547195,2.9822152342371835,1.0,1.0
2586.0,7836.0,10.871146477861402,0.8477744830840095,12.926035939706264,0.28155799336041953,4.621556664679059,3.0168346743104353,1.0,1.0
2586.0,7835.0,10.842998701316574,0.3863969317870186,13.226738337656432,0.35981723645662367,4.691311091496731,3.057136250405534,1.0,1.0
2586.0,7834.0,10.806985688918388,8.880898461093722,-8.755221078932689,0.4449578956170912,3.3000695264873503,4.752884300783472,1.0,1.0
2586.0,7833.0,10.762453510197204,8.551890469567326,-8.28093642876256,0.5367601792956629,3.3568535660167473,4.807605290535057,1.0,1.0
2586.0,7832.0,10.708826713225577,8.215304345854861,-7.79932347876138,0.6350368166459295,3.420718388585305,4.856473697277456,1.0,1.0
2586.0,7831.0,10.645382143329257,7.87328876120651,-7.313609325090245,0.7394210903342029,3.491740696208163,4.900257684790667,1.0,1.0
44.0,301.0,17.049121574375008,22.144248392434193,-8.187842277387563,-3.4698867024792612,-1.6202414939550351,-1.0683103630387087,1.0,1.0
44.0,300.0,17.396483904876163,22.324125094289883,-8.312566921350877,-3.433564398968482,-1.536946789103716,-1.0469118807200246,1.0,1.0
44.0,299.0,17.739765030494894,22.479449440689507,-8.420087935235653,-3.3824190927599282,-1.4411180777467862,-1.0238550099758363,1.0,1.0
44.0,298.0,18.078157327017124,22.62211385508364,-8.522192679331475,-3.315974025091819,-1.3325411443535362,-1.0018364679962097,1.0,1.0
44.0,297.0,18.40929575303882,22.756904328349904,-8.623252058551467,-3.235298163756733,-1.2127372452401115,-0.9858882985277155,1.0,1.0
44.0,296.0,18.732090009076558,22.877253952593207,-8.721071720710185,-3.143275006961767,-1.0849977180813113,-0.981859474079581,1.0,1.0
44.0,295.0,19.04751788656411,22.986994709557152,-8.820102687806543,-3.0428974856722935,-0.9530772233895526,-0.9934091726651282,1.0,1.0
44.0,294.0,19.35166389914643,23.08244103260637,-8.919399868592762,-2.9381307577963067,-0.8221492141375428,-1.022111999543423,1.0,1.0
44.0,293.0,19.64715668871223,23.158158245289542,-9.016527491359021,-2.8322167652523227,-0.6952554126768753,-1.0668338490293436,1.0,1.0
44.0,292.0,19.928127682381927,23.1735339674711,-9.07847163506344,-2.726349584591075,-0.5743814573679273,-1.1237191539897147,1.0,1.0
44.0,291.0,20.200682442689057,23.22167174644082,-9.181774972128554,-2.619978299657822,-0.4587823084929319,-1.1878988284690397,1.0,1.0
44.0,290.0,20.462545161560612,23.268468056020552,-9.302372023111953,-2.5120291095856366,-0.34885877098020757,-1.2544503054328526,1.0,1.0
44.0,289.0,20.713741818801566,23.30217894695535,-9.42721525776298,-2.402629593873682,-0.24591818831988377,-1.3192374596515872,1.0,1.0
44.0,288.0,20.953918268834798,23.327560420377154,-9.560258959207715,-2.2939507902694327,-0.1551693841018995,-1.3806754143382882,1.0,1.0
44.0,287.0,21.183362912492612,0.0984200543320668,32.978772160504114,-2.1882233149511574,-1.4392179969872316,-1.6446096853544887,1.0,1.0
44.0,286.0,21.40279444998413,0.2413895287585177,32.81552256362106,-2.0883032319820387,-1.49699699258049,-1.6570924259135058,1.0,1.0
44.0,285.0,21.612346038600336,0.38716118084883533,32.65358068352086,-1.9983113359084932,-1.555198389951956,-1.669545445456862,1.0,1.0
44.0,284.0,21.803936698421836,0.5586945590903696,32.473409961269205,-1.922230330384794,-1.6148851651660827,-1.6808822905514411,1.0,1.0
44.0,283.0,22.007286956934465,0.7930245431849556,32.22999679393152,-1.8623336995785102,-1.6767298363647072,-1.6915861903804448,1.0,1.0
44.0,282.0,22.19270337757733,0.9835224676092764,32.03851237098683,-1.8189533971250036,-1.7412238338901211,-1.7034505799798367,1.0,1.0
44.0,281.0,22.375386613830898,1.1564030290447391,31.87030625456353,-1.789863730987788,-1.8083860177408742,-1.71909371887938,1.0,1.0
44.0,280.0,22.554303957369058,1.3317703106663856,31.69945426713726,-1.7708935831068207,-1.8778524913694223,-1.7397020642694638,1.0,1.0
44.0,279.0,22.73160998378775,1.5167394912914602,31.521999752499358,-1.7586418742776733,-1.949343412529279,-1.7651183239795714,1.0,1.0
44.0,278.0,22.90753989252677,1.6895616943640448,31.369072566919815,-1.749848614344934,-2.022326864186688,-1.7936716650632007,1.0,1.0
44.0,277.0,23.082295279011163,1.8954376264587225,31.185709809193025,-1.7412539599201686,-2.0961864358289866,-1.8242092792379712,1.0,1.0
44.0,276.0,23.255425487607965,2.106264028479714,31.002537706001675,-1.730266955639788,-2.170197351447454,-1.85526236617107,1.0,1.0
44.0,275.0,23.432809830369834,2.298654412351297,30.840777848190385,-1.7150515271594404,-2.2434772415856585,-1.8856702359845698,1.0,1.0
44.0,274.0,23.59971544906096,2.4892801287280193,30.688004241572106,-1.695143587710822,-2.3149408908886357,-1.9164075215443415,1.0,1.0
44.0,273.0,23.769467561676827,2.720826858486525,30.496813586151045,-1.6703594988863397,-2.3832884684426787,-1.9493171618726475,1.0,1.0
44.0,272.0,23.936440417832024,2.9591602854234793,30.301943354148307,-1.6400860188823732,-2.446695377484021,-1.9848266723164123,1.0,1.0
44.0,271.0,24.10046473243792,3.2030348829192477,30.104122072764238,-1.6037012897318998,-2.5026302941027705,-2.021576764216917,1.0,1.0
44.0,270.0,24.260866714011357,3.4563833494802694,29.90125314194655,-1.5609472469388876,-2.5480231272814837,-2.0584263960140365,1.0,1.0
44.0,269.0,24.416783195645813,3.7142045725723065,29.694230024495273,-1.5115975604712322,-2.5788641771099226,-2.093921282764736,1.0,1.0
44.0,268.0,24.56841525327605,3.972071623733065,29.48020504933653,-1.4555090354773252,-2.5918559088488244,-2.127181643544196,1.0,1.0
44.0,267.0,24.714166563888377,4.230300828796949,29.2681359843573,-1.3926537477276533,-2.58519606415755,-2.156138381642828,1.0,1.0
44.0,266.0,24.861429674630102,4.493395708124105,29.047821990988165,-1.3230085955228983,-2.5589125253832457,-2.1776375333355382,1.0,1.0
44.0,265.0,24.97867630202761,4.759126767874591,28.82001360369359,-1.2464416545733137,-2.5144689335809165,-2.188676350614772,1.0,1.0
44.0,264.0,25.10599287742653,5.008825056957669,28.602599926873605,-1.1633263434624812,-2.454451002903669,-2.187407682797895,1.0,1.0
44.0,263.0,25.22146529984311,5.254351425877225,28.38412289990118,-1.0742501840940282,-2.380819763382485,-2.172883049412217,1.0,1.0
44.0,262.0,25.329243322268155,5.493502628683949,28.164553182285267,-0.9799476480665348,-2.2955316697290726,-2.145666476924232,1.0,1.0
44.0,261.0,25.427482035845728,5.7222686459993,27.954006767601058,-0.8815258119541038,-2.2009296897217663,-2.1072667483323357,1.0,1.0
44.0,260.0,25.515426565129232,5.944067178561468,27.758799275954452,-0.7801245232902794,-2.0991797799030483,-2.0602208508470294,1.0,1.0
44.0,259.0,25.59416287205172,6.152417732016467,27.578975243442244,-0.677219243037376,-1.9925879426601547,-2.0084260771679396,1.0,1.0
2680.0,8033.0,8.481539026140666,12.667117469718733,4.740017310180039,-1.1768381661697784,0.3310214677574477,0.3713650255994194,1.0,1.0
2680.0,8032.0,8.599502191561271,12.618393053576256,4.792694825764187,-1.1928079263660907,0.3015283153534023,0.3653890815133085,1.0,1.0
2680.0,8031.0,8.72120873079183,12.555587542551052,4.862076620371603,-1.1960919933233818,0.2749939710978051,0.3671857159852756,1.0,1.0
2680.0,8030.0,8.841878047189681,12.515380724728686,4.911707410753613,-1.1880475988309005,0.2506458887854155,0.37479532479156585,1.0,1.0
2680.0,8029.0,8.960763908241432,12.485289968903231,4.954027452646725,-1.1701305014851018,0.22790457270611597,0.38615014672948433,1.0,1.0
2680.0,8028.0,9.076688630703217,12.456823137463402,4.998285739892086,-1.1436553424100486,0.20641285669197895,0.4002657051719698,1.0,1.0
2680.0,8027.0,9.189971872879937,12.43483708320116,5.040564606537663,-1.1097246409405592,0.18601469411624105,0.4162168162249511,1.0,1.0
2680.0,8026.0,9.300307078927403,12.416275494536023,5.082112884886622,-1.0696349250417567,0.16728271564296993,0.4334218494450095,1.0,1.0
2680.0,8025.0,9.406534855254506,12.399500184742408,5.122581665913301,-1.024761077196362,0.14955538251749712,0.45141056902538335,1.0,1.0
2680.0,8024.0,9.508788039160152,12.38493831864659,5.164197571117871,-0.9763349849391139,0.13084030711895522,0.4688889818296831,1.0,1.0
2680.0,8023.0,9.606416348299604,12.371312565863576,5.207589239897882,-0.9256771187566892,0.10807292316472772,0.4847978112092157,1.0,1.0
2680.0,8022.0,9.699077378344128,12.36037987994635,5.254501378404653,-0.8742440013295907,0.0792138445908579,0.4978954653968559,1.0,1.0
2680.0,8021.0,9.786361337662242,12.352510941919377,5.304344081430935,-0.8236580394265332,0.04368868618207422,0.5066805116881214,1.0,1.0
2680.0,8020.0,9.868806561568249,12.348848784904646,5.354682625853395,-0.7762957715045085,0.0016402883827675296,0.5087853109941509,1.0,1.0
2680.0,8019.0,9.946253965652517,12.348473693447602,5.40550642739981,-0.7347631645935078,-0.0472968527293709,0.501488555013589,1.0,1.0
2680.0,8018.0,10.019760631804417,12.352599050227099,5.456047504387627,-0.7020955518733825,-0.10334821143482653,0.48167411207235844,1.0,1.0
2680.0,8017.0,10.090201591799229,12.362866447920737,5.504096655511971,-0.682351816038862,-0.16656020186621578,0.44583054158362057,1.0,1.0
2680.0,8016.0,10.158629721043468,12.379622582554134,5.548585285711998,-0.6788739189301554,-0.23674468761376577,0.3888126204329323,1.0,1.0
2680.0,8015.0,10.22649278988618,12.404750032185092,5.585586022849308,-0.6933631282091239,-0.3135313113644944,0.3117730712870941,1.0,1.0
2680.0,8014.0,10.295572780425147,12.434577841450306,5.618299537791166,-0.7255167260918673,-0.3964049477900815,0.22049276072134738,1.0,1.0
2680.0,8013.0,10.36785984923921,12.470392980425089,5.64401382047909,-0.7730479020516663,-0.48462163669334846,0.1261309458737232,1.0,1.0
2680.0,8012.0,10.44607970848321,12.524039091600827,5.6514223864135325,-0.8325039732052133,-0.577157074126819,0.037673783805365346,1.0,1.0
2680.0,8011.0,10.530625456674983,12.603108156117116,5.634265474999789,-0.9008717483484228,-0.6725897728489763,-0.03798053050472738,1.0,1.0
2680.0,8010.0,10.622055295593185,12.69967523804064,5.601214619344017,-0.9750000738435398,-0.7692672615749032,-0.09818620830827207,1.0,1.0
2680.0,8009.0,10.71934358418963,12.796862697805238,5.569806582933222,-1.0508588815083382,-0.864523127578404,-0.14482919432855468,1.0,1.0
2680.0,8008.0,10.82390230008906,12.883721667781998,5.554009317470548,-1.1252835472379639,-0.9562729825831342,-0.17788355945431178,1.0,1.0
2680.0,8007.0,10.936716886302094,12.973512877014343,5.5413918177146515,-1.1959719431387956,-1.0429200272829018,-0.19860339781852865,1.0,1.0
2680.0,8006.0,11.056470566542515,13.078243193661876,5.5205784073647015,-1.2615764231872006,-1.1236859343149526,-0.20932156682300018,1.0,1.0
2680.0,8005.0,11.181973701246761,13.192019892613956,5.498109947689047,-1.3214666606011551,-1.1984721510517975,-0.21394406343380012,1.0,1.0
2680.0,8004.0,11.31362134231398,13.311220702893166,5.478120997876843,-1.3736310421297535,-1.2659366660393996,-0.21425515598339295,1.0,1.0
2680.0,8003.0,11.45060338646303,13.437009409018799,5.457724635542895,-1.4166970933179943,-1.325261655042385,-0.2107950783031196,1.0,1.0
2680.0,8002.0,11.592257194746765,13.570983134079256,5.435573614929178,-1.450288644372371,-1.3765240674084502,-0.20351642315494267,1.0,1.0
2680.0,8001.0,11.737415730384214,13.707215041783599,5.416787594832671,-1.4747761226253973,-1.4207128489804939,-0.1924972984123663,1.0,1.0
2680.0,8000.0,11.884697716221524,13.849171291167295,5.397549575593212,-1.4914462857802304,-1.4597905780857054,-0.17801010201047696,1.0,1.0
2680.0,7999.0,12.033800187618198,13.995341766955676,5.379779956690847,-1.5008708408470843,-1.4949865580821413,-0.1608290306043898,1.0,1.0
2680.0,7998.0,12.183913740127565,14.145495838896437,5.362933909568388,-1.5034039504626557,-1.5273040192760252,-0.14181523717300237,1.0,1.0
2680.0,7997.0,12.334283516471032,14.298967196531919,5.348145736016702,-1.4995979602356524,-1.5575731501746475,-0.1225509732735528,1.0,1.0
2680.0,7996.0,12.484155404775407,14.454029744882348,5.3365244436115615,-1.4902247516944547,-1.5864894026058494,-0.10383533198081629,1.0,1.0
2680.0,7995.0,12.633130097923214,14.612036759091211,5.326957466479698,-1.476025711422679,-1.614682509134452,-0.08555560615605451,1.0,1.0
140.0,413.0,10.0022994627248,2.079048324485285,8.08638101661803,-1.391556178587031,-0.3724377708922031,0.6153007415170713,1.0,1.0
140.0,412.0,10.141460912131016,2.0931338075260726,8.148499764932822,-1.3307503646589556,-0.37462213482164586,0.5666687965470967,1.0,1.0
140.0,411.0,10.27465926806573,2.1296944765152546,8.205513306620539,-1.2413623736735193,-0.35025382028824303,0.5249857012760746,1.0,1.0
140.0,410.0,10.398714322746091,2.1652447239573007,8.257106701746363,-1.1252834063291122,-0.2996326087499366,0.4917877875013641,1.0,1.0
140.0,409.0,10.511061657238388,2.1957950847786094,8.305425690477387,-0.9863858258214329,-0.22468531381245782,0.46729110851492983,1.0,1.0
140.0,408.0,10.60951083265496,2.2181020472194177,8.35220656174117,-0.8289607554836422,-0.12717925916721207,0.4518007534682056,1.0,1.0
140.0,407.0,10.69247899316359,2.230078298487115,8.39833781395225,-0.6575171639997119,-0.009474123301671966,0.4463585863055357,1.0,1.0
140.0,405.0,10.80587645664312,2.2169803106622226,8.49059661072667,-0.29340514659423,0.27131069025012877,0.46072286259900785,1.0,1.0
140.0,404.0,10.818457602738732,2.1724519708804166,8.554271772398819,-0.11290684124806205,0.4247007251438255,0.4752598280912945,1.0,1.0
140.0,403.0,10.830212467812885,2.113264317471277,8.617081898278578,0.05649616043994499,0.5798351469829957,0.48885592619214613,1.0,1.0
140.0,402.0,10.824538032130647,2.055567051929188,8.665221687265735,0.2046413826438478,0.7298766261707836,0.4942075758733928,1.0,1.0
140.0,401.0,10.803896425265066,1.9928781613163835,8.70404834404698,0.3245059675076689,0.8701308105254917,0.4865941542039067,1.0,1.0
140.0,400.0,10.770653476727631,1.9132632207739562,8.74717514907613,0.412863614965314,0.9983800637092255,0.4645763185410665,1.0,1.0
140.0,399.0,10.729292764454641,1.815524934773265,8.793718473034568,0.4703571050870483,1.1147882045737525,0.4295200493863778,1.0,1.0
140.0,398.0,10.682656476335183,1.7055858540092288,8.835854059979532,0.5007058271210809,1.2191864759147375,0.38496628501649965,1.0,1.0
140.0,397.0,10.632609171383137,1.5832357991341723,8.875090743059104,0.5088428343728157,1.3104839592765973,0.3354204935470708,1.0,1.0
140.0,396.0,10.582820292579612,1.4508988641680673,8.90938821890317,0.49906703848668954,1.3869192058558149,0.2842573529657635,1.0,1.0
140.0,395.0,10.53349482831581,1.3124606785476942,8.936951030459912,0.47716921603429974,1.449298919099295,0.23544964049023065,1.0,1.0
140.0,394.0,10.485639611815117,1.165135163382189,8.962856071137566,0.4484242428133616,1.4990300925353655,0.1914715368826272,1.0,1.0
140.0,393.0,10.44093825864391,1.0205273981437415,8.976800815395993,0.4184070387488159,1.5385695535738364,0.15371540568683173,1.0,1.0
140.0,392.0,10.39895823501206,0.8667017606888976,8.992303624794804,0.3940561133978253,1.5697174617726866,0.1232948323386438,1.0,1.0
140.0,391.0,10.360933031453015,0.6727682523034844,9.04124311235552,0.38022787916821343,1.5943007258798634,0.10036960846028009,1.0,1.0
140.0,390.0,10.326340983566098,0.489397429294371,9.074298689218447,0.37919868080765085,1.61451466499339,0.08447971512676489,1.0,1.0
140.0,389.0,10.289146089946769,0.3139895422695531,9.096703837994568,0.3892784591762588,1.6310714500886192,0.07428811976529381,1.0,1.0
140.0,388.0,10.249244211630042,0.14654265175838077,9.108596172011982,0.40518805839471206,1.6429101570842448,0.06690250582106216,1.0,1.0
140.0,387.0,10.206645257960957,0.02257369511224283,9.075156763662116,0.42311209111625026,1.6475998449741809,0.058822685380263806,1.0,1.0
140.0,386.0,10.162765354702401,27.83214203361277,-8.563478933781578,0.4437682675456376,-0.04114110116679193,1.6440800332161043,1.0,1.0
140.0,385.0,10.117245730526918,27.831329219353762,-8.393612652206055,0.4682231936841088,-0.10074374675343556,1.632622231442424,1.0,1.0
140.0,384.0,10.070589727202446,27.841450964646725,-8.230346660105784,0.49739670343199194,-0.15371354973215468,1.6147765920570745,1.0,1.0
140.0,383.0,10.020985557698964,27.857646123544043,-8.069629126755295,0.5305355617028233,-0.19952807473982226,1.591513639560029,1.0,1.0
1190.0,3574.0,12.493622086668637,22.387366355729654,7.269612451595377,-1.0428573234456255,-0.4421220067432028,-0.7397923540069531,1.0,1.0
1190.0,3573.0,12.597399877842633,22.432333829379004,7.19667758295595,-0.9188192519891061,-0.3414236571964171,-0.6662430157805286,1.0,1.0
1190.0,3572.0,12.688904494246685,22.465137687627944,7.131004364953552,-0.7960816012209495,-0.2273616273503336,-0.5858855491300439,1.0,1.0
1190.0,3571.0,12.768355595410227,22.486612088500152,7.073820176611428,-0.6784507081745463,-0.10155945616698325,-0.5023161119204591,1.0,1.0
1190.0,3570.0,12.835754692359046,22.496225418626636,7.023720740588798,-0.5701849378783557,0.03178783693526732,-0.42045918455401754,1.0,1.0
1190.0,3569.0,12.894207355576512,22.491875830585215,6.981891735413637,-0.4744583510387894,0.1673017188298882,-0.34577851543880733,1.0,1.0
1190.0,3568.0,12.938887983659257,22.48433814077471,6.9376812446587,-0.3934991997074686,0.30083974028296545,-0.28070766429579486,1.0,1.0
1190.0,3567.0,12.968579340235458,22.48539626128982,6.879030552079168,-0.328711440847524,0.4311708555450551,-0.22548381656016758,1.0,1.0
1190.0,3566.0,12.998698087150352,22.431757083889217,6.866519950589517,-0.2792392179685734,0.5591620662407184,-0.1777274235334776,1.0,1.0
1190.0,3565.0,13.027625721481925,22.377313393357483,6.847749624170042,-0.24321023164920774,0.6846791400527312,-0.13531828808602597,1.0,1.0
1190.0,3564.0,13.050582745957925,22.30883811285001,6.837486246420593,-0.2188597852402694,0.8054445604689029,-0.09818673276580192,1.0,1.0
1190.0,3563.0,13.072816457389152,22.227286932212692,6.82971803496731,-0.2029706298760683,0.9185200657914976,-0.06628889713031505,1.0,1.0
1190.0,3562.0,13.094534890677025,22.1364921566666,6.821773826627438,-0.19388159254979342,1.01881727246138,-0.0403394357276845,1.0,1.0
1190.0,3561.0,13.114944660031796,22.03213258336872,6.8181588743708215,-0.19257454879789115,1.1006598983549214,-0.022776582306308413,1.0,1.0
1190.0,3559.0,13.156428157716427,21.80358437590432,6.814053674610355,-0.2135458551974896,1.1971129824324116,-0.020567923744174266,1.0,1.0
1190.0,3558.0,13.178470535918883,21.68598878980672,6.812084024083214,-0.2355885398687434,1.2132830874382083,-0.037016176154608615,1.0,1.0
1190.0,3557.0,13.20339382208369,21.557320529988118,6.815795638214709,-0.26552037429596176,1.214108229087639,-0.0634553840532206,1.0,1.0
1190.0,3556.0,13.232112934127741,21.42010070458751,6.824958585444734,-0.30178307553457984,1.2052303147921997,-0.09712134485786805,1.0,1.0
1190.0,3555.0,13.263992069551975,21.30339676227819,6.811508521488855,-0.34287816181296016,1.1912752186319224,-0.13668867414615882,1.0,1.0
1190.0,3554.0,13.297422183528113,21.182714912510065,6.79979365399034,-0.3879680554522018,1.1739225869413499,-0.18222679834767952,1.0,1.0
1190.0,3553.0,13.336438427923973,21.06617821791422,6.780308198327814,-0.43497177843181056,1.1548936078313687,-0.2323965403229007,1.0,1.0
1190.0,3552.0,13.380364002804534,20.950582388802324,6.755946647306583,-0.4792559989993723,1.1364939753717032,-0.2840800224869824,1.0,1.0
1190.0,3551.0,13.428362746949503,20.83745084009228,6.727142059414112,-0.5153126653451405,1.1210552951963013,-0.332307777251156,1.0,1.0
1190.0,3550.0,13.47979479013928,20.728398095662584,6.694546191300411,-0.5404056485438851,1.109271338417221,-0.37332478675960523,1.0,1.0
1190.0,3549.0,13.533988741599885,20.618527080329407,6.657853597909323,-0.5537510536082184,1.1010798022360202,-0.4052640637274738,1.0,1.0
1190.0,3548.0,13.58926423084668,20.508629502259147,6.61625548453034,-0.555465429978879,1.0970846638387268,-0.42640563303490353,1.0,1.0
1190.0,3547.0,13.644795302929666,20.398557081341373,6.5742672817615055,-0.5463999601899499,1.098062935110649,-0.435987962333245,1.0,1.0
1190.0,3546.0,13.699604010705102,20.286533221430652,6.53262255662764,-0.5276575184667394,1.104680899840405,-0.43581491738031275,1.0,1.0
1190.0,3545.0,13.752228335050376,20.183582417207468,6.481872655803444,-0.5014236356840414,1.11585921520809,-0.4293854726287609,1.0,1.0
1190.0,3544.0,13.802157442916446,20.071295299677892,6.439651806094446,-0.4683237595330336,1.1302696388030284,-0.41738884139480703,1.0,1.0
1933.0,5922.0,25.0379534340952,9.86124169127595,12.651252751735548,-2.4752122527147993,1.795718725655627,0.6118767214763832,1.0,1.0
1933.0,5921.0,25.28596599023662,9.682419280237013,12.711691170814092,-2.421612375589808,1.7804692846218373,0.5776259291176657,1.0,1.0
1933.0,5920.0,25.526392206541743,9.505987105137422,12.767962858927888,-2.357150668806863,1.7703719706774805,0.5411249159299487,1.0,1.0
1933.0,5919.0,25.76833369664442,9.314818597234606,12.837503038782458,-2.2776603102168913,1.7725223944846675,0.5067306680630104,1.0,1.0
1933.0,5918.0,26.005634991299473,9.10143570890061,12.922459368332035,-2.180746616748733,1.790749119273796,0.47734896478726263,1.0,1.0
1933.0,5917.0,26.227777188708885,8.93814393604977,12.953722974086581,-2.0656755473510664,1.82519181658472,0.4545777172038612,1.0,1.0
1933.0,5916.0,26.435477451211284,8.766270109207255,12.988718405558085,-1.9333974345552143,1.8720012605377558,0.4386324689777066,1.0,1.0
1933.0,5915.0,26.636284654485735,8.577476356257193,13.034186704163226,-1.7855912678956347,1.9259215636946596,0.4301596541867916,1.0,1.0
1933.0,5914.0,26.81360327995162,8.384964248815677,13.077292624268475,-1.62438192303979,1.982074010681469,0.43084449859597385,1.0,1.0
1933.0,5913.0,26.975774840381277,8.187506781709459,13.119719846337466,-1.4524765647307998,2.035287330419875,0.44147301522208515,1.0,1.0
1933.0,5912.0,27.12100022397597,7.983094173698277,13.164669141516164,-1.2715576266600515,2.081200248159915,0.46248768417625463,1.0,1.0
1933.0,5911.0,27.247937281351142,7.772074613320044,13.210362955382774,-1.082350439393835,2.116686513290233,0.493602394374264,1.0,1.0
1933.0,5910.0,27.356153242126496,7.554090108703804,13.259457780925977,-0.8839680019419767,2.1415283663370346,0.5342394549612397,1.0,1.0
1933.0,5909.0,27.444518238200104,7.347087747817525,13.310125594839407,-0.6755071986384156,2.1571730544348,0.5829338828167501,1.0,1.0
1933.0,5908.0,27.510349404134793,7.1680308988110255,13.33219056892652,-0.4570019011065014,2.165325265823437,0.6384248892670641,1.0,1.0
1933.0,5907.0,27.555532280577758,6.942513447911409,13.40484750835018,-0.22942193770978925,2.167818646987209,0.699100641346984,1.0,1.0
1933.0,5906.0,27.577818372163044,6.727365346610206,13.473262823522473,0.005313835592655636,2.1662875376655997,0.7630371004887433,1.0,1.0
1933.0,5905.0,27.573935986629515,6.510527071249207,13.549576666064786,0.2448962103794976,2.1623441496242144,0.8282002478585717,1.0,1.0
1933.0,5904.0,27.54600538537936,6.294407585315199,13.63239901468976,0.4860106107733593,2.1553245487727715,0.8921431353516294,1.0,1.0
1933.0,5903.0,27.49943417312152,6.078902291910417,13.721558910124807,0.7235568979523457,2.1429847681429894,0.9515565550936138,1.0,1.0
1933.0,5902.0,27.428734225423,5.866403713221736,13.816750693327243,0.9526326348678733,2.1239749967012287,1.0041816564118093,1.0,1.0
1933.0,5901.0,27.334504466117302,5.66089203243687,13.917085600663702,1.1683200739024109,2.09755200526331,1.048897590571105,1.0,1.0
1933.0,5900.0,27.22134241714741,5.448673723341166,14.022066189030724,1.3644812595702192,2.064901867484444,1.0855422764327383,1.0,1.0
1933.0,5899.0,27.084880824701266,5.24142679790743,14.132371359832467,1.535111046038672,2.0255314228189114,1.1122171812432846,1.0,1.0
1933.0,5898.0,26.918796031915207,5.024308029932378,14.25807714343268,1.673947294781705,1.977958825496346,1.12471314119332,1.0,1.0
1933.0,5897.0,26.748084174250543,4.819989947283901,14.377283894233688,1.778132833941907,1.9216966726782925,1.1205802216806084,1.0,1.0
1933.0,5896.0,26.572190498991745,4.630504158688979,14.486239795379051,1.8483724063938674,1.8585538335028282,1.0993333532902465,1.0,1.0
1933.0,5895.0,43.2315194545422,4.44427046113524,14.596903299667424,1.857884046830316,1.7918247607944604,1.0624627789203327,1.0,1.0
1933.0,5894.0,43.04486073330446,4.265149365938925,14.703278541559772,1.9363084809451987,1.7240375682841051,1.0125616309135097,1.0,1.0
1933.0,5893.0,42.85038661676676,4.093030834140762,14.803963034716459,2.0059553484987767,1.6560915290500233,0.9518313781662471,1.0,1.0
1933.0,5892.0,42.64998540936338,3.922928191442118,14.899646344976452,2.0667396632536814,1.5877962523265232,0.8824896394947537,1.0,1.0
1933.0,5891.0,42.443211607659826,3.7619061604039103,14.9887397594383,2.1178845557293453,1.5177666061419597,0.8069486904405938,1.0,1.0
1933.0,5890.0,42.23126608950875,3.6115164206163044,15.068956857387448,2.1581095319024772,1.4457515836346957,0.7279042094650947,1.0,1.0
1933.0,5889.0,42.01600222361787,3.46740384107634,15.141074409161757,2.184948024114018,1.3716900013355158,0.6485088569478936,1.0,1.0
1933.0,5888.0,41.79610004048541,3.327344873062124,15.20894400011216,2.196070664803072,1.2959653551859276,0.5729741899744223,1.0,1.0
1933.0,5887.0,41.57380515082111,3.203084752979912,15.261096216890348,2.1905930658661674,1.2201766677114954,0.5051597919155082,1.0,1.0
1933.0,5886.0,41.35453391206846,3.084663002265536,15.307816800186117,2.1690590639763734,1.1448193050657451,0.44737160388524977,1.0,1.0
1933.0,5885.0,41.13844318263814,2.9671527728149023,15.355606584705871,2.133590297775541,1.0694415717495396,0.39998659506846757,1.0,1.0
1933.0,5884.0,40.92670499241745,2.8613478713851563,15.39506204991919,2.0866339905544784,0.9923649604546245,0.36134146963234137,1.0,1.0
1933.0,5883.0,40.71796767043078,2.7623996149295564,15.43037107492241,2.0300893251724403,0.9136956172730049,0.3288716254818862,1.0,1.0
1933.0,5882.0,40.5149888496753,2.670709939554218,15.464282313762489,1.9664512487250754,0.8353220998180593,0.30121479870039636,1.0,1.0
1933.0,5881.0,40.31843845789724,2.5887295846557627,15.493516486680383,1.8995683228094649,0.758813615500852,0.2772565631008206,1.0,1.0
445.0,1197.0,13.491516670715672,59.39007591532415,95.28081027938256,-1.0090747796201,2.8961465244606615,-12.476453069161485,1.0,1.0
445.0,1196.0,13.5837932334039,59.114091679987894,95.27968845916523,-0.9856488806320272,2.976458892392005,-12.37461797751096,1.0,1.0
445.0,1195.0,13.670219526299459,58.815930411794355,95.27808852531882,-0.9654937171340112,3.0531598604368035,-12.272811957217089,1.0,1.0
445.0,1194.0,13.761034837437286,58.50610374550119,95.2773831041886,-0.9459036155896339,3.1270117594338647,-12.169697907097811,1.0,1.0
445.0,1193.0,13.854033119949673,58.192486151530225,95.2772159063677,-0.9249207906117807,3.1985450910071354,-12.064336254467712,1.0,1.0
445.0,1192.0,13.942534299656062,57.87255599495942,95.27693696174323,-0.9025728718154582,3.26815566787063,-11.956087324065985,1.0,1.0
445.0,1191.0,14.037407020579652,57.54541460462355,95.27803393752036,-0.8793065562302278,3.3360072898917625,-11.844634026882874,1.0,1.0
445.0,1190.0,14.183994240742184,57.220063319744334,95.28927139510921,-0.8550288778573716,3.401960800933148,-11.730184468780765,1.0,1.0
445.0,1189.0,14.21551998830466,56.90347456904149,95.27697240696514,-0.8287181553835055,3.4654268960993395,-11.613504437836543,1.0,1.0
445.0,1188.0,14.309706404242025,56.54095099394969,13.966002843995762,-0.8000525354788071,3.52510311553816,0.802555514121865,1.0,1.0
445.0,1187.0,14.391633683425418,56.18803048082934,14.049008657083977,-0.7701746520492527,3.5792730380997426,0.9408807227949687,1.0,1.0
445.0,1186.0,14.469427911321837,55.82913618053206,14.14633244835887,-0.7425647810904135,3.625352572703683,1.0744979790841,1.0,1.0
445.0,1185.0,14.544171247116042,55.46649239490551,14.253967423145891,-0.7211948538347652,3.661175369315078,1.200620271431811,1.0,1.0
445.0,1184.0,14.61615896101969,55.10431228895946,14.369612665733008,-0.707462046540634,3.686273635154574,1.3179742470263474,1.0,1.0
445.0,1183.0,14.686771192828918,54.7391615347487,14.49769572568066,-0.7005456486965649,3.7022081914021125,1.4266525117283066,1.0,1.0
445.0,1182.0,14.75727527242633,54.369085211098316,14.643933138012054,-0.697062507146482,3.7121328690942725,1.5285212105111157,1.0,1.0
445.0,1180.0,14.89762078261038,53.62368021723938,14.963248457003502,-0.6893424656777647,3.729697046403107,1.7206064692506668,1.0,1.0
445.0,1179.0,14.96647177890418,53.251608998310495,15.133817512310957,-0.6835219703519115,3.745304938587193,1.8136052924810073,1.0,1.0
445.0,1178.0,15.034113998668758,52.87317750468778,15.312524960553043,-0.6748422554643199,3.771769701085571,1.9053797170490174,1.0,1.0
445.0,1177.0,15.100823938261446,52.48823754467077,15.50286863772137,-0.6607092553841252,3.81289880846111,1.9954637407510027,1.0,1.0
445.0,1176.0,15.166512368092214,52.10913987026905,15.701075174731923,-0.6404861071612693,3.8705641404858415,2.0833608606114016,1.0,1.0
445.0,1175.0,15.230127245158721,51.71805104760482,15.913016896147006,-0.6156181025650671,3.944662686659157,2.1684126900720955,1.0,1.0
445.0,1174.0,15.29055597687776,51.327497112757754,16.126066554531167,-0.5873855083762809,4.033434138950026,2.2496338380401433,1.0,1.0
445.0,1173.0,15.348334672459902,50.94927415750696,16.32557094172642,-0.5558460605122892,4.133715032765258,2.3249770516861314,1.0,1.0
445.0,1172.0,15.430666835818755,50.54649106543792,16.548355314181293,-0.5193468741301714,4.24259783724626,2.3929359322214268,1.0,1.0
445.0,1171.0,15.454149906361693,50.12120361546579,16.796805344756486,-0.47749661373918784,4.3566996862730605,2.452784586381231,1.0,1.0
445.0,1170.0,15.49192363414818,49.68397050141327,17.048141345785798,-0.4309248950622777,4.472518397335893,2.504955965708895,1.0,1.0
445.0,1169.0,15.526419827641746,49.22876446726143,17.306854710594486,-0.3791845380453047,4.585763579662785,2.549428875394785,1.0,1.0
445.0,1168.0,15.565625877999565,48.760011761771416,17.571293491354904,-0.3237911665309863,4.690769462128111,2.584507758042289,1.0,1.0
445.0,1167.0,15.598496962297048,48.29038969866849,17.82547455737076,-0.26687363281730825,4.781357833600557,2.610268509624717,1.0,1.0
1446.0,4176.0,22.520226701124898,29.122933974287577,-3.038180302129283,-2.52614915970082,-0.06388241898103075,0.05904091304010883,1.0,1.0
1446.0,4175.0,22.77263758245006,29.12889940731175,-3.031403613276483,-2.5339981165238292,-0.08167061697153066,0.06041963468264555,1.0,1.0
1446.0,4174.0,23.0269653430734,29.136742437262313,-3.024640928740011,-2.5200993673888004,-0.09143812391161532,0.061076670213125794,1.0,1.0
1446.0,4173.0,23.280167280042107,29.14658689169667,-3.0195960362869396,-2.4883945351824384,-0.0983574969604355,0.060845419475034745,1.0,1.0
1446.0,4172.0,23.529208840769243,29.155819234606895,-3.0133085471664387,-2.441496236459047,-0.10619309217688944,0.05913433578446714,1.0,1.0
1446.0,4171.0,23.773295077160967,29.16740226421642,-3.0078797124913113,-2.3819045791364264,-0.11553024562317482,0.05518486489117613,1.0,1.0
1446.0,4170.0,24.011463987053062,29.178915509316084,-3.0017549083430275,-2.3140317691127663,-0.12709717884173521,0.04684374404252445,1.0,1.0
1446.0,4169.0,24.242870460076958,29.19027968365701,-2.996034997118156,-2.2399573080121353,-0.14062346853595287,0.03381344755927351,1.0,1.0
1446.0,4168.0,24.46685858914985,29.205118256381255,-2.9948568026553932,-2.1592194941301788,-0.15432630734418318,0.01721364570326145,1.0,1.0
1446.0,4167.0,24.6826325598863,29.223243985380293,-2.996769375776447,-2.0696732612079742,-0.16502364153801707,-0.00021695539806820818,1.0,1.0
1446.0,4166.0,24.888580028213397,29.242958119502305,-3.0002750646032332,-1.9717913686491784,-0.17046755953876058,-0.016674250793977663,1.0,1.0
1446.0,4165.0,25.085589938403302,29.259923976408842,-3.0024180382741408,-1.8685593870935815,-0.16990300154619398,-0.03190021156452261,1.0,1.0
1446.0,4164.0,25.272465031475335,29.278369555579246,-3.006184970668615,-1.7637508380664269,-0.16373308174324208,-0.04656697905038776,1.0,1.0
1446.0,4163.0,25.4489184974003,29.295530102331426,-3.010235413920178,-1.6596034208011492,-0.15182126228959092,-0.06073220996647777,1.0,1.0
1446.0,4162.0,25.61467538306897,29.310767054036404,-3.0168826345472697,-1.5572400184698303,-0.1343919251436443,-0.07439425876369832,1.0,1.0
1446.0,4161.0,25.772320057157543,29.323845061015035,-3.0226815766833095,-1.4572526470514404,-0.11156106203106653,-0.08776293844788974,1.0,1.0
1446.0,4160.0,25.919409804178088,29.335448439842793,-3.032230779427799,-1.35966791098088,-0.08349354013466659,-0.1009986395635849,1.0,1.0
1446.0,4159.0,26.05567485946395,29.343818916308265,-3.0432572458413345,-1.2638297119620425,-0.050296049878435056,-0.11426234914503297,1.0,1.0
1446.0,4158.0,26.18202299256079,29.349474893489784,-3.054986998426001,-1.1698195717930133,-0.011965048280369928,-0.12762383702937363,1.0,1.0
1446.0,4157.0,26.299655667323762,29.349416571497727,-3.065765401190607,-1.0777364846050048,0.03189005302585457,-0.1410008001314349,1.0,1.0
1446.0,4156.0,26.408108620732108,29.34635015860107,-3.080488786649412,-0.9886824538817596,0.08187852490734926,-0.1544981147337392,1.0,1.0
1446.0,4155.0,26.50693036667549,29.340877339270065,-3.1002232531128415,-0.905668372181168,0.13801114126341218,-0.16833301737946194,1.0,1.0
1446.0,4154.0,26.597193657781006,29.329550628332427,-3.120210907597233,-0.8313001816849557,0.20007251281403526,-0.18248340919418382,1.0,1.0
1446.0,4153.0,26.68034949294058,29.30858991406774,-3.1366972371321973,-0.7661328705870325,0.2674858245555587,-0.1966624569526818,1.0,1.0
1446.0,4152.0,26.757736447293922,29.28126556295888,-3.1562881469938713,-0.7097381658925492,0.3400644720682866,-0.2105645251921846,1.0,1.0
1446.0,4151.0,26.82817519141247,29.24281940343981,-3.179083404586991,-0.6608753807445815,0.4167870281918642,-0.22454657273567413,1.0,1.0
1446.0,4150.0,26.892909295022307,29.19865755167504,-3.2006067835328196,-0.6175460767993748,0.493734853727533,-0.23869806301493846,1.0,1.0
1446.0,4149.0,26.953988409993443,29.150317669474703,-3.2245075027643395,-0.5786336240970407,0.5668498466941791,-0.25276326378559943,1.0,1.0
1446.0,4148.0,27.010788961679367,29.094061601554117,-3.2507745964977666,-0.5433008894593261,0.6329619504803645,-0.2663033889191819,1.0,1.0
1446.0,4147.0,27.065612751066112,29.029132929292373,-3.275482830749934,-0.5105341519265121,0.691356972033093,-0.27897305353024215,1.0,1.0
1446.0,4146.0,27.11646937659365,28.961504238761634,-3.30529115641352,-0.48004100354813417,0.7434163452796874,-0.2904032843443911,1.0,1.0
1446.0,4145.0,27.163574639924086,28.886569255565142,-3.3324473599139965,-0.4529166981932722,0.7904245220118042,-0.30041506810478324,1.0,1.0
1446.0,4144.0,27.208164393948664,28.808102924503835,-3.366753094210744,-0.4306027976593061,0.8328133529411943,-0.30884211745014234,1.0,1.0
1446.0,4143.0,27.24920501549653,28.736592795599343,-3.414047596103078,-0.41361773636632293,0.8704322493713015,-0.31568588413671606,1.0,1.0
1446.0,4142.0,27.288287588361356,28.654425454668342,-3.452357222586434,-0.40115685145553037,0.9037523106886258,-0.3209566804538859,1.0,1.0
1446.0,4141.0,27.328960052409144,28.56442602061462,-3.4835144330882253,-0.3911233136246093,0.9335963677901926,-0.3249842198327215,1.0,1.0
1446.0,4140.0,27.367891710760205,28.471359262108855,-3.514967565121209,-0.3821014298823062,0.9597528472922878,-0.327094576790504,1.0,1.0
1446.0,4139.0,27.406079279472117,28.37608954289186,-3.5474760808100756,-0.37253335035376445,0.9819514807170062,-0.32515291019648274,1.0,1.0
1446.0,4138.0,27.443404618398063,28.277899333115727,-3.579802075900325,-0.36063244145443285,1.0009227950551018,-0.31570384089836345,1.0,1.0
1446.0,4137.0,27.478895462468287,28.178050065489472,-3.612177420116203,-0.34473904668912425,1.0185828135540334,-0.29633038449556537,1.0,1.0
1446.0,4136.0,27.512491422131,28.076817594161675,-3.641689864590254,-0.32307168905216166,1.037742453707402,-0.26551520426092523,1.0,1.0
1446.0,4135.0,27.54494704191582,27.971138539391703,-3.666323206012078,-0.2933205176875191,1.0611722041661515,-0.21932051631821636,1.0,1.0
1446.0,4134.0,27.57369735336993,27.87011493311408,-3.697052806812284,-0.25451831339161224,1.0906990565248815,-0.1542171662561138,1.0,1.0
1446.0,4133.0,27.601790140085917,27.749761815004447,-3.695256369984147,-0.20702350235871414,1.1265519944080893,-0.0696516041791071,1.0,1.0
1446.0,4132.0,27.62633360570065,27.614029331508263,-3.668249886116226,-0.1517090097931959,1.1685351860903452,0.03290145836424152,1.0,1.0
1446.0,4131.0,27.643485353761,27.496565865310437,-3.667341808744694,-0.08973192560149101,1.2160804169808017,0.1506123509571804,1.0,1.0
1446.0,4130.0,27.651849291827276,27.375645143330644,-3.654244102409784,-0.02277032092669451,1.2685332346785803,0.279484267755139,1.0,1.0
1446.0,4129.0,27.654294736396963,27.250133659343753,-3.627691355296802,0.04739724315296634,1.3253575696866111,0.4152842036119111,1.0,1.0
1446.0,4128.0,27.648796259285348,27.117221520264557,-3.587829417620874,0.1196281197777811,1.386614614593805,0.5540511260702115,1.0,1.0
1446.0,4127.0,27.63903337388819,26.979287058442274,-3.5352244106749557,0.1941813358321376,1.4540630604514728,0.6928768912727641,1.0,1.0
1200.0,3572.0,13.930385252963088,6.693294068756234,97.1044228801146,-0.7993495014738645,1.4984132291273564,-14.173007185103526,1.0,1.0
1200.0,3571.0,14.010460836055216,6.545222904801292,97.10445390594411,-0.8453289453716515,1.538351497594551,-14.187014926612504,1.0,1.0
1200.0,3570.0,14.0951985587893,6.382225927373629,97.10449160627981,-0.89695438013079,1.5526562619147448,-14.204615336600149,1.0,1.0
1200.0,3569.0,14.1841849182698,6.218313037983631,97.10449555548004,-0.9534356414087615,1.5388237880586804,-14.224876707386207,1.0,1.0
1200.0,3568.0,14.280060918263853,6.0615371402424785,97.10453601875683,-1.014198478421612,1.497111018363574,-14.246950043337096,1.0,1.0
1200.0,3567.0,14.380590531077669,5.899867498403047,97.10450437848664,-1.0789084842460888,1.4314226670661068,-14.270027546587803,1.0,1.0
1200.0,3566.0,14.480986350109143,5.717101002148775,97.1044778005861,-1.1470587125890184,1.349353279870959,-14.293326097828185,1.0,1.0
1200.0,3565.0,14.595026137800618,5.543240200190132,97.10445676072588,-1.2180823663996208,1.2568790768230915,-14.316068735550761,1.0,1.0
1200.0,3564.0,14.710134148223094,5.410743510947285,97.10445777277151,-1.2909933656621693,1.1588157906080436,-14.337467173273906,1.0,1.0
1200.0,3563.0,14.827250060901882,5.297327136821293,97.1044468593733,-1.364086994902701,1.0591110770925347,-14.356715043641612,1.0,1.0
1200.0,3562.0,14.965076921209675,5.191749212751063,97.10444616650292,-1.4362154317622924,0.9603666200160479,-14.372968650834883,1.0,1.0
1200.0,3561.0,15.108652201494415,5.098520827002172,97.10443864385685,-1.507206679191727,0.8640175975624285,-14.385397043074017,1.0,1.0
1200.0,3560.0,15.258822964835064,5.019460414864725,97.10445336776097,-1.5760154331635245,0.7711304941810653,-14.392815446053008,1.0,1.0
1200.0,3559.0,15.419486964990423,4.9444063500322235,97.10440000021234,-1.6399040314991602,0.6819025071080151,-14.394017199381796,1.0,1.0
1200.0,3558.0,15.584482303903645,4.877629017077775,97.10440629056563,-1.693443666361052,0.5971823747054366,-14.387864676163023,1.0,1.0
1200.0,3557.0,15.752536884666181,4.812717859897342,97.10440004565375,-1.7309451157074225,0.5181199712155635,-14.373224933795523,1.0,1.0
1200.0,3556.0,15.922643872009452,4.824217127955084,32.97158918445391,-1.748896535818778,0.44586068094455733,-1.565653134312317,1.0,1.0
1200.0,3555.0,16.104616344807603,4.740528479793446,32.853950557520314,-1.7457249657102967,0.382500936280076,-1.6157507620614524,1.0,1.0
1200.0,3554.0,16.294535101692198,4.758587028697375,32.63617143974384,-1.7213680572289736,0.33108305580022623,-1.6446347245758908,1.0,1.0
1200.0,3553.0,16.471712386305857,4.7252575133661345,32.472581565396155,-1.6766332346971708,0.2950254140267763,-1.6542242200121926,1.0,1.0
1200.0,3552.0,16.651592740968013,4.694985771458221,32.30632709791692,-1.6117233826811574,0.2781375099035852,-1.6462385571537457,1.0,1.0
1200.0,3551.0,16.812712539529635,4.675799176165025,32.14270441455751,-1.5268652473670166,0.285115044535452,-1.6202838773858481,1.0,1.0
1200.0,3550.0,16.965831176289498,4.643785853610893,31.97966305066668,-1.422387252669818,0.31925749965528816,-1.5746612417254084,1.0,1.0
1200.0,3549.0,17.108066884994017,4.583992451180251,31.823945926281358,-1.2987211208385308,0.3822999117560091,-1.5085936267414972,1.0,1.0
1200.0,3548.0,17.233424488676715,4.542788960283502,31.669136399513942,-1.1563901441828772,0.4741554177437042,-1.4227092109715898,1.0,1.0
1200.0,3547.0,17.349031592387107,4.488808764459208,31.532960720298252,-0.9962054028390472,0.5927823227119848,-1.3187498267432662,1.0,1.0
1200.0,3546.0,17.451016421721185,4.44982204881839,31.380902990769105,-0.8191466529962153,0.735134656826526,-1.1978783536181847,1.0,1.0
1200.0,3545.0,17.537202423302144,4.408856634753704,31.22858814446063,-0.6259695743183382,0.8990644350843926,-1.0609709588421286,1.0,1.0
1200.0,3544.0,17.59585246615561,4.27230905424139,31.168919588460977,-0.4178145388079759,1.082208258817536,-0.9100698953991895,1.0,1.0
1200.0,3543.0,17.635216538048432,4.145796362621326,31.096185087966354,-0.19609443689491712,1.281893724471722,-0.7477372007071228,1.0,1.0
1200.0,3542.0,17.656802357793502,4.0177992385867185,31.021291107534054,0.036805076527210545,1.4949012092042313,-0.5761115445204226,1.0,1.0
1200.0,3541.0,17.654457273098625,3.8693752663450596,30.96303717176418,0.27796651688985285,1.7175726805543636,-0.39779121466492384,1.0,1.0
1200.0,3540.0,17.62108102647079,3.687888973381405,30.92385891863333,0.5237769803773222,1.9457301026229832,-0.21501705443835206,1.0,1.0
1200.0,3539.0,17.552380361199965,3.4990281721255485,30.901468700541056,0.7699853587345604,2.1743987550150052,-0.030642391116842305,1.0,1.0
1200.0,3538.0,17.474890132219457,3.2876377145191498,30.897430165607087,1.011091027859628,2.3970078509704162,0.150317031253973,1.0,1.0
1200.0,3537.0,17.37242028710392,3.0484606652133266,30.912992897238418,1.2399437773802315,2.6053871795200347,0.32138996717917045,1.0,1.0
1200.0,3536.0,17.248196138428085,2.7869197037883566,30.94853524325795,1.448435277544025,2.7917342918996173,0.47597491064770736,1.0,1.0
1200.0,3535.0,17.103490273620537,2.507732753485243,30.996592989317712,1.6293790049659957,2.950083128150654,0.608576114368045,1.0,1.0
1200.0,3534.0,16.939747874425194,2.201693806528624,31.068335475932603,1.7780847652082095,3.07805527716358,0.7163641236544258,1.0,1.0
1200.0,3533.0,16.759020923214393,1.8823357854062976,31.151950917069893,1.8928681576540942,3.177218617039429,0.7995980469888,1.0,1.0
1200.0,3532.0,16.576101518010518,1.5738348865345984,31.222684261300206,1.9749200830628162,3.2514477055726356,0.8624069528741085,1.0,1.0
1200.0,3531.0,16.382612707837495,1.2716385676749553,31.28593688467205,2.028377084077171,3.3066341494041573,0.9107683354373766,1.0,1.0
1200.0,3530.0,16.177449509586467,0.9448249523187258,31.37536545513802,2.059176498076841,3.349746178623228,0.9510609223905764,1.0,1.0
1200.0,3529.0,15.96753931917263,0.6091990539860319,31.473767730199565,2.0715289846027005,3.3847997806617087,0.9871351603370115,1.0,1.0
1200.0,3528.0,15.753248823189722,0.2650848378050341,31.572644008460486,2.0694764495529316,3.413802780373045,1.0237421885070574,1.0,1.0
1200.0,3527.0,15.545298728347234,18.037966564581666,-6.170372807935202,2.05559212810458,2.627855239290623,3.438285667398395,1.0,1.0
1200.0,3526.0,15.341172497253268,17.774605158346958,-5.826979172321898,2.0320688622550023,2.5328799197410383,3.4595684534707445,1.0,1.0
1200.0,3525.0,15.136445691925672,17.523971512546524,-5.481954943406973,1.9996046952219153,2.431388574672466,3.4790157335160927,1.0,1.0
1200.0,3524.0,14.936645879140542,17.281799979916656,-5.134243832554074,1.959156007699768,2.322601324633297,3.497591853256841,1.0,1.0
1200.0,3523.0,14.746737987586357,17.049951896775042,-4.785212703196939,1.9115035263149576,2.20692068622035,3.5161246543437326,1.0,1.0
1200.0,3522.0,14.559184546623953,16.82863597790464,-4.432910910147713,1.8588654485236642,2.0861815066456497,3.535500220552823,1.0,1.0
1200.0,3521.0,14.37283449455336,16.619091776344362,-4.078482605785052,1.8031887699106122,1.9645031810153135,3.5566218248490937,1.0,1.0
1200.0,3520.0,14.195084428898667,16.423631936194766,-3.723708062078767,1.746878923889291,1.847905416464954,3.580459974352392,1.0,1.0
1200.0,3519.0,14.02293334877487,16.23786842987826,-3.364775497290221,1.6934816462608815,1.7429966007868476,3.6079733951731843,1.0,1.0
1200.0,3518.0,13.850560122587325,16.05759862338593,-2.9999589003588394,1.6461606036821959,1.658013102032232,3.640294884786046,1.0,1.0
1069.0,2917.0,12.325432331884457,6.627861108939641,1.409472475824915,-1.0054212557598614,-0.7982500370677936,-0.8290419012664731,1.0,1.0
1069.0,2916.0,12.423173983119895,6.7052172698633825,1.3279286090918867,-0.9867186939924668,-0.7392937519641549,-0.820399372407433,1.0,1.0
1069.0,2915.0,12.517751393298653,6.774676620077713,1.2479019523487813,-0.9683990912764351,-0.6709719740196576,-0.7991430740003462,1.0,1.0
1069.0,2914.0,12.608689377772563,6.836822961698843,1.1707336451594612,-0.9490578221263632,-0.5929333294526415,-0.7658396121834574,1.0,1.0
1069.0,2913.0,12.694323999632886,6.89279057725706,1.0956369356325921,-0.9274014518741946,-0.505008032641717,-0.7205135640638165,1.0,1.0
1069.0,2912.0,12.781108215126338,6.942362978985813,1.0233919154870992,-0.9026897265647555,-0.40765218021240024,-0.6637692287790617,1.0,1.0
1069.0,2911.0,12.871529540615299,6.980823477201767,0.9587933973367386,-0.8743313925336249,-0.3017045077477789,-0.5965336710847033,1.0,1.0
1069.0,2910.0,12.957806850893832,7.014579310129292,0.895293486985377,-0.8415345976389688,-0.18807790193488927,-0.5196852941006878,1.0,1.0
1069.0,2909.0,13.040242035913593,7.033932988876316,0.8416097841362333,-0.8030412875751622,-0.06835547803302688,-0.4341781995885867,1.0,1.0
1069.0,2908.0,13.119779808684314,7.037750182073637,0.8013014795018143,-0.7587285617958486,0.055272901904697136,-0.34095496463412545,1.0,1.0
1069.0,2907.0,13.195184854944046,7.028934251316841,0.7708092121949033,-0.7111094940770162,0.1794219839993314,-0.24154802477101356,1.0,1.0
1069.0,2906.0,13.266328718644942,7.011164752620331,0.7470615801487672,-0.6637904345702612,0.29994057488132775,-0.13819114837481195,1.0,1.0
1069.0,2905.0,13.332993620420424,6.983505087287924,0.731029094213941,-0.6181670135315507,0.4145309264825787,-0.03215270544764692,1.0,1.0
1069.0,2904.0,13.394302839436364,6.938037173986544,0.7315625460005393,-0.5730774766981899,0.5222648547961679,0.07559237978898636,1.0,1.0
1069.0,2903.0,13.450324079013612,6.876252413132036,0.7485934433372607,-0.527035664952427,0.6234422512853648,0.1842122682695333,1.0,1.0
1069.0,2902.0,13.502658645837073,6.807746153134659,0.7733085630466503,-0.47953219278718073,0.7189110227631978,0.2932507713826489,1.0,1.0
1069.0,2901.0,13.550464943413758,6.734186218358872,0.8044150720105039,-0.4301959046320203,0.8101007711761561,0.4028646235195801,1.0,1.0
1069.0,2900.0,13.591878656764536,6.653292734693366,0.8445338129728319,-0.3790482168544198,0.8977706072445795,0.5126681473799977,1.0,1.0
1069.0,2899.0,13.629967176150117,6.5650120037166175,0.8945371904077364,-0.32632440704002263,0.9821045406500986,0.6217758037459173,1.0,1.0
1069.0,2898.0,13.666761934818936,6.466571279728186,0.9581330117472753,-0.2729759471767945,1.062570755561504,0.7286425587031964,1.0,1.0
1069.0,2897.0,13.698253137201334,6.361664052359146,1.0306191653239907,-0.2208882266853216,1.1375569048868925,0.8304481585057708,1.0,1.0
1069.0,2896.0,13.720857694717367,6.247966558706295,1.1142688240178864,-0.17059105530638252,1.2063806194303464,0.9248730109847667,1.0,1.0
1069.0,2895.0,13.737192922075636,6.128608236672505,1.2061508774602134,-0.12194934793699552,1.2689357714461735,1.010085242884733,1.0,1.0
1069.0,2894.0,13.747325115372433,6.005479206193655,1.3042390161681352,-0.07521244070454358,1.324739390589789,1.084705672220327,1.0,1.0
1069.0,2893.0,13.752070871890282,5.872679916924767,1.4131970595708547,-0.031015619831940455,1.3733452589402884,1.1482820067162312,1.0,1.0
1069.0,2892.0,13.75457277189463,5.7349236793455844,1.5276290505738181,0.009294884345457,1.4139446136771978,1.200990651392785,1.0,1.0
1069.0,2891.0,13.753883155991304,5.592409604398767,1.647679539682731,0.044928717266474294,1.446441288640365,1.2437337103722736,1.0,1.0
1069.0,2890.0,13.74839030340452,5.446185617042232,1.773590245493136,0.07676345297598086,1.472134549632412,1.2783747002797012,1.0,1.0
1069.0,2888.0,13.726897544545238,5.147382719904542,2.034613858902116,0.12873450361552674,1.5041716816445447,1.3262525858487866,1.0,1.0
1069.0,2887.0,13.71194328909715,4.995769262904503,2.1679879324645577,0.15097697149404077,1.5135582053141965,1.3435222302786114,1.0,1.0
2621.0,8212.0,25.14274010143717,5.948860557911701,10.986856658604934,-1.0234558377258098,0.42633290849122574,-2.673700587936179,1.0,1.0
2621.0,8211.0,25.242072652712068,5.908177343052444,10.716767263013177,-0.9537408513802896,0.37081204553239466,-2.8122913779165515,1.0,1.0
2621.0,8210.0,25.327354899680813,5.885903518672649,10.419262914423157,-0.8979104462578311,0.2928355854434992,-2.9581091295436046,1.0,1.0
2621.0,8209.0,25.410605167328413,5.883530902147925,10.095697876523055,-0.8562717877881765,0.19471544380651462,-3.104466838414642,1.0,1.0
2621.0,8208.0,25.491516316588985,5.898643878535125,9.749881652499408,-0.8305179137790253,0.07728972252275046,-3.24756501400799,1.0,1.0
2621.0,8207.0,25.574157860532665,5.88873300598911,9.426785144311225,-0.8222150911545194,-0.060157465078811256,-3.3869060048575026,1.0,1.0
2621.0,8206.0,25.65686887722515,5.889316952821531,9.09266399474373,-0.8307941203667735,-0.21795052603932863,-3.523056875209309,1.0,1.0
2621.0,8205.0,25.74059836724186,5.911833543129262,8.739249053830958,-0.85379852401132,-0.39629841219593587,-3.657451096114672,1.0,1.0
2621.0,8203.0,25.91469453985323,6.012467938242793,7.993101089458604,-0.9302651056520785,-0.8123637849003842,-3.920968469506491,1.0,1.0
2621.0,8202.0,26.007858559685417,6.093511216478674,7.6012698271070995,-0.9777785821674776,-1.0478757963248615,-4.0486362258452875,1.0,1.0
2621.0,8201.0,26.105372917140812,6.198313557401974,7.196459101676178,-1.0275054654248965,-1.2993164019032246,-4.171433154548119,1.0,1.0
2621.0,8200.0,26.207795905278005,6.328788012995261,6.77876829264323,-1.076206870091685,-1.5635988520810393,-4.286704056844138,1.0,1.0
2621.0,8199.0,26.315367233124846,6.48372942492864,6.35153194684748,-1.1197909172882419,-1.8361871200181383,-4.390565605947716,1.0,1.0
2621.0,8198.0,26.42715335407911,6.667276052953156,5.911841375243789,-1.1550316852174625,-2.1124141750926473,-4.479587893090371,1.0,1.0
2621.0,8197.0,26.542642593211326,6.877463086607179,5.46331341778207,-1.1796976744169072,-2.388116676147151,-4.5514103297818505,1.0,1.0
2621.0,8196.0,26.660839986337123,7.112472646625633,5.009002178949549,-1.1930468658444173,-2.660409590214459,-4.6055463036009145,1.0,1.0
2621.0,8195.0,26.780206411404436,7.386981719917088,4.537246607810342,-1.1959882381759357,-2.926808948096978,-4.642932958141158,1.0,1.0
2621.0,8194.0,26.897543392405083,7.688553870309761,4.063213795709764,-1.190458548374572,-3.1860923445076503,-4.665537248492383,1.0,1.0
2621.0,8193.0,27.021332765457032,7.998593738679801,3.6059242147089834,-1.1780160617130004,-3.437992579198732,-4.674824577022769,1.0,1.0
2621.0,8192.0,27.150147990722303,8.321986371278683,3.1593703011193495,-1.1599076394752483,-3.6824927016072744,-4.671769832764763,1.0,1.0
2621.0,8191.0,27.269161130747023,8.666376705091551,2.716465722424541,-1.1371899933643341,-3.9199027001073175,-4.657259698814086,1.0,1.0
2621.0,8190.0,27.3795548487696,9.055237248729895,2.2540846852581224,-1.1110507305425408,-4.149118121533389,-4.631941211529242,1.0,1.0
2621.0,8189.0,27.488281233152577,9.474058639177855,1.7870080638199233,-1.0828730007755354,-4.368394878258423,-4.59609029010036,1.0,1.0
2621.0,8188.0,27.59677949637299,9.908986586526424,1.3294570373566694,-1.0544524893275309,-4.576416669838702,-4.550119869646436,1.0,1.0
2621.0,8187.0,27.702780548076987,10.367294959218839,0.8739396739555771,-1.0277323774099187,-4.771536843426205,-4.493927626255941,1.0,1.0
2621.0,8186.0,27.805362592151184,10.84510495342029,0.42384272780074905,-1.005054349639284,-4.949509811014127,-4.4265680480199245,1.0,1.0
2621.0,8185.0,27.905414065371687,11.33916953143634,-0.01787681631586402,-0.987888902486123,-5.1054217658647705,-4.348386138076983,1.0,1.0
2621.0,8184.0,28.0037603727895,11.850379741908895,-0.4535248719364877,-0.9773715547681565,-5.235700597672603,-4.261385014537259,1.0,1.0
2621.0,8183.0,28.10145725580297,12.37378193413818,-0.8797364605511113,-0.9746708894457523,-5.337233252404319,-4.168039884306428,1.0,1.0
2621.0,8182.0,28.198425626911202,12.907440731552072,-1.2966468916012945,-0.9799213973556853,-5.40943746207888,-4.071195127880033,1.0,1.0
2048.0,6127.0,8.99451974506303,2.172424185378219,0.5084355474957531,-0.8135516219003591,-1.1856627765541443,-0.9454958218639486,1.0,1.0
2048.0,6126.0,9.064491784802357,2.2917777244430226,0.41324230253276717,-0.9173400422100038,-1.3731262021685815,-1.1069331401051326,1.0,1.0
2048.0,6125.0,9.147725383646474,2.442428584495758,0.2888478240255168,-1.019285121119097,-1.561082862568007,-1.2746470247311468,1.0,1.0
2048.0,6124.0,9.245510935585429,2.6115417173143385,0.14830359883702204,-1.116869155806043,-1.7449443651865675,-1.4447118742981182,1.0,1.0
2048.0,6123.0,9.356915073130466,2.7883034813477536,0.0017200103700059088,-1.2083556376232263,-1.9216948115460646,-1.6139469006137723,1.0,1.0
2048.0,6122.0,9.477717951177596,2.9789889852839053,-0.1581854159166456,-1.2931671946330514,-2.089634427692257,-1.7796369711154245,1.0,1.0
2048.0,6121.0,9.606999368988795,3.1884446551045755,-0.3368953989397445,-1.371788453432636,-2.2481225938654834,-1.9390104586982257,1.0,1.0
2048.0,6120.0,9.744427375428046,3.4133304064981758,-0.5306017782617749,-1.4432302855916035,-2.3947357233082407,-2.0887138971939514,1.0,1.0
2048.0,6119.0,9.888973907156753,3.653492698644186,-0.7378546278296056,-1.503894225931317,-2.5250278643016824,-2.223472972353477,1.0,1.0
2048.0,6118.0,10.039471895216138,3.908436732583141,-0.960975206506582,-1.5493552770984707,-2.634295680761671,-2.338113287283594,1.0,1.0
2048.0,6117.0,10.194204948675349,4.173250695639894,-1.1962054410639666,-1.5752368382637307,-2.718785335445732,-2.429261365581267,1.0,1.0
2048.0,6116.0,10.352037847646812,4.444192015260086,-1.437780158150903,-1.5778641387775085,-2.774386258761117,-2.4944160482343616,1.0,1.0
2048.0,6115.0,10.509471525631852,4.720744252164138,-1.683784687673465,-1.5554908933025597,-2.799162595709401,-2.5320523344474317,1.0,1.0
2048.0,6114.0,10.665364275777875,5.0045470303660125,-1.9408471123352422,-1.508042920122369,-2.794235335252468,-2.5420729399622157,1.0,1.0
2048.0,6113.0,10.823407617302792,5.273193402344106,-2.1840414995197914,-1.4372452588863052,-2.76359071324117,-2.526363996424706,1.0,1.0
2048.0,6112.0,10.974805744497758,5.540980453909128,-2.428271670824853,-1.3465137394937958,-2.7121401521319726,-2.4896595352814046,1.0,1.0
2048.0,6111.0,11.110599987824372,5.814428507680702,-2.679386834027884,-1.2384834134915135,-2.6436468730091356,-2.4369690089860168,1.0,1.0
2048.0,6110.0,11.233659309006413,6.07891204007683,-2.9231641641546373,-1.1159993479956043,-2.5619902782117503,-2.3728373847007482,1.0,1.0
2048.0,6109.0,11.346098607930656,6.334303760191574,-3.1593817400549664,-0.9819147644149382,-2.470905972117661,-2.301654952897488,1.0,1.0
2048.0,6108.0,11.443826439382178,6.580531325320294,-3.3887993111711365,-0.8394495718995749,-2.374651308755025,-2.228116903638803,1.0,1.0
2048.0,6107.0,11.528284973352868,6.817962040421293,-3.61238710816977,-0.6926187014729219,-2.2780009514197896,-2.157408896949317,1.0,1.0
2048.0,6106.0,11.59745369607242,7.051202676632698,-3.8310285866153215,-0.5468940119287495,-2.1870079152706854,-2.0960237133855237,1.0,1.0
2048.0,6105.0,11.6526047897936,7.248145105495809,-4.01358936533842,-0.4072614740821372,-2.1068221478635216,-2.0498854084599287,1.0,1.0
2048.0,6104.0,11.697157020051094,7.43560452434852,-4.195668959870327,-0.2763424243484973,-2.040132800453682,-2.0221690905702197,1.0,1.0
2048.0,6103.0,11.726908907382438,7.6336212314938905,-4.392788237155371,-0.15530341997433972,-1.988021077940445,-2.014382569323333,1.0,1.0
2048.0,6102.0,11.741448754640658,7.832465370435131,-4.594527195898738,-0.04269576950330034,-1.9490602387014349,-2.025220128728746,1.0,1.0
2048.0,6101.0,11.746948229378916,8.027414758501152,-4.796995701070727,0.06398632746597244,-1.9204748514457641,-2.0519869201748797,1.0,1.0
2048.0,6100.0,11.739114654319508,8.221665035239937,-5.004979274068109,0.16658398633686744,-1.9002953085466192,-2.0925964011438154,1.0,1.0
2048.0,6099.0,11.720160895812626,8.40451412545147,-5.206406814777569,0.26645606079217643,-1.886667671072793,-2.145165135851803,1.0,1.0
2048.0,6098.0,11.692092525575902,8.607232158682535,-5.435920293419371,0.36462000630704594,-1.8778507875807549,-2.2078357607894983,1.0,1.0
2048.0,6097.0,11.654883597645778,8.82524410548831,-5.691548434792649,0.46184202213899006,-1.87186091341502,-2.2786759109602723,1.0,1.0
2048.0,6096.0,11.607840712626995,9.022353187926257,-5.931448470522165,0.5588674653317689,-1.8664500422024073,-2.355148772734399,1.0,1.0
2048.0,6095.0,11.552074819446943,9.20996323612465,-6.168179903154587,0.6559941712585449,-1.8593298172499448,-2.4342519818212462,1.0,1.0
2048.0,6094.0,11.486387374720465,9.391094059980247,-6.410907863715252,0.7539379312453409,-1.8475295575058155,-2.5120909339953563,1.0,1.0
2048.0,6093.0,11.411269677798288,9.572913481280239,-6.662779051161157,0.8520139953053469,-1.8290244072530584,-2.585526262184903,1.0,1.0
2048.0,6092.0,11.325289778851413,9.754216374444496,-6.920400832331374,0.9462486062032269,-1.803800589736019,-2.6532340168863104,1.0,1.0
2048.0,6091.0,11.221784643854704,9.933045416293112,-7.184277634687469,1.0312627458939776,-1.7738001084016712,-2.7154346245862993,1.0,1.0
2048.0,6090.0,11.107574267557055,10.1119082272929,-7.457324534929412,1.1009520874905743,-1.7415325741386507,-2.7725664358114255,1.0,1.0
2048.0,6089.0,11.000383445883614,10.286130668411715,-7.734434665976538,1.151834099341368,-1.708581002966648,-2.823182005005698,1.0,1.0
2048.0,6088.0,10.884771363336853,10.456595744419445,-8.015957690618684,1.18325361268435,-1.6764315847657905,-2.8654472272412885,1.0,1.0
2048.0,6087.0,10.766600864505591,10.622473549675789,-8.301660967918057,1.1958837365922648,-1.6473222279037607,-2.8985488771070607,1.0,1.0
2048.0,6086.0,10.646757112993555,10.78446225572631,-8.58771371163418,1.1903983810201346,-1.6235940343296438,-2.924004977048712,1.0,1.0
2048.0,6085.0,10.530859830764143,10.942092525745181,-8.870320265452268,1.1683077705963338,-1.6065386397888037,-2.9442660876660796,1.0,1.0
2048.0,6084.0,10.421515390892182,11.105155132261984,-9.165165067755659,1.1309937121337263,-1.595748057877465,-2.96057233659133,1.0,1.0
2048.0,6083.0,10.310692673842055,11.265240960688772,-9.461283527619793,1.0803132600542096,-1.590772267156181,-2.9733966758694113,1.0,1.0
2048.0,6082.0,10.20173818696935,11.423506987294928,-9.756750245916677,1.0185876474603681,-1.590806551395728,-2.982534128161273,1.0,1.0
2048.0,6081.0,10.100207448249535,11.58359719215369,-10.055004533777321,0.9481541149439092,-1.5952247359838143,-2.9878008934924427,1.0,1.0
2048.0,6080.0,10.005082950407512,0.2952571908475079,-0.3253711311034744,0.8716317161019376,-2.9893032927558902,-3.5920948263953285,1.0,1.0
1976.0,6068.0,10.28971066661704,6.777931495150781,30.869278634012858,-1.815910898545079,0.8154342068718954,1.6764084676238138,1.0,1.0
1976.0,6067.0,10.472387289985193,6.695658091479757,31.036705498185647,-1.7181001582455302,0.7196324672000856,1.630100990118926,1.0,1.0
1976.0,6066.0,10.650283389347663,6.622252512155512,31.200189487979607,-1.6227930734024074,0.6252628850675954,1.5825008105251008,1.0,1.0
1976.0,6065.0,10.809268450271873,6.567144017779839,31.35094992334261,-1.5301090882265171,0.5330528559921941,1.5317898928429745,1.0,1.0
1976.0,6064.0,10.959058430657322,6.5240178204938815,31.49377504260277,-1.4417661867576275,0.4436937793742821,1.4756899607965988,1.0,1.0
1976.0,6063.0,11.103911813963819,6.479665227647473,31.641255234157015,-1.3588642545659297,0.358263599028831,1.4118472744755657,1.0,1.0
1976.0,6062.0,11.239542442938316,6.443279123741078,31.783055344771356,-1.2804064795793249,0.2789097626919812,1.33735736887267,1.0,1.0
1976.0,6061.0,11.367586122472332,6.415359484284224,31.9175221612826,-1.2040135283056337,0.20758738993645132,1.2501571784222811,1.0,1.0
1976.0,6060.0,11.488042778204644,6.394572884439,32.03803329968774,-1.1274798687995915,0.14499007745741466,1.1492931107718078,1.0,1.0
1976.0,6059.0,11.600857932492417,6.379974252557474,32.150720378116674,-1.048732066280909,0.09104268127027737,1.035407315347518,1.0,1.0
1976.0,6058.0,11.705650753362676,6.370942882894823,32.25402234976272,-0.9677335721994105,0.04482965007579409,0.9110849042505791,1.0,1.0
1976.0,6057.0,11.799927140661367,6.367758983002815,32.34491202674774,-0.8861801654490016,0.004383003757348902,0.7787774104877432,1.0,1.0
1976.0,6056.0,11.878236322265138,6.370522295133696,32.421049767536225,-0.8057411584313403,-0.03148374751102523,0.6418209699731765,1.0,1.0
1976.0,6055.0,11.962632267008388,6.363110803944764,32.49490749281158,-0.7282109254289857,-0.06357594274726885,0.503863843137978,1.0,1.0
1976.0,6054.0,12.036231695255736,6.365668235570041,32.54891673919442,-0.6559021048491243,-0.09252598871455398,0.3680269549072346,1.0,1.0
1976.0,6053.0,12.101430410660399,6.376231944426692,32.58449357214597,-0.5922558073695665,-0.11869035620714818,0.23631413437887083,1.0,1.0
1976.0,6052.0,12.160767871122815,6.387328263717478,32.60881135041586,-0.5400476414857138,-0.14207324027926482,0.10920005213686146,1.0,1.0
1976.0,6051.0,12.214227243731813,6.416991798565519,32.605191760462844,-0.501079289869736,-0.1628900490057532,-0.01509212397111348,1.0,1.0
1976.0,6050.0,12.26455185666832,6.435085403276531,32.6051872165541,-0.4755117131596158,-0.18123477218352768,-0.13916091129791042,1.0,1.0
1976.0,6049.0,12.312145249864372,6.454094393719373,32.59074982466147,-0.4616812061915745,-0.19704002390832365,-0.2644968425048688,1.0,1.0
1976.0,6048.0,12.357980321427448,6.472539907784849,32.564793887251895,-0.4567906206996106,-0.21008719626004257,-0.39222266951866125,1.0,1.0
1976.0,6047.0,12.404220059728829,6.4933376079466285,32.5248579384286,-0.45872747706034467,-0.22024297851907093,-0.5231087333263478,1.0,1.0
1976.0,6046.0,12.453738820696216,6.5059587897324604,32.481626928725134,-0.4656388994479901,-0.2274684214177185,-0.6573723011110069,1.0,1.0
1976.0,6045.0,12.500910899427154,6.527536010939087,32.41705874621129,-0.4756990274662183,-0.2314829404814418,-0.7946565836775488,1.0,1.0
1976.0,6044.0,12.548055214001494,6.5514617378575934,32.33792636592329,-0.4868682268500155,-0.23179420826465602,-0.9340409122112376,1.0,1.0
1976.0,6043.0,12.597021553894834,6.575905652804181,32.24473599244246,-0.4974245987574424,-0.22797446130344312,-1.0744221370713607,1.0,1.0
1976.0,6042.0,12.64678748174832,6.598200399761822,32.13797340693841,-0.5057763473659254,-0.21940897801373005,-1.2143589124343883,1.0,1.0
1976.0,6041.0,12.697306540750432,6.621423049033098,32.01947446944743,-0.5100903335387041,-0.20490747063979597,-1.3516334608577072,1.0,1.0
1976.0,6040.0,12.748047967984192,6.640707636691204,31.885269354157078,-0.5079014969769027,-0.18249463102497643,-1.4827505508242673,1.0,1.0
1976.0,6039.0,12.800353958386822,6.658468999327042,31.73681763519635,-0.49770722954098545,-0.15112510517408495,-1.604514574351711,1.0,1.0
1976.0,6038.0,12.86092052377694,6.672188647874336,31.576437033407924,-0.4784684586870842,-0.11043335115110331,-1.713855976650997,1.0,1.0
1976.0,6037.0,12.914226286773498,6.684068826916189,31.404796845840032,-0.45001106825665715,-0.061233589464137594,-1.8075661448419265,1.0,1.0
1976.0,6036.0,12.950306074513975,6.711508572697582,31.202337613559735,-0.41402830137491975,-0.006728057757873884,-1.8849638269638032,1.0,1.0
1976.0,6035.0,12.990032793737242,6.712418244999583,31.013468925336035,-0.3727908055145477,0.049162313794226975,-1.9462250910857435,1.0,1.0
1976.0,6034.0,13.02761923180671,6.707003236715792,30.819373779112528,-0.32859656946034477,0.10225198275212222,-1.9917746068187387,1.0,1.0
1976.0,6033.0,13.060614639004271,6.696618023988918,30.62034862159099,-0.2835966726242791,0.14842429583027084,-2.022683201529885,1.0,1.0
1976.0,6032.0,13.08833934950394,6.6819127126148175,30.418063487131246,-0.23939405592613738,0.1835927038194356,-2.039736984445927,1.0,1.0
1976.0,6031.0,13.112618373661292,6.663690233725859,30.21343879156712,-0.19577599606830987,0.2060915288133085,-2.042800435199073,1.0,1.0
1976.0,6030.0,13.132157386701579,6.642820833253396,30.006963665491927,-0.15158898717566238,0.21662225576032412,-2.031636680486802,1.0,1.0
1976.0,6029.0,13.14804533642969,6.624142790754277,29.804821758716205,-0.10687615208971657,0.21584099064344642,-2.007070691116118,1.0,1.0
