sensitivity,specificity,precision,accuracy,prevalence,f1_score,roc_auc
0.6190476190476191,0.84,0.7647058823529411,0.7391304347826086,0.45652173913043476,0.6842105263157895,0.6915450804339695
0.6590909090909091,0.8125,0.7631578947368421,0.7391304347826086,0.4782608695652174,0.7073170731707317,0.6925963027891402
0.5833333333333334,0.8636363636363636,0.8235294117647058,0.717391304347826,0.5217391304347826,0.6829268292682927,0.694421062476618
0.5111111111111111,0.8297872340425532,0.7419354838709677,0.6739130434782609,0.4891304347826087,0.6052631578947368,0.6459068802503146
0.5098039215686274,0.8048780487804879,0.7647058823529411,0.6413043478260869,0.5543478260869565,0.6117647058823529,0.5444952595873571
0.5714285714285714,0.8947368421052632,0.7692307692307693,0.7717391304347826,0.3804347826086957,0.6557377049180327,0.6909856137128865
0.5102040816326531,0.8604651162790697,0.8064516129032258,0.6739130434782609,0.532608695652174,0.625,0.684618465282246
0.4634146341463415,0.7843137254901961,0.6333333333333333,0.6413043478260869,0.44565217391304346,0.5352112676056339,0.6055529425817675
0.5098039215686274,0.8536585365853658,0.8125,0.6630434782608695,0.5543478260869565,0.6265060240963856,0.6229684445964897
0.5,0.8409090909090909,0.7741935483870968,0.6630434782608695,0.5217391304347826,0.6075949367088608,0.577536553809702
