note,sensitivity,specificity,precision,accuracy,prevalence,f1_score,roc_auc
mean,0.5684210526315789,0.8218421052631578,0.7651046855263358,0.6951315789473685,0.5,0.6506701864448607,0.7083984509789931
std,0.04425657711486957,0.05732099352036453,0.05834728228991274,0.034790155710853116,0.0,0.03892353398401726,0.030349211478658614
