note,sensitivity,specificity,precision,accuracy,prevalence,f1_score,roc_auc
mean,0.5263157894736841,0.3073684210526315,0.4480995163548392,0.416842105263158,0.5,0.47945481149009256,0.4070047949299747
std,0.15570877401792146,0.25107508283683333,0.17206029117011484,0.1870918428913668,0.0,0.15453087320158687,0.14741734704711537
