note,sensitivity,specificity,precision,accuracy,prevalence,f1_score,roc_auc
mean,0.7354699408935546,0.5488419012979011,0.6190850527467331,0.6396739130434783,0.5,0.6594802839813925,0.7303295089226376
std,0.1921235355645267,0.12862598318358562,0.06577466540260479,0.05879631164459344,0.052799644030339606,0.08744940754878891,0.0848133502397927
