sensitivity,specificity,precision,accuracy,prevalence,f1_score,roc_auc
0.5964912280701754,0.7142857142857143,0.7727272727272727,0.6413043478260869,0.6195652173913043,0.6732673267326733,0.7739485050755651
1.0,0.3404255319148936,0.5921052631578947,0.6630434782608695,0.4891304347826087,0.743801652892562,0.84688523846773
0.9523809523809523,0.34,0.547945205479452,0.6195652173913043,0.45652173913043476,0.6956521739130435,0.7590564130968172
0.65,0.5961538461538461,0.5531914893617021,0.6195652173913043,0.43478260869565216,0.5977011494252874,0.6595176512600756
0.9259259259259259,0.5,0.7246376811594203,0.75,0.5869565217391305,0.8130081300813008,0.7835626498177939
0.6842105263157895,0.5740740740740741,0.5306122448979592,0.6195652173913043,0.41304347826086957,0.5977011494252874,0.7347477969487538
0.975,0.4230769230769231,0.5652173913043478,0.6630434782608695,0.43478260869565216,0.7155963302752294,0.8128520048974593
0.5909090909090909,0.5416666666666666,0.5416666666666666,0.5652173913043478,0.4782608695652174,0.5652173913043478,0.5784463088182096
0.9803921568627451,0.4878048780487805,0.704225352112676,0.7608695652173914,0.5543478260869565,0.8196721311475409,0.8734766960554246
0.9795918367346939,0.4883720930232558,0.6857142857142857,0.75,0.532608695652174,0.8067226890756303,0.8740080666487593
0.72,0.5476190476190477,0.6545454545454545,0.6413043478260869,0.5434782608695652,0.6857142857142857,0.703297622691562
0.6923076923076923,0.675,0.7346938775510204,0.6847826086956522,0.5652173913043478,0.7128712871287128,0.760252420605956
0.5238095238095238,0.62,0.5365853658536586,0.5760869565217391,0.45652173913043476,0.5301204819277109,0.6179252845919513
0.9565217391304348,0.32608695652173914,0.5866666666666667,0.6413043478260869,0.5,0.7272727272727273,0.8149057549584556
1.0,0.4878048780487805,0.7083333333333334,0.7717391304347826,0.5543478260869565,0.8292682926829268,0.8792500165049184
0.9777777777777777,0.46808510638297873,0.6376811594202898,0.717391304347826,0.4891304347826087,0.7719298245614036,0.8581607318981055
0.9722222222222222,0.4107142857142857,0.5147058823529411,0.6304347826086957,0.391304347826087,0.6730769230769229,0.7707698005116635
0.5434782608695652,0.6521739130434783,0.6097560975609756,0.5978260869565217,0.5,0.5747126436781609,0.6486483189381741
0.9555555555555556,0.44680851063829785,0.6231884057971014,0.6956521739130435,0.4891304347826087,0.7543859649122807,0.8472956274303075
0.5531914893617021,0.5555555555555556,0.5652173913043478,0.5543478260869565,0.5108695652173914,0.5591397849462365,0.6302874001133189
0.5416666666666666,0.7045454545454546,0.6666666666666666,0.6195652173913043,0.5217391304347826,0.5977011494252873,0.693435122833271
0.5,0.5384615384615384,0.45454545454545453,0.5217391304347826,0.43478260869565216,0.47619047619047616,0.614318691970207
0.6976744186046512,0.6530612244897959,0.6382978723404256,0.6739130434782609,0.4673913043478261,0.6666666666666666,0.7059009166126854
0.4864864864864865,0.5454545454545454,0.4186046511627907,0.5217391304347826,0.40217391304347827,0.45,0.5664401775512887
0.6458333333333334,0.6818181818181818,0.6888888888888889,0.6630434782608695,0.5217391304347826,0.6666666666666667,0.7225144968200523
0.5849056603773585,0.5641025641025641,0.6458333333333334,0.5760869565217391,0.5760869565217391,0.6138613861386139,0.5600275674603862
0.68,0.6428571428571429,0.6938775510204082,0.6630434782608695,0.5434782608695652,0.686868686868687,0.7335603509845935
0.6382978723404256,0.7333333333333333,0.7142857142857143,0.6847826086956522,0.5108695652173914,0.6741573033707866,0.7567473575210518
1.0,0.38095238095238093,0.6578947368421053,0.717391304347826,0.5434782608695652,0.7936507936507937,0.8771411080501988
0.5454545454545454,0.6458333333333334,0.5853658536585366,0.5978260869565217,0.4782608695652174,0.5647058823529411,0.6497377354815371
0.9767441860465116,0.4897959183673469,0.6268656716417911,0.717391304347826,0.4673913043478261,0.7636363636363637,0.846101370766628
0.5714285714285714,0.627906976744186,0.6363636363636364,0.5978260869565217,0.532608695652174,0.6021505376344085,0.6870886422112973
1.0,0.1875,0.5301204819277109,0.5760869565217391,0.4782608695652174,0.6929133858267718,0.8223975290090993
1.0,0.32558139534883723,0.6282051282051282,0.6847826086956522,0.532608695652174,0.7716535433070866,0.8552313487378422
0.975609756097561,0.45098039215686275,0.5882352941176471,0.6847826086956522,0.44565217391304346,0.7339449541284403,0.8115485975796396
0.62,0.6904761904761905,0.7045454545454546,0.6521739130434783,0.5434782608695652,0.6595744680851063,0.7387940006121824
0.6122448979591837,0.6744186046511628,0.6818181818181818,0.6413043478260869,0.532608695652174,0.6451612903225806,0.7522903049598576
0.9583333333333334,0.3181818181818182,0.6052631578947368,0.6521739130434783,0.5217391304347826,0.7419354838709677,0.7789897431101133
0.98,0.5,0.7,0.7608695652173914,0.5434782608695652,0.8166666666666667,0.8392880318334863
0.6216216216216216,0.6545454545454545,0.5476190476190477,0.6413043478260869,0.40217391304347827,0.5822784810126581,0.7038098704765372
0.975609756097561,0.3333333333333333,0.5405405405405406,0.6195652173913043,0.44565217391304346,0.6956521739130435,0.7840414492299191
0.98,0.5,0.7,0.7608695652173914,0.5434782608695652,0.8166666666666667,0.8390647893072135
0.5777777777777777,0.723404255319149,0.6666666666666666,0.6521739130434783,0.4891304347826087,0.619047619047619,0.7042356222154201
0.972972972972973,0.45454545454545453,0.5454545454545454,0.6630434782608695,0.40217391304347827,0.6990291262135921,0.891100191100191
0.6590909090909091,0.6666666666666666,0.6444444444444445,0.6630434782608695,0.4782608695652174,0.651685393258427,0.7258083590728219
0.46938775510204084,0.6976744186046512,0.6388888888888888,0.5760869565217391,0.532608695652174,0.5411764705882353,0.6129424527692926
0.5961538461538461,0.475,0.5961538461538461,0.5434782608695652,0.5652173913043478,0.5961538461538461,0.6344240776058958
1.0,0.4791666666666667,0.6376811594202898,0.7282608695652174,0.4782608695652174,0.7787610619469026,0.8253053955533295
1.0,0.4,0.6351351351351351,0.7065217391304348,0.5108695652173914,0.7768595041322314,0.8075142137037689
0.9215686274509803,0.36585365853658536,0.6438356164383562,0.6739130434782609,0.5543478260869565,0.7580645161290323,0.7661441442883313
0.975609756097561,0.49019607843137253,0.6060606060606061,0.7065217391304348,0.44565217391304346,0.7476635514018692,0.8514953675707556
0.625,0.5454545454545454,0.6,0.5869565217391305,0.5217391304347826,0.6122448979591836,0.6823442760942761
0.6363636363636364,0.5416666666666666,0.56,0.5869565217391305,0.4782608695652174,0.5957446808510639,0.6704754153101259
0.5283018867924528,0.6410256410256411,0.6666666666666666,0.5760869565217391,0.5760869565217391,0.5894736842105263,0.6249564445676509
0.6341463414634146,0.5490196078431373,0.5306122448979592,0.5869565217391305,0.44565217391304346,0.5777777777777778,0.7063204103115411
0.5952380952380952,0.56,0.5319148936170213,0.5760869565217391,0.45652173913043476,0.5617977528089887,0.7138945977329817
0.5961538461538461,0.675,0.7045454545454546,0.6304347826086957,0.5652173913043478,0.6458333333333334,0.6991783936228381
0.6590909090909091,0.6875,0.6590909090909091,0.6739130434782609,0.4782608695652174,0.6590909090909091,0.7199821910565711
0.6136363636363636,0.5625,0.5625,0.5869565217391305,0.4782608695652174,0.5869565217391304,0.6492559896485516
0.6274509803921569,0.6829268292682927,0.7111111111111111,0.6521739130434783,0.5543478260869565,0.6666666666666666,0.673107586060646
0.4603174603174603,0.6896551724137931,0.7631578947368421,0.532608695652174,0.6847826086956522,0.5742574257425742,0.6079945950877488
0.975609756097561,0.3333333333333333,0.5405405405405406,0.6195652173913043,0.44565217391304346,0.6956521739130435,0.8494516487864603
0.574468085106383,0.5555555555555556,0.574468085106383,0.5652173913043478,0.5108695652173914,0.574468085106383,0.6287006102286565
0.625,0.6346153846153846,0.5681818181818182,0.6304347826086957,0.43478260869565216,0.5952380952380952,0.6970576981940618
0.6382978723404256,0.6666666666666666,0.6666666666666666,0.6521739130434783,0.5108695652173914,0.6521739130434782,0.6874098821874451
0.6170212765957447,0.6888888888888889,0.6744186046511628,0.6521739130434783,0.5108695652173914,0.6444444444444444,0.7142208676057805
0.5,0.625,0.55,0.5652173913043478,0.4782608695652174,0.5238095238095238,0.6387288866627711
0.45652173913043476,0.6086956521739131,0.5384615384615384,0.532608695652174,0.5,0.49411764705882355,0.6076176787639238
0.7111111111111111,0.5531914893617021,0.6037735849056604,0.6304347826086957,0.4891304347826087,0.6530612244897959,0.6790395537870285
0.7,0.6730769230769231,0.6222222222222222,0.6847826086956522,0.43478260869565216,0.6588235294117647,0.7379017447199264
0.5652173913043478,0.6739130434782609,0.6341463414634146,0.6195652173913043,0.5,0.5977011494252873,0.6809091500571518
0.9574468085106383,0.4444444444444444,0.6428571428571429,0.7065217391304348,0.5108695652173914,0.7692307692307693,0.7846159857765274
0.5957446808510638,0.6444444444444445,0.6363636363636364,0.6195652173913043,0.5108695652173914,0.6153846153846154,0.6552957036516032
0.5945945945945946,0.6545454545454545,0.5365853658536586,0.6304347826086957,0.40217391304347827,0.5641025641025641,0.7159897271008382
0.625,0.5,0.5769230769230769,0.5652173913043478,0.5217391304347826,0.6,0.6368215332335702
0.62,0.5952380952380952,0.6458333333333334,0.6086956521739131,0.5434782608695652,0.6326530612244898,0.6877643097643097
0.58,0.6190476190476191,0.6444444444444445,0.5978260869565217,0.5434782608695652,0.6105263157894737,0.6406336088154271
0.6521739130434783,0.6304347826086957,0.6382978723404256,0.6413043478260869,0.5,0.6451612903225806,0.7225955943566836
0.5116279069767442,0.7346938775510204,0.6285714285714286,0.6304347826086957,0.4673913043478261,0.5641025641025641,0.6529625595869429
0.9565217391304348,0.34782608695652173,0.5945945945945946,0.6521739130434783,0.5,0.7333333333333334,0.7614259266652765
0.5681818181818182,0.7291666666666666,0.6578947368421053,0.6521739130434783,0.4782608695652174,0.6097560975609756,0.7350867490330301
0.9791666666666666,0.5,0.6811594202898551,0.75,0.5217391304347826,0.8034188034188035,0.8530326412270856
0.9545454545454546,0.375,0.5833333333333334,0.6521739130434783,0.4782608695652174,0.7241379310344828,0.8415989555796717
0.5098039215686274,0.5853658536585366,0.6046511627906976,0.5434782608695652,0.5543478260869565,0.553191489361702,0.6151413121110091
1.0,0.34615384615384615,0.5405405405405406,0.6304347826086957,0.43478260869565216,0.7017543859649124,0.8133652178349148
0.6078431372549019,0.6829268292682927,0.7045454545454546,0.6413043478260869,0.5543478260869565,0.6526315789473683,0.6629395559876843
1.0,0.3137254901960784,0.5394736842105263,0.6195652173913043,0.44565217391304346,0.7008547008547009,0.8361740091230113
0.6458333333333334,0.5909090909090909,0.6326530612244898,0.6195652173913043,0.5217391304347826,0.6391752577319587,0.6748550317994761
1.0,0.4634146341463415,0.6986301369863014,0.7608695652173914,0.5543478260869565,0.8225806451612903,0.82275618134204
0.5952380952380952,0.66,0.5952380952380952,0.6304347826086957,0.45652173913043476,0.5952380952380952,0.6491696668464346
0.6363636363636364,0.625,0.6086956521739131,0.6304347826086957,0.4782608695652174,0.6222222222222223,0.6885313186966079
1.0,0.4,0.5285714285714286,0.6413043478260869,0.40217391304347827,0.691588785046729,0.782883893995005
0.625,0.6923076923076923,0.6097560975609756,0.6630434782608695,0.43478260869565216,0.6172839506172839,0.7000488895690916
0.9069767441860465,0.3877551020408163,0.5652173913043478,0.6304347826086957,0.4673913043478261,0.6964285714285715,0.8006124197103761
0.52,0.7142857142857143,0.6842105263157895,0.6086956521739131,0.5434782608695652,0.5909090909090909,0.656990103050709
0.9814814814814815,0.34210526315789475,0.6794871794871795,0.717391304347826,0.5869565217391305,0.803030303030303,0.7995241100366428
0.5531914893617021,0.6,0.5909090909090909,0.5760869565217391,0.5108695652173914,0.5714285714285714,0.6379575900852497
0.4528301886792453,0.717948717948718,0.6857142857142857,0.5652173913043478,0.5760869565217391,0.5454545454545454,0.6162851114537792
0.9795918367346939,0.3953488372093023,0.6486486486486487,0.7065217391304348,0.532608695652174,0.7804878048780487,0.8285025059916834
0.6046511627906976,0.6530612244897959,0.6046511627906976,0.6304347826086957,0.4673913043478261,0.6046511627906976,0.7061097230230423
