note,sensitivity,specificity,precision,accuracy,prevalence,f1_score,roc_auc
mean,0.9749730583290226,0.6067261568197024,0.7076780680968595,0.7891304347826087,0.49347826086956514,0.8188121664598661,0.8766422755240054
std,0.02108104268487238,0.0777110296783145,0.05674063253257888,0.03975613543288466,0.05499613322031964,0.038015274541887106,0.026361808328493164
