sensitivity,specificity,precision,accuracy,prevalence,f1_score,roc_auc
1.0,0.52,0.6363636363636364,0.7391304347826086,0.45652173913043476,0.7777777777777778,0.8593231497271901
1.0,0.6041666666666666,0.6984126984126984,0.7934782608695652,0.4782608695652174,0.822429906542056,0.870912986615466
0.9583333333333334,0.7045454545454546,0.7796610169491526,0.8369565217391305,0.5217391304347826,0.8598130841121496,0.8869809203142535
0.9777777777777777,0.48936170212765956,0.6470588235294118,0.7282608695652174,0.4891304347826087,0.7787610619469026,0.883469940708998
1.0,0.5853658536585366,0.75,0.8152173913043478,0.5543478260869565,0.8571428571428571,0.8583227801884962
0.9428571428571428,0.7192982456140351,0.673469387755102,0.8043478260869565,0.3804347826086957,0.7857142857142857,0.9090209453845819
0.9795918367346939,0.627906976744186,0.75,0.8152173913043478,0.532608695652174,0.8495575221238937,0.9143173645338147
0.9512195121951219,0.5882352941176471,0.65,0.75,0.44565217391304346,0.7722772277227723,0.8230195525095746
0.9607843137254902,0.6829268292682927,0.7903225806451613,0.8369565217391305,0.5543478260869565,0.8672566371681416,0.8750850753524549
0.9791666666666666,0.5454545454545454,0.7014925373134329,0.7717391304347826,0.5217391304347826,0.8173913043478261,0.8859700399052249
