sensitivity,specificity,precision,accuracy,prevalence,f1_score,roc_auc
0.8809523809523809,0.68,0.6981132075471698,0.7717391304347826,0.45652173913043476,0.7789473684210525,0.8696136448661701
0.9090909090909091,0.75,0.7692307692307693,0.8260869565217391,0.4782608695652174,0.8333333333333333,0.881407045663244
0.9166666666666666,0.7954545454545454,0.8301886792452831,0.8586956521739131,0.5217391304347826,0.8712871287128713,0.9057394937024567
0.9111111111111111,0.7446808510638298,0.7735849056603774,0.8260869565217391,0.4891304347826087,0.8367346938775511,0.9102536778182121
0.8431372549019608,0.7317073170731707,0.7962962962962963,0.7934782608695652,0.5543478260869565,0.8190476190476189,0.8674161566813577
0.8285714285714286,0.8596491228070176,0.7837837837837838,0.8478260869565217,0.3804347826086957,0.8055555555555555,0.9244960426778609
0.8775510204081632,0.7674418604651163,0.8113207547169812,0.8260869565217391,0.532608695652174,0.8431372549019608,0.8851862957202062
0.8780487804878049,0.7843137254901961,0.7659574468085106,0.8260869565217391,0.44565217391304346,0.8181818181818182,0.8701053401718589
0.8823529411764706,0.8292682926829268,0.8653846153846154,0.8586956521739131,0.5543478260869565,0.8737864077669903,0.9120968048478447
0.8333333333333334,0.7954545454545454,0.8163265306122449,0.8152173913043478,0.5217391304347826,0.8247422680412372,0.8893916011971568
