note,sensitivity,specificity,precision,accuracy,prevalence,f1_score,roc_auc
mean,0.8727629251996438,0.7131532486315381,0.7459220013059481,0.7913043478260869,0.49347826086956514,0.8029091290313574,0.8586134208680981
std,0.0566167233354532,0.0508966354241109,0.05647281790152607,0.03793116616899247,0.05499613322031964,0.04295932131529232,0.035071058645391645
