%!PS-Adobe-3.0 EPSF-3.0
%%Title: ./Model_fit_results/benchmark_metrics_orig.eps
%%Creator: matplotlib version 3.0.3, http://matplotlib.org/
%%CreationDate: Fri Nov 12 16:06:11 2021
%%Orientation: portrait
%%BoundingBox: 75 223 536 568
%%EndComments
%%BeginProlog
/mpldict 8 dict def
mpldict begin
/m { moveto } bind def
/l { lineto } bind def
/r { rlineto } bind def
/c { curveto } bind def
/cl { closepath } bind def
/box {
m
1 index 0 r
0 exch r
neg 0 r
cl
} bind def
/clipbox {
box
clip
newpath
} bind def
%!PS-Adobe-3.0 Resource-Font
%%Title: DejaVu Sans
%%Copyright: Copyright (c) 2003 by Bitstream, Inc. All Rights Reserved. Copyright (c) 2006 by Tavmjong Bah. All Rights Reserved. DejaVu changes are in public domain 
%%Creator: Converted from TrueType to type 3 by PPR
25 dict begin
/_d{bind def}bind def
/_m{moveto}_d
/_l{lineto}_d
/_cl{closepath eofill}_d
/_c{curveto}_d
/_sc{7 -1 roll{setcachedevice}{pop pop pop pop pop pop}ifelse}_d
/_e{exec}_d
/FontName /DejaVuSans def
/PaintType 0 def
/FontMatrix[.001 0 0 .001 0 0]def
/FontBBox[-1021 -463 1793 1232]def
/FontType 3 def
/Encoding [ /hyphen /period /zero /one /two /four /six /eight /A /C /F /G /L /M /N /P /R /T /a /c /e /o /r /s /t /x ] def
/FontInfo 10 dict dup begin
/FamilyName (DejaVu Sans) def
/FullName (DejaVu Sans) def
/Notice (Copyright (c) 2003 by Bitstream, Inc. All Rights Reserved. Copyright (c) 2006 by Tavmjong Bah. All Rights Reserved. DejaVu changes are in public domain ) def
/Weight (Book) def
/Version (Version 2.35) def
/ItalicAngle 0.0 def
/isFixedPitch false def
/UnderlinePosition -130 def
/UnderlineThickness 90 def
end readonly def
/CharStrings 27 dict dup begin
/.notdef 0 def
/hyphen{361 0 49 234 312 314 _sc
49 314 _m
312 314 _l
312 234 _l
49 234 _l
49 314 _l
_cl}_d
/period{318 0 107 0 210 124 _sc
107 124 _m
210 124 _l
210 0 _l
107 0 _l
107 124 _l
_cl}_d
/zero{636 0 66 -13 570 742 _sc
318 664 _m
267 664 229 639 203 589 _c
177 539 165 464 165 364 _c
165 264 177 189 203 139 _c
229 89 267 64 318 64 _c
369 64 407 89 433 139 _c
458 189 471 264 471 364 _c
471 464 458 539 433 589 _c
407 639 369 664 318 664 _c
318 742 _m
399 742 461 709 505 645 _c
548 580 570 486 570 364 _c
570 241 548 147 505 83 _c
461 19 399 -13 318 -13 _c
236 -13 173 19 130 83 _c
87 147 66 241 66 364 _c
66 486 87 580 130 645 _c
173 709 236 742 318 742 _c
_cl}_d
/one{636 0 110 0 544 729 _sc
124 83 _m
285 83 _l
285 639 _l
110 604 _l
110 694 _l
284 729 _l
383 729 _l
383 83 _l
544 83 _l
544 0 _l
124 0 _l
124 83 _l
_cl}_d
/two{{636 0 73 0 536 742 _sc
192 83 _m
536 83 _l
536 0 _l
73 0 _l
73 83 _l
110 121 161 173 226 239 _c
290 304 331 346 348 365 _c
380 400 402 430 414 455 _c
426 479 433 504 433 528 _c
433 566 419 598 392 622 _c
365 646 330 659 286 659 _c
255 659 222 653 188 643 _c
154 632 117 616 78 594 _c
78 694 _l
118 710 155 722 189 730 _c
223 738 255 742 284 742 _c
}_e{359 742 419 723 464 685 _c
509 647 532 597 532 534 _c
532 504 526 475 515 449 _c
504 422 484 390 454 354 _c
446 344 420 317 376 272 _c
332 227 271 164 192 83 _c
_cl}_e}_d
/four{636 0 49 0 580 729 _sc
378 643 _m
129 254 _l
378 254 _l
378 643 _l
352 729 _m
476 729 _l
476 254 _l
580 254 _l
580 172 _l
476 172 _l
476 0 _l
378 0 _l
378 172 _l
49 172 _l
49 267 _l
352 729 _l
_cl}_d
/six{{636 0 70 -13 573 742 _sc
330 404 _m
286 404 251 388 225 358 _c
199 328 186 286 186 234 _c
186 181 199 139 225 109 _c
251 79 286 64 330 64 _c
374 64 409 79 435 109 _c
461 139 474 181 474 234 _c
474 286 461 328 435 358 _c
409 388 374 404 330 404 _c
526 713 _m
526 623 _l
501 635 476 644 451 650 _c
425 656 400 659 376 659 _c
310 659 260 637 226 593 _c
}_e{192 549 172 482 168 394 _c
187 422 211 444 240 459 _c
269 474 301 482 336 482 _c
409 482 467 459 509 415 _c
551 371 573 310 573 234 _c
573 159 550 99 506 54 _c
462 9 403 -13 330 -13 _c
246 -13 181 19 137 83 _c
92 147 70 241 70 364 _c
70 479 97 571 152 639 _c
206 707 280 742 372 742 _c
396 742 421 739 447 735 _c
472 730 498 723 526 713 _c
_cl}_e}_d
/eight{{636 0 68 -13 568 742 _sc
318 346 _m
271 346 234 333 207 308 _c
180 283 167 249 167 205 _c
167 161 180 126 207 101 _c
234 76 271 64 318 64 _c
364 64 401 76 428 102 _c
455 127 469 161 469 205 _c
469 249 455 283 429 308 _c
402 333 365 346 318 346 _c
219 388 _m
177 398 144 418 120 447 _c
96 476 85 511 85 553 _c
85 611 105 657 147 691 _c
188 725 245 742 318 742 _c
}_e{390 742 447 725 489 691 _c
530 657 551 611 551 553 _c
551 511 539 476 515 447 _c
491 418 459 398 417 388 _c
464 377 501 355 528 323 _c
554 291 568 251 568 205 _c
568 134 546 80 503 43 _c
459 5 398 -13 318 -13 _c
237 -13 175 5 132 43 _c
89 80 68 134 68 205 _c
68 251 81 291 108 323 _c
134 355 171 377 219 388 _c
183 544 _m
183 506 194 476 218 455 _c
}_e{242 434 275 424 318 424 _c
360 424 393 434 417 455 _c
441 476 453 506 453 544 _c
453 582 441 611 417 632 _c
393 653 360 664 318 664 _c
275 664 242 653 218 632 _c
194 611 183 582 183 544 _c
_cl}_e}_d
/A{684 0 8 0 676 729 _sc
342 632 _m
208 269 _l
476 269 _l
342 632 _l
286 729 _m
398 729 _l
676 0 _l
573 0 _l
507 187 _l
178 187 _l
112 0 _l
8 0 _l
286 729 _l
_cl}_d
/C{{698 0 56 -13 644 742 _sc
644 673 _m
644 569 _l
610 599 575 622 537 638 _c
499 653 460 661 418 661 _c
334 661 270 635 226 584 _c
182 533 160 460 160 364 _c
160 268 182 194 226 143 _c
270 92 334 67 418 67 _c
460 67 499 74 537 90 _c
575 105 610 128 644 159 _c
644 56 _l
609 32 572 15 534 4 _c
496 -7 455 -13 412 -13 _c
302 -13 215 20 151 87 _c
}_e{87 154 56 246 56 364 _c
56 481 87 573 151 641 _c
215 708 302 742 412 742 _c
456 742 497 736 535 725 _c
573 713 610 696 644 673 _c
_cl}_e}_d
/F{575 0 98 0 517 729 _sc
98 729 _m
517 729 _l
517 646 _l
197 646 _l
197 431 _l
486 431 _l
486 348 _l
197 348 _l
197 0 _l
98 0 _l
98 729 _l
_cl}_d
/G{{775 0 56 -13 693 742 _sc
595 104 _m
595 300 _l
434 300 _l
434 381 _l
693 381 _l
693 68 _l
655 40 613 20 567 7 _c
521 -6 472 -13 420 -13 _c
306 -13 216 20 152 86 _c
88 152 56 245 56 364 _c
56 482 88 575 152 642 _c
216 708 306 742 420 742 _c
467 742 512 736 555 724 _c
598 712 638 695 674 673 _c
674 568 _l
637 598 598 621 557 637 _c
516 653 473 661 428 661 _c
}_e{338 661 271 636 227 586 _c
182 536 160 462 160 364 _c
160 265 182 191 227 141 _c
271 91 338 67 428 67 _c
462 67 493 70 521 76 _c
549 82 573 91 595 104 _c
_cl}_e}_d
/L{557 0 98 0 552 729 _sc
98 729 _m
197 729 _l
197 83 _l
552 83 _l
552 0 _l
98 0 _l
98 729 _l
_cl}_d
/M{863 0 98 0 765 729 _sc
98 729 _m
245 729 _l
431 233 _l
618 729 _l
765 729 _l
765 0 _l
669 0 _l
669 640 _l
481 140 _l
382 140 _l
194 640 _l
194 0 _l
98 0 _l
98 729 _l
_cl}_d
/N{748 0 98 0 650 729 _sc
98 729 _m
231 729 _l
554 119 _l
554 729 _l
650 729 _l
650 0 _l
517 0 _l
194 610 _l
194 0 _l
98 0 _l
98 729 _l
_cl}_d
/P{603 0 98 0 569 729 _sc
197 648 _m
197 374 _l
321 374 _l
367 374 402 385 427 409 _c
452 433 465 467 465 511 _c
465 555 452 588 427 612 _c
402 636 367 648 321 648 _c
197 648 _l
98 729 _m
321 729 _l
402 729 464 710 506 673 _c
548 636 569 582 569 511 _c
569 439 548 384 506 348 _c
464 311 402 293 321 293 _c
197 293 _l
197 0 _l
98 0 _l
98 729 _l
_cl}_d
/R{{695 0 98 0 666 729 _sc
444 342 _m
465 334 486 319 506 296 _c
526 272 546 240 566 199 _c
666 0 _l
560 0 _l
467 187 _l
443 235 419 268 397 284 _c
374 300 343 308 304 308 _c
197 308 _l
197 0 _l
98 0 _l
98 729 _l
321 729 _l
404 729 466 711 507 677 _c
548 642 569 589 569 519 _c
569 473 558 434 537 404 _c
515 374 484 353 444 342 _c
197 648 _m
197 389 _l
321 389 _l
}_e{368 389 404 400 428 422 _c
452 444 465 476 465 519 _c
465 561 452 593 428 615 _c
404 637 368 648 321 648 _c
197 648 _l
_cl}_e}_d
/T{611 0 -2 0 614 729 _sc
-2 729 _m
614 729 _l
614 646 _l
355 646 _l
355 0 _l
256 0 _l
256 646 _l
-2 646 _l
-2 729 _l
_cl}_d
/a{{613 0 60 -13 522 560 _sc
343 275 _m
270 275 220 266 192 250 _c
164 233 150 205 150 165 _c
150 133 160 107 181 89 _c
202 70 231 61 267 61 _c
317 61 357 78 387 114 _c
417 149 432 196 432 255 _c
432 275 _l
343 275 _l
522 312 _m
522 0 _l
432 0 _l
432 83 _l
411 49 385 25 355 10 _c
325 -5 287 -13 243 -13 _c
187 -13 142 2 109 33 _c
76 64 60 106 60 159 _c
}_e{60 220 80 266 122 298 _c
163 329 224 345 306 345 _c
432 345 _l
432 354 _l
432 395 418 427 391 450 _c
364 472 326 484 277 484 _c
245 484 215 480 185 472 _c
155 464 127 453 100 439 _c
100 522 _l
132 534 164 544 195 550 _c
226 556 256 560 286 560 _c
365 560 424 539 463 498 _c
502 457 522 395 522 312 _c
_cl}_e}_d
/c{{550 0 55 -13 488 560 _sc
488 526 _m
488 442 _l
462 456 437 466 411 473 _c
385 480 360 484 334 484 _c
276 484 230 465 198 428 _c
166 391 150 339 150 273 _c
150 206 166 154 198 117 _c
230 80 276 62 334 62 _c
360 62 385 65 411 72 _c
437 79 462 90 488 104 _c
488 21 _l
462 9 436 0 410 -5 _c
383 -10 354 -13 324 -13 _c
242 -13 176 12 128 64 _c
}_e{79 115 55 185 55 273 _c
55 362 79 432 128 483 _c
177 534 244 560 330 560 _c
358 560 385 557 411 551 _c
437 545 463 537 488 526 _c
_cl}_e}_d
/e{{615 0 55 -13 562 560 _sc
562 296 _m
562 252 _l
149 252 _l
153 190 171 142 205 110 _c
238 78 284 62 344 62 _c
378 62 412 66 444 74 _c
476 82 509 95 541 113 _c
541 28 _l
509 14 476 3 442 -3 _c
408 -9 373 -13 339 -13 _c
251 -13 182 12 131 62 _c
80 112 55 181 55 268 _c
55 357 79 428 127 481 _c
175 533 241 560 323 560 _c
397 560 455 536 498 489 _c
}_e{540 441 562 377 562 296 _c
472 322 _m
471 371 457 410 431 440 _c
404 469 368 484 324 484 _c
274 484 234 469 204 441 _c
174 413 156 373 152 322 _c
472 322 _l
_cl}_e}_d
/o{612 0 55 -13 557 560 _sc
306 484 _m
258 484 220 465 192 427 _c
164 389 150 338 150 273 _c
150 207 163 156 191 118 _c
219 80 257 62 306 62 _c
354 62 392 80 420 118 _c
448 156 462 207 462 273 _c
462 337 448 389 420 427 _c
392 465 354 484 306 484 _c
306 560 _m
384 560 445 534 490 484 _c
534 433 557 363 557 273 _c
557 183 534 113 490 63 _c
445 12 384 -13 306 -13 _c
227 -13 165 12 121 63 _c
77 113 55 183 55 273 _c
55 363 77 433 121 484 _c
165 534 227 560 306 560 _c
_cl}_d
/r{411 0 91 0 411 560 _sc
411 463 _m
401 469 390 473 378 476 _c
366 478 353 480 339 480 _c
288 480 249 463 222 430 _c
194 397 181 350 181 288 _c
181 0 _l
91 0 _l
91 547 _l
181 547 _l
181 462 _l
199 495 224 520 254 536 _c
284 552 321 560 365 560 _c
371 560 378 559 386 559 _c
393 558 401 557 411 555 _c
411 463 _l
_cl}_d
/s{{521 0 54 -13 472 560 _sc
443 531 _m
443 446 _l
417 458 391 468 364 475 _c
336 481 308 485 279 485 _c
234 485 200 478 178 464 _c
156 450 145 430 145 403 _c
145 382 153 366 169 354 _c
185 342 217 330 265 320 _c
296 313 _l
360 299 405 279 432 255 _c
458 230 472 195 472 151 _c
472 100 452 60 412 31 _c
372 1 316 -13 246 -13 _c
216 -13 186 -10 154 -5 _c
}_e{122 0 89 8 54 20 _c
54 113 _l
87 95 120 82 152 74 _c
184 65 216 61 248 61 _c
290 61 323 68 346 82 _c
368 96 380 117 380 144 _c
380 168 371 187 355 200 _c
339 213 303 226 247 238 _c
216 245 _l
160 257 119 275 95 299 _c
70 323 58 356 58 399 _c
58 450 76 490 112 518 _c
148 546 200 560 268 560 _c
301 560 332 557 362 552 _c
391 547 418 540 443 531 _c
}_e{_cl}_e}_d
/t{392 0 27 0 368 702 _sc
183 702 _m
183 547 _l
368 547 _l
368 477 _l
183 477 _l
183 180 _l
183 135 189 106 201 94 _c
213 81 238 75 276 75 _c
368 75 _l
368 0 _l
276 0 _l
206 0 158 13 132 39 _c
106 65 93 112 93 180 _c
93 477 _l
27 477 _l
27 547 _l
93 547 _l
93 702 _l
183 702 _l
_cl}_d
/x{592 0 29 0 559 547 _sc
549 547 _m
351 281 _l
559 0 _l
453 0 _l
294 215 _l
135 0 _l
29 0 _l
241 286 _l
47 547 _l
153 547 _l
298 352 _l
443 547 _l
549 547 _l
_cl}_d
end readonly def

/BuildGlyph
 {exch begin
 CharStrings exch
 2 copy known not{pop /.notdef}if
 true 3 1 roll get exec
 end}_d

/BuildChar {
 1 index /Encoding get exch get
 1 index /BuildGlyph get exec
}_d

FontName currentdict end definefont pop
end
%%EndProlog
mpldict begin
75.6 223.2 translate
460.8 345.6 0 0 clipbox
gsave
0 0 m
460.8 0 l
460.8 345.6 l
0 345.6 l
cl
1.000 setgray
fill
grestore
gsave
57.6 38.016 m
414.72 38.016 l
414.72 304.128 l
57.6 304.128 l
cl
1.000 setgray
fill
grestore
gsave
357.1 266.1 57.6 38.02 clipbox
73.832727 38.016 m
94.232385 38.016 l
94.232385 242.782181 l
73.832727 242.782181 l
cl
gsave
0.000 0.000 1.000 setrgbcolor
fill
grestore
  << /PatternType 1
     /PaintType 2
     /TilingType 2
     /BBox[0 0 72 72]
     /XStep 72
     /YStep 72

     /PaintProc {
        pop
        1.000000 setlinewidth
-36 36 m
36 108 l
-24 24 m
48 96 l
-12 12 m
60 84 l
0 0 m
72 72 l
12 -12 m
84 60 l
24 -24 m
96 48 l
36 -36 m
108 36 l
        fill
        stroke
     } bind
   >>
   matrix
   0.0 345.600000 translate
   makepattern
   /H0 exch def
gsave
0.000000 0.000000 0.000000 H0 setpattern fill grestore
grestore
gsave
357.1 266.1 57.6 38.02 clipbox
193.830711 38.016 m
214.230368 38.016 l
214.230368 178.635183 l
193.830711 178.635183 l
cl
gsave
0.000 0.000 1.000 setrgbcolor
fill
grestore
gsave
0.000000 0.000000 0.000000 H0 setpattern fill grestore
grestore
gsave
357.1 266.1 57.6 38.02 clipbox
313.828695 38.016 m
334.228352 38.016 l
334.228352 220.920048 l
313.828695 220.920048 l
cl
gsave
0.000 0.000 1.000 setrgbcolor
fill
grestore
gsave
0.000000 0.000000 0.000000 H0 setpattern fill grestore
grestore
gsave
357.1 266.1 57.6 38.02 clipbox
95.252367 38.016 m
115.652025 38.016 l
115.652025 218.2752 l
95.252367 218.2752 l
cl
gsave
1.000 0.000 0.000 setrgbcolor
fill
grestore
  << /PatternType 1
     /PaintType 2
     /TilingType 2
     /BBox[0 0 72 72]
     /XStep 72
     /YStep 72

     /PaintProc {
        pop
        1.000000 setlinewidth
-36 36 m
36 -36 l
-30 42 m
42 -30 l
-24 48 m
48 -24 l
-18 54 m
54 -18 l
-12 60 m
60 -12 l
-6 66 m
66 -6 l
0 72 m
72 0 l
6 78 m
78 6 l
12 84 m
84 12 l
18 90 m
90 18 l
24 96 m
96 24 l
30 102 m
102 30 l
36 108 m
108 36 l
        fill
        stroke
     } bind
   >>
   matrix
   0.0 345.600000 translate
   makepattern
   /H1 exch def
gsave
0.000000 0.000000 0.000000 H1 setpattern fill grestore
grestore
gsave
357.1 266.1 57.6 38.02 clipbox
215.250351 38.016 m
235.650009 38.016 l
235.650009 218.592 l
215.250351 218.592 l
cl
gsave
1.000 0.000 0.000 setrgbcolor
fill
grestore
gsave
0.000000 0.000000 0.000000 H1 setpattern fill grestore
grestore
gsave
357.1 266.1 57.6 38.02 clipbox
335.248335 38.016 m
355.647992 38.016 l
355.647992 218.321391 l
335.248335 218.321391 l
cl
gsave
1.000 0.000 0.000 setrgbcolor
fill
grestore
gsave
0.000000 0.000000 0.000000 H1 setpattern fill grestore
grestore
gsave
357.1 266.1 57.6 38.02 clipbox
116.672008 38.016 m
137.071665 38.016 l
137.071665 262.460463 l
116.672008 262.460463 l
cl
gsave
0.000 0.500 0.000 setrgbcolor
fill
grestore
  << /PatternType 1
     /PaintType 2
     /TilingType 2
     /BBox[0 0 72 72]
     /XStep 72
     /YStep 72

     /PaintProc {
        pop
        1.000000 setlinewidth
-36 36 m
36 -36 l
-24 48 m
48 -24 l
-12 60 m
60 -12 l
0 72 m
72 0 l
12 84 m
84 12 l
24 96 m
96 24 l
36 108 m
108 36 l
        fill
        stroke
     } bind
   >>
   matrix
   0.0 345.600000 translate
   makepattern
   /H2 exch def
gsave
0.000000 0.000000 0.000000 H2 setpattern fill grestore
grestore
gsave
357.1 266.1 57.6 38.02 clipbox
236.669991 38.016 m
257.069649 38.016 l
257.069649 226.325255 l
236.669991 226.325255 l
cl
gsave
0.000 0.500 0.000 setrgbcolor
fill
grestore
gsave
0.000000 0.000000 0.000000 H2 setpattern fill grestore
grestore
gsave
357.1 266.1 57.6 38.02 clipbox
356.667975 38.016 m
377.067633 38.016 l
377.067633 248.270398 l
356.667975 248.270398 l
cl
gsave
0.000 0.500 0.000 setrgbcolor
fill
grestore
gsave
0.000000 0.000000 0.000000 H2 setpattern fill grestore
grestore
gsave
357.1 266.1 57.6 38.02 clipbox
138.091648 38.016 m
158.491305 38.016 l
158.491305 264.2112 l
138.091648 264.2112 l
cl
gsave
0.750 0.000 0.750 setrgbcolor
fill
grestore
  << /PatternType 1
     /PaintType 2
     /TilingType 2
     /BBox[0 0 72 72]
     /XStep 72
     /YStep 72

     /PaintProc {
        pop
        1.000000 setlinewidth
-36 36 m
36 108 l
-30 30 m
42 102 l
-24 24 m
48 96 l
-18 18 m
54 90 l
-12 12 m
60 84 l
-6 6 m
66 78 l
0 0 m
72 72 l
6 -6 m
78 66 l
12 -12 m
84 60 l
18 -18 m
90 54 l
24 -24 m
96 48 l
30 -30 m
102 42 l
36 -36 m
108 36 l
        fill
        stroke
     } bind
   >>
   matrix
   0.0 345.600000 translate
   makepattern
   /H3 exch def
gsave
0.000000 0.000000 0.000000 H3 setpattern fill grestore
grestore
gsave
357.1 266.1 57.6 38.02 clipbox
258.089632 38.016 m
278.489289 38.016 l
278.489289 239.350737 l
258.089632 239.350737 l
cl
gsave
0.750 0.000 0.750 setrgbcolor
fill
grestore
gsave
0.000000 0.000000 0.000000 H3 setpattern fill grestore
grestore
gsave
357.1 266.1 57.6 38.02 clipbox
378.087615 38.016 m
398.487273 38.016 l
398.487273 254.103162 l
378.087615 254.103162 l
cl
gsave
0.750 0.000 0.750 setrgbcolor
fill
grestore
gsave
0.000000 0.000000 0.000000 H3 setpattern fill grestore
grestore
0.800 setlinewidth
1 setlinejoin
0 setlinecap
[] 0 setdash
0.000 setgray
gsave
/o {
gsave
newpath
translate
0.8 setlinewidth
1 setlinejoin
0 setlinecap
0 0 m
0 -3.5 l

gsave
0.000 setgray
fill
grestore
stroke
grestore
} bind def
116.162 38.016 o
grestore
/DejaVuSans findfont
12.000 scalefont
setfont
gsave
104.708891 21.891000 translate
0.000000 rotate
0.000000 0.000000 m /T glyphshow
7.330078 0.000000 m /P glyphshow
14.566406 0.000000 m /R glyphshow
grestore
gsave
/o {
gsave
newpath
translate
0.8 setlinewidth
1 setlinejoin
0 setlinecap
0 0 m
0 -3.5 l

gsave
0.000 setgray
fill
grestore
stroke
grestore
} bind def
236.16 38.016 o
grestore
gsave
223.831875 21.891000 translate
0.000000 rotate
0.000000 0.000000 m /T glyphshow
7.330078 0.000000 m /N glyphshow
16.306641 0.000000 m /R glyphshow
grestore
gsave
/o {
gsave
newpath
translate
0.8 setlinewidth
1 setlinejoin
0 setlinecap
0 0 m
0 -3.5 l

gsave
0.000 setgray
fill
grestore
stroke
grestore
} bind def
356.158 38.016 o
grestore
gsave
330.462671 21.891000 translate
0.000000 rotate
0.000000 0.000000 m /F glyphshow
6.902344 0.000000 m /one glyphshow
14.537109 0.000000 m /hyphen glyphshow
18.867188 0.000000 m /s glyphshow
25.119141 0.000000 m /c glyphshow
31.716797 0.000000 m /o glyphshow
39.058594 0.000000 m /r glyphshow
43.992188 0.000000 m /e glyphshow
grestore
gsave
/o {
gsave
newpath
translate
0.8 setlinewidth
1 setlinejoin
0 setlinecap
0 0 m
-3.5 0 l

gsave
0.000 setgray
fill
grestore
stroke
grestore
} bind def
57.6 38.016 o
grestore
gsave
31.506250 33.453500 translate
0.000000 rotate
0.000000 0.000000 m /zero glyphshow
7.634766 0.000000 m /period glyphshow
11.449219 0.000000 m /zero glyphshow
grestore
gsave
/o {
gsave
newpath
translate
0.8 setlinewidth
1 setlinejoin
0 setlinecap
0 0 m
-3.5 0 l

gsave
0.000 setgray
fill
grestore
stroke
grestore
} bind def
57.6 91.2384 o
grestore
gsave
31.506250 86.675900 translate
0.000000 rotate
0.000000 0.000000 m /zero glyphshow
7.634766 0.000000 m /period glyphshow
11.449219 0.000000 m /two glyphshow
grestore
gsave
/o {
gsave
newpath
translate
0.8 setlinewidth
1 setlinejoin
0 setlinecap
0 0 m
-3.5 0 l

gsave
0.000 setgray
fill
grestore
stroke
grestore
} bind def
57.6 144.461 o
grestore
gsave
31.506250 139.898300 translate
0.000000 rotate
0.000000 0.000000 m /zero glyphshow
7.634766 0.000000 m /period glyphshow
11.449219 0.000000 m /four glyphshow
grestore
gsave
/o {
gsave
newpath
translate
0.8 setlinewidth
1 setlinejoin
0 setlinecap
0 0 m
-3.5 0 l

gsave
0.000 setgray
fill
grestore
stroke
grestore
} bind def
57.6 197.683 o
grestore
gsave
31.506250 193.120700 translate
0.000000 rotate
0.000000 0.000000 m /zero glyphshow
7.634766 0.000000 m /period glyphshow
11.449219 0.000000 m /six glyphshow
grestore
gsave
/o {
gsave
newpath
translate
0.8 setlinewidth
1 setlinejoin
0 setlinecap
0 0 m
-3.5 0 l

gsave
0.000 setgray
fill
grestore
stroke
grestore
} bind def
57.6 250.906 o
grestore
gsave
31.506250 246.343100 translate
0.000000 rotate
0.000000 0.000000 m /zero glyphshow
7.634766 0.000000 m /period glyphshow
11.449219 0.000000 m /eight glyphshow
grestore
gsave
/o {
gsave
newpath
translate
0.8 setlinewidth
1 setlinejoin
0 setlinecap
0 0 m
-3.5 0 l

gsave
0.000 setgray
fill
grestore
stroke
grestore
} bind def
57.6 304.128 o
grestore
gsave
31.506250 299.565500 translate
0.000000 rotate
0.000000 0.000000 m /one glyphshow
7.634766 0.000000 m /period glyphshow
11.449219 0.000000 m /zero glyphshow
grestore
gsave
25.006250 154.048562 translate
90.000000 rotate
0.000000 0.000000 m /R glyphshow
8.337891 0.000000 m /a glyphshow
15.691406 0.000000 m /t glyphshow
20.396484 0.000000 m /e glyphshow
27.779297 0.000000 m /s glyphshow
grestore
1.500 setlinewidth
gsave
357.1 266.1 57.6 38.02 clipbox
84.032556 232.872518 m
84.032556 252.691845 l
stroke
grestore
gsave
357.1 266.1 57.6 38.02 clipbox
204.03054 155.85741 m
204.03054 201.412956 l
stroke
grestore
gsave
357.1 266.1 57.6 38.02 clipbox
324.028524 212.183041 m
324.028524 229.657056 l
stroke
grestore
gsave
357.1 266.1 57.6 38.02 clipbox
105.452196 206.857696 m
105.452196 229.692704 l
stroke
grestore
gsave
357.1 266.1 57.6 38.02 clipbox
225.45018 201.962095 m
225.45018 235.221905 l
stroke
grestore
gsave
357.1 266.1 57.6 38.02 clipbox
345.448164 213.7038 m
345.448164 222.938982 l
stroke
grestore
gsave
357.1 266.1 57.6 38.02 clipbox
126.871836 249.934199 m
126.871836 274.986728 l
stroke
grestore
gsave
357.1 266.1 57.6 38.02 clipbox
246.86982 207.027289 m
246.86982 245.623221 l
stroke
grestore
gsave
357.1 266.1 57.6 38.02 clipbox
366.867804 238.291392 m
366.867804 258.249405 l
stroke
grestore
gsave
357.1 266.1 57.6 38.02 clipbox
148.291476 249.330717 m
148.291476 279.091683 l
stroke
grestore
gsave
357.1 266.1 57.6 38.02 clipbox
268.28946 221.451625 m
268.28946 257.249849 l
stroke
grestore
gsave
357.1 266.1 57.6 38.02 clipbox
388.287444 243.60195 m
388.287444 264.604374 l
stroke
grestore
1.000 setlinewidth
gsave
357.1 266.1 57.6 38.02 clipbox
/o {
gsave
newpath
translate
1.0 setlinewidth
1 setlinejoin
0 setlinecap
3 -0 m
-3 0 l

gsave
0.000 setgray
fill
grestore
stroke
grestore
} bind def
84.0326 232.873 o
204.031 155.857 o
324.029 212.183 o
grestore
gsave
357.1 266.1 57.6 38.02 clipbox
/o {
gsave
newpath
translate
1.0 setlinewidth
1 setlinejoin
0 setlinecap
3 -0 m
-3 0 l

gsave
0.000 setgray
fill
grestore
stroke
grestore
} bind def
84.0326 252.692 o
204.031 201.413 o
324.029 229.657 o
grestore
gsave
357.1 266.1 57.6 38.02 clipbox
/o {
gsave
newpath
translate
1.0 setlinewidth
1 setlinejoin
0 setlinecap
3 -0 m
-3 0 l

gsave
0.000 setgray
fill
grestore
stroke
grestore
} bind def
105.452 206.858 o
225.45 201.962 o
345.448 213.704 o
grestore
gsave
357.1 266.1 57.6 38.02 clipbox
/o {
gsave
newpath
translate
1.0 setlinewidth
1 setlinejoin
0 setlinecap
3 -0 m
-3 0 l

gsave
0.000 setgray
fill
grestore
stroke
grestore
} bind def
105.452 229.693 o
225.45 235.222 o
345.448 222.939 o
grestore
gsave
357.1 266.1 57.6 38.02 clipbox
/o {
gsave
newpath
translate
1.0 setlinewidth
1 setlinejoin
0 setlinecap
3 -0 m
-3 0 l

gsave
0.000 setgray
fill
grestore
stroke
grestore
} bind def
126.872 249.934 o
246.87 207.027 o
366.868 238.291 o
grestore
gsave
357.1 266.1 57.6 38.02 clipbox
/o {
gsave
newpath
translate
1.0 setlinewidth
1 setlinejoin
0 setlinecap
3 -0 m
-3 0 l

gsave
0.000 setgray
fill
grestore
stroke
grestore
} bind def
126.872 274.987 o
246.87 245.623 o
366.868 258.249 o
grestore
gsave
357.1 266.1 57.6 38.02 clipbox
/o {
gsave
newpath
translate
1.0 setlinewidth
1 setlinejoin
0 setlinecap
3 -0 m
-3 0 l

gsave
0.000 setgray
fill
grestore
stroke
grestore
} bind def
148.291 249.331 o
268.289 221.452 o
388.287 243.602 o
grestore
gsave
357.1 266.1 57.6 38.02 clipbox
/o {
gsave
newpath
translate
1.0 setlinewidth
1 setlinejoin
0 setlinecap
3 -0 m
-3 0 l

gsave
0.000 setgray
fill
grestore
stroke
grestore
} bind def
148.291 279.092 o
268.289 257.25 o
388.287 264.604 o
grestore
0.800 setlinewidth
0 setlinejoin
2 setlinecap
[] 0 setdash
gsave
57.6 38.016 m
57.6 304.128 l
stroke
grestore
gsave
414.72 38.016 m
414.72 304.128 l
stroke
grestore
gsave
57.6 38.016 m
414.72 38.016 l
stroke
grestore
gsave
57.6 304.128 m
414.72 304.128 l
stroke
grestore
1.000 setlinewidth
0 setlinecap
0.800 setgray
gsave
343.63875 44.016 m
406.32 44.016 l
407.92 44.016 408.72 44.816 408.72 46.416 c
408.72 115.716 l
408.72 117.316 407.92 118.116 406.32 118.116 c
343.63875 118.116 l
342.03875 118.116 341.23875 117.316 341.23875 115.716 c
341.23875 46.416 l
341.23875 44.816 342.03875 44.016 343.63875 44.016 c
cl
gsave
1.000 setgray
fill
grestore
stroke
grestore
gsave
346.03875 104.191 m
370.03875 104.191 l
370.03875 112.591 l
346.03875 112.591 l
cl
gsave
0.000 0.000 1.000 setrgbcolor
fill
grestore
gsave
0.000000 0.000000 0.000000 H0 setpattern fill grestore
grestore
0.000 setgray
gsave
379.638750 104.191000 translate
0.000000 rotate
0.000000 0.000000 m /T glyphshow
7.330078 0.000000 m /T glyphshow
14.660156 0.000000 m /C glyphshow
grestore
gsave
346.03875 86.566 m
370.03875 86.566 l
370.03875 94.966 l
346.03875 94.966 l
cl
gsave
1.000 0.000 0.000 setrgbcolor
fill
grestore
gsave
0.000000 0.000000 0.000000 H1 setpattern fill grestore
grestore
gsave
379.638750 86.566000 translate
0.000000 rotate
0.000000 0.000000 m /M glyphshow
10.353516 0.000000 m /L glyphshow
17.039062 0.000000 m /P glyphshow
grestore
gsave
346.03875 68.941 m
370.03875 68.941 l
370.03875 77.341 l
346.03875 77.341 l
cl
gsave
0.000 0.500 0.000 setrgbcolor
fill
grestore
gsave
0.000000 0.000000 0.000000 H2 setpattern fill grestore
grestore
gsave
379.638750 68.941000 translate
0.000000 rotate
0.000000 0.000000 m /G glyphshow
9.298828 0.000000 m /A glyphshow
grestore
gsave
346.03875 51.316 m
370.03875 51.316 l
370.03875 59.716 l
346.03875 59.716 l
cl
gsave
0.750 0.000 0.750 setrgbcolor
fill
grestore
gsave
0.000000 0.000000 0.000000 H3 setpattern fill grestore
grestore
gsave
379.638750 51.316000 translate
0.000000 rotate
0.000000 0.000000 m /R glyphshow
8.337891 0.000000 m /T glyphshow
15.667969 0.000000 m /x glyphshow
grestore

end
showpage
