%!PS-Adobe-3.0 EPSF-3.0
%%Title: ./Model_fit_results/benchmark_roc_orig.eps
%%Creator: matplotlib version 3.0.3, http://matplotlib.org/
%%CreationDate: Fri Nov 12 16:06:10 2021
%%Orientation: portrait
%%BoundingBox: 75 223 536 568
%%EndComments
%%BeginProlog
/mpldict 8 dict def
mpldict begin
/m { moveto } bind def
/l { lineto } bind def
/r { rlineto } bind def
/c { curveto } bind def
/cl { closepath } bind def
/box {
m
1 index 0 r
0 exch r
neg 0 r
cl
} bind def
/clipbox {
box
clip
newpath
} bind def
%!PS-Adobe-3.0 Resource-Font
%%Title: DejaVu Sans
%%Copyright: Copyright (c) 2003 by Bitstream, Inc. All Rights Reserved. Copyright (c) 2006 by Tavmjong Bah. All Rights Reserved. DejaVu changes are in public domain 
%%Creator: Converted from TrueType to type 3 by PPR
25 dict begin
/_d{bind def}bind def
/_m{moveto}_d
/_l{lineto}_d
/_cl{closepath eofill}_d
/_c{curveto}_d
/_sc{7 -1 roll{setcachedevice}{pop pop pop pop pop pop}ifelse}_d
/_e{exec}_d
/FontName /DejaVuSans def
/PaintType 0 def
/FontMatrix[.001 0 0 .001 0 0]def
/FontBBox[-1021 -463 1793 1232]def
/FontType 3 def
/Encoding [ /period /zero /one /two /four /six /eight /A /C /F /G /L /M /N /P /R /T /x ] def
/FontInfo 10 dict dup begin
/FamilyName (DejaVu Sans) def
/FullName (DejaVu Sans) def
/Notice (Copyright (c) 2003 by Bitstream, Inc. All Rights Reserved. Copyright (c) 2006 by Tavmjong Bah. All Rights Reserved. DejaVu changes are in public domain ) def
/Weight (Book) def
/Version (Version 2.35) def
/ItalicAngle 0.0 def
/isFixedPitch false def
/UnderlinePosition -130 def
/UnderlineThickness 90 def
end readonly def
/CharStrings 19 dict dup begin
/.notdef 0 def
/period{318 0 107 0 210 124 _sc
107 124 _m
210 124 _l
210 0 _l
107 0 _l
107 124 _l
_cl}_d
/zero{636 0 66 -13 570 742 _sc
318 664 _m
267 664 229 639 203 589 _c
177 539 165 464 165 364 _c
165 264 177 189 203 139 _c
229 89 267 64 318 64 _c
369 64 407 89 433 139 _c
458 189 471 264 471 364 _c
471 464 458 539 433 589 _c
407 639 369 664 318 664 _c
318 742 _m
399 742 461 709 505 645 _c
548 580 570 486 570 364 _c
570 241 548 147 505 83 _c
461 19 399 -13 318 -13 _c
236 -13 173 19 130 83 _c
87 147 66 241 66 364 _c
66 486 87 580 130 645 _c
173 709 236 742 318 742 _c
_cl}_d
/one{636 0 110 0 544 729 _sc
124 83 _m
285 83 _l
285 639 _l
110 604 _l
110 694 _l
284 729 _l
383 729 _l
383 83 _l
544 83 _l
544 0 _l
124 0 _l
124 83 _l
_cl}_d
/two{{636 0 73 0 536 742 _sc
192 83 _m
536 83 _l
536 0 _l
73 0 _l
73 83 _l
110 121 161 173 226 239 _c
290 304 331 346 348 365 _c
380 400 402 430 414 455 _c
426 479 433 504 433 528 _c
433 566 419 598 392 622 _c
365 646 330 659 286 659 _c
255 659 222 653 188 643 _c
154 632 117 616 78 594 _c
78 694 _l
118 710 155 722 189 730 _c
223 738 255 742 284 742 _c
}_e{359 742 419 723 464 685 _c
509 647 532 597 532 534 _c
532 504 526 475 515 449 _c
504 422 484 390 454 354 _c
446 344 420 317 376 272 _c
332 227 271 164 192 83 _c
_cl}_e}_d
/four{636 0 49 0 580 729 _sc
378 643 _m
129 254 _l
378 254 _l
378 643 _l
352 729 _m
476 729 _l
476 254 _l
580 254 _l
580 172 _l
476 172 _l
476 0 _l
378 0 _l
378 172 _l
49 172 _l
49 267 _l
352 729 _l
_cl}_d
/six{{636 0 70 -13 573 742 _sc
330 404 _m
286 404 251 388 225 358 _c
199 328 186 286 186 234 _c
186 181 199 139 225 109 _c
251 79 286 64 330 64 _c
374 64 409 79 435 109 _c
461 139 474 181 474 234 _c
474 286 461 328 435 358 _c
409 388 374 404 330 404 _c
526 713 _m
526 623 _l
501 635 476 644 451 650 _c
425 656 400 659 376 659 _c
310 659 260 637 226 593 _c
}_e{192 549 172 482 168 394 _c
187 422 211 444 240 459 _c
269 474 301 482 336 482 _c
409 482 467 459 509 415 _c
551 371 573 310 573 234 _c
573 159 550 99 506 54 _c
462 9 403 -13 330 -13 _c
246 -13 181 19 137 83 _c
92 147 70 241 70 364 _c
70 479 97 571 152 639 _c
206 707 280 742 372 742 _c
396 742 421 739 447 735 _c
472 730 498 723 526 713 _c
_cl}_e}_d
/eight{{636 0 68 -13 568 742 _sc
318 346 _m
271 346 234 333 207 308 _c
180 283 167 249 167 205 _c
167 161 180 126 207 101 _c
234 76 271 64 318 64 _c
364 64 401 76 428 102 _c
455 127 469 161 469 205 _c
469 249 455 283 429 308 _c
402 333 365 346 318 346 _c
219 388 _m
177 398 144 418 120 447 _c
96 476 85 511 85 553 _c
85 611 105 657 147 691 _c
188 725 245 742 318 742 _c
}_e{390 742 447 725 489 691 _c
530 657 551 611 551 553 _c
551 511 539 476 515 447 _c
491 418 459 398 417 388 _c
464 377 501 355 528 323 _c
554 291 568 251 568 205 _c
568 134 546 80 503 43 _c
459 5 398 -13 318 -13 _c
237 -13 175 5 132 43 _c
89 80 68 134 68 205 _c
68 251 81 291 108 323 _c
134 355 171 377 219 388 _c
183 544 _m
183 506 194 476 218 455 _c
}_e{242 434 275 424 318 424 _c
360 424 393 434 417 455 _c
441 476 453 506 453 544 _c
453 582 441 611 417 632 _c
393 653 360 664 318 664 _c
275 664 242 653 218 632 _c
194 611 183 582 183 544 _c
_cl}_e}_d
/A{684 0 8 0 676 729 _sc
342 632 _m
208 269 _l
476 269 _l
342 632 _l
286 729 _m
398 729 _l
676 0 _l
573 0 _l
507 187 _l
178 187 _l
112 0 _l
8 0 _l
286 729 _l
_cl}_d
/C{{698 0 56 -13 644 742 _sc
644 673 _m
644 569 _l
610 599 575 622 537 638 _c
499 653 460 661 418 661 _c
334 661 270 635 226 584 _c
182 533 160 460 160 364 _c
160 268 182 194 226 143 _c
270 92 334 67 418 67 _c
460 67 499 74 537 90 _c
575 105 610 128 644 159 _c
644 56 _l
609 32 572 15 534 4 _c
496 -7 455 -13 412 -13 _c
302 -13 215 20 151 87 _c
}_e{87 154 56 246 56 364 _c
56 481 87 573 151 641 _c
215 708 302 742 412 742 _c
456 742 497 736 535 725 _c
573 713 610 696 644 673 _c
_cl}_e}_d
/F{575 0 98 0 517 729 _sc
98 729 _m
517 729 _l
517 646 _l
197 646 _l
197 431 _l
486 431 _l
486 348 _l
197 348 _l
197 0 _l
98 0 _l
98 729 _l
_cl}_d
/G{{775 0 56 -13 693 742 _sc
595 104 _m
595 300 _l
434 300 _l
434 381 _l
693 381 _l
693 68 _l
655 40 613 20 567 7 _c
521 -6 472 -13 420 -13 _c
306 -13 216 20 152 86 _c
88 152 56 245 56 364 _c
56 482 88 575 152 642 _c
216 708 306 742 420 742 _c
467 742 512 736 555 724 _c
598 712 638 695 674 673 _c
674 568 _l
637 598 598 621 557 637 _c
516 653 473 661 428 661 _c
}_e{338 661 271 636 227 586 _c
182 536 160 462 160 364 _c
160 265 182 191 227 141 _c
271 91 338 67 428 67 _c
462 67 493 70 521 76 _c
549 82 573 91 595 104 _c
_cl}_e}_d
/L{557 0 98 0 552 729 _sc
98 729 _m
197 729 _l
197 83 _l
552 83 _l
552 0 _l
98 0 _l
98 729 _l
_cl}_d
/M{863 0 98 0 765 729 _sc
98 729 _m
245 729 _l
431 233 _l
618 729 _l
765 729 _l
765 0 _l
669 0 _l
669 640 _l
481 140 _l
382 140 _l
194 640 _l
194 0 _l
98 0 _l
98 729 _l
_cl}_d
/N{748 0 98 0 650 729 _sc
98 729 _m
231 729 _l
554 119 _l
554 729 _l
650 729 _l
650 0 _l
517 0 _l
194 610 _l
194 0 _l
98 0 _l
98 729 _l
_cl}_d
/P{603 0 98 0 569 729 _sc
197 648 _m
197 374 _l
321 374 _l
367 374 402 385 427 409 _c
452 433 465 467 465 511 _c
465 555 452 588 427 612 _c
402 636 367 648 321 648 _c
197 648 _l
98 729 _m
321 729 _l
402 729 464 710 506 673 _c
548 636 569 582 569 511 _c
569 439 548 384 506 348 _c
464 311 402 293 321 293 _c
197 293 _l
197 0 _l
98 0 _l
98 729 _l
_cl}_d
/R{{695 0 98 0 666 729 _sc
444 342 _m
465 334 486 319 506 296 _c
526 272 546 240 566 199 _c
666 0 _l
560 0 _l
467 187 _l
443 235 419 268 397 284 _c
374 300 343 308 304 308 _c
197 308 _l
197 0 _l
98 0 _l
98 729 _l
321 729 _l
404 729 466 711 507 677 _c
548 642 569 589 569 519 _c
569 473 558 434 537 404 _c
515 374 484 353 444 342 _c
197 648 _m
197 389 _l
321 389 _l
}_e{368 389 404 400 428 422 _c
452 444 465 476 465 519 _c
465 561 452 593 428 615 _c
404 637 368 648 321 648 _c
197 648 _l
_cl}_e}_d
/T{611 0 -2 0 614 729 _sc
-2 729 _m
614 729 _l
614 646 _l
355 646 _l
355 0 _l
256 0 _l
256 646 _l
-2 646 _l
-2 729 _l
_cl}_d
/x{592 0 29 0 559 547 _sc
549 547 _m
351 281 _l
559 0 _l
453 0 _l
294 215 _l
135 0 _l
29 0 _l
241 286 _l
47 547 _l
153 547 _l
298 352 _l
443 547 _l
549 547 _l
_cl}_d
end readonly def

/BuildGlyph
 {exch begin
 CharStrings exch
 2 copy known not{pop /.notdef}if
 true 3 1 roll get exec
 end}_d

/BuildChar {
 1 index /Encoding get exch get
 1 index /BuildGlyph get exec
}_d

FontName currentdict end definefont pop
end
%%EndProlog
mpldict begin
75.6 223.2 translate
460.8 345.6 0 0 clipbox
gsave
0 0 m
460.8 0 l
460.8 345.6 l
0 345.6 l
cl
1.000 setgray
fill
grestore
gsave
57.6 38.016 m
414.72 38.016 l
414.72 304.128 l
57.6 304.128 l
cl
1.000 setgray
fill
grestore
1.000 setlinewidth
1 setlinejoin
0 setlinecap
[] 0 setdash
0.750 0.000 0.750 setrgbcolor
gsave
357.1 266.1 57.6 38.02 clipbox
/o {
gsave
newpath
translate
1.0 setlinewidth
1 setlinejoin
0 setlinecap
57.6 62.792858 m
57.6 119.96406 l
61.207273 123.008513 l
64.814545 126.23687 l
68.421818 147.936517 l
72.029091 151.226288 l
75.636364 154.8378 l
79.243636 168.306803 l
82.850909 171.105341 l
86.458182 185.403149 l
90.065455 188.832538 l
93.672727 192.551602 l
97.28 210.177588 l
100.887273 214.951223 l
104.494545 220.057318 l
108.101818 236.552615 l
111.709091 241.857672 l
115.316364 253.804367 l
118.923636 257.525834 l
122.530909 261.473265 l
126.138182 271.630621 l
129.745455 275.288748 l
133.352727 282.285932 l
136.96 284.602612 l
140.567273 287.342777 l
144.174545 289.002055 l
147.781818 290.585515 l
151.389091 292.572903 l
154.996364 295.532211 l
158.603636 296.776162 l
162.210909 298.247289 l
165.818182 299.354505 l
169.425455 300.668157 l
173.032727 302.142426 l
176.64 302.561977 l
180.247273 301.774374 l
183.854545 302.104871 l
187.461818 302.647235 l
191.069091 303.838681 l
194.676364 304.255847 l
198.283636 304.81288 l
201.890909 305.497331 l
205.498182 305.943581 l
209.105455 306.334785 l
212.712727 306.3534 l
216.32 306.457991 l
219.927273 306.314167 l
223.534545 306.35387 l
227.141818 306.286888 l
230.749091 306.044599 l
234.356364 305.899397 l
237.963636 305.682827 l
241.570909 305.616881 l
245.178182 305.573609 l
248.785455 305.565468 l
252.392727 305.548627 l
256 305.487063 l
259.607273 305.494538 l
263.214545 305.561276 l
266.821818 305.674509 l
270.429091 305.699515 l
274.036364 305.736083 l
277.643636 305.743325 l
281.250909 305.765936 l
284.858182 305.647332 l
288.465455 305.653191 l
292.072727 305.673513 l
295.68 305.506167 l
299.287273 305.529387 l
302.894545 305.563796 l
306.501818 305.520478 l
310.109091 305.538774 l
313.716364 305.494298 l
317.323636 305.474457 l
320.930909 305.463422 l
324.538182 305.461531 l
328.145455 305.469003 l
331.752727 305.451645 l
335.36 305.420749 l
338.967273 305.428663 l
342.574545 305.311799 l
346.181818 305.311799 l
349.789091 305.311799 l
353.396364 305.311799 l
357.003636 305.311799 l
360.610909 304.758265 l
364.218182 304.758265 l
367.825455 304.758265 l
371.432727 304.758265 l
375.04 304.758265 l
378.647273 304.758265 l
382.254545 304.758265 l
385.861818 304.758265 l
389.469091 304.128 l
393.076364 304.128 l
396.683636 304.128 l
400.290909 304.128 l
403.898182 304.128 l
407.505455 304.128 l
411.112727 304.128 l
414.72 304.128 l
414.72 304.128 l
414.72 304.128 l
411.112727 304.128 l
407.505455 304.128 l
403.898182 304.128 l
400.290909 304.128 l
396.683636 304.128 l
393.076364 304.128 l
389.469091 304.128 l
385.861818 303.357676 l
382.254545 303.357676 l
378.647273 303.357676 l
375.04 303.357676 l
371.432727 303.357676 l
367.825455 303.357676 l
364.218182 303.357676 l
360.610909 303.357676 l
357.003636 302.243907 l
353.396364 302.243907 l
349.789091 302.243907 l
346.181818 302.243907 l
342.574545 302.243907 l
338.967273 301.838436 l
335.36 301.79259 l
331.752727 301.707934 l
328.145455 301.651671 l
324.538182 301.632263 l
320.930909 301.603491 l
317.323636 301.565576 l
313.716364 301.518856 l
310.109091 301.139794 l
306.501818 301.050571 l
302.894545 300.899733 l
299.287273 300.653552 l
295.68 300.524452 l
292.072727 299.795219 l
288.465455 299.743862 l
284.858182 299.678041 l
281.250909 299.338266 l
277.643636 299.271277 l
274.036364 299.188919 l
270.429091 299.135887 l
266.821818 299.071293 l
263.214545 298.75256 l
259.607273 298.532578 l
256 298.253333 l
252.392727 297.663129 l
248.785455 297.216208 l
245.178182 296.650188 l
241.570909 296.293317 l
237.963636 295.913771 l
234.356364 294.870523 l
230.749091 293.945801 l
227.141818 292.923992 l
223.534545 290.647427 l
219.927273 288.93545 l
216.32 286.305415 l
212.712727 285.023893 l
209.105455 283.656396 l
205.498182 281.443824 l
201.890909 280.15721 l
198.283636 277.828814 l
194.676364 276.406583 l
191.069091 274.844485 l
187.461818 272.563554 l
183.854545 270.635646 l
180.247273 268.495871 l
176.64 263.31452 l
173.032727 260.984247 l
169.425455 257.101332 l
165.818182 254.805 l
162.210909 252.302232 l
158.603636 248.467577 l
154.996364 246.291496 l
151.389091 241.365391 l
147.781818 237.585227 l
144.174545 233.401135 l
140.567273 221.599428 l
136.96 216.715529 l
133.352727 211.408145 l
129.745455 199.546934 l
126.138182 194.547908 l
122.530909 179.970406 l
118.923636 175.974798 l
115.316364 171.753224 l
111.709091 161.492088 l
108.101818 157.778905 l
104.494545 144.162707 l
100.887273 142.365122 l
97.28 140.235078 l
93.672727 130.954419 l
90.065455 128.495563 l
86.458182 125.747032 l
82.850909 112.145758 l
79.243636 109.438376 l
75.636364 94.232314 l
72.029091 92.055666 l
68.421818 89.557277 l
64.814545 65.605487 l
61.207273 64.291125 l
57.6 62.792858 l
cl

gsave
0.750 0.000 0.750 setrgbcolor
fill
grestore
stroke
grestore
} bind def
0 0 o
grestore
0.000 0.500 0.000 setrgbcolor
gsave
357.1 266.1 57.6 38.02 clipbox
/o {
gsave
newpath
translate
1.0 setlinewidth
1 setlinejoin
0 setlinecap
57.6 42.204256 m
57.6 83.408612 l
61.207273 87.331878 l
64.814545 91.516221 l
68.421818 115.78598 l
72.029091 119.67825 l
75.636364 123.890776 l
79.243636 139.044554 l
82.850909 143.101998 l
86.458182 161.629111 l
90.065455 165.020541 l
93.672727 168.680325 l
97.28 184.903469 l
100.887273 188.623082 l
104.494545 192.580813 l
108.101818 203.14191 l
111.709091 206.493834 l
115.316364 219.799977 l
118.923636 222.530115 l
122.530909 225.441251 l
126.138182 241.392419 l
129.745455 244.403605 l
133.352727 256.889204 l
136.96 259.579454 l
140.567273 262.425061 l
144.174545 272.462561 l
147.781818 273.747032 l
151.389091 275.189568 l
154.996364 284.860663 l
158.603636 285.739128 l
162.210909 292.406654 l
165.818182 292.763684 l
169.425455 293.275796 l
173.032727 298.132336 l
176.64 298.690773 l
180.247273 300.086978 l
183.854545 300.157486 l
187.461818 300.286032 l
191.069091 301.764725 l
194.676364 301.634933 l
198.283636 301.564322 l
201.890909 302.023255 l
205.498182 302.01885 l
209.105455 301.408595 l
212.712727 301.34151 l
216.32 301.30197 l
219.927273 300.636849 l
223.534545 300.647514 l
227.141818 300.9273 l
230.749091 300.929918 l
234.356364 300.97504 l
237.963636 301.072532 l
241.570909 300.781048 l
245.178182 300.5168 l
248.785455 300.061586 l
252.392727 300.198149 l
256 300.0648 l
259.607273 300.16171 l
263.214545 300.263718 l
266.821818 300.396543 l
270.429091 300.504124 l
274.036364 300.618278 l
277.643636 300.745238 l
281.250909 300.89104 l
284.858182 300.750799 l
288.465455 300.923469 l
292.072727 301.114311 l
295.68 300.721025 l
299.287273 300.775278 l
302.894545 300.861141 l
306.501818 301.003461 l
310.109091 301.148782 l
313.716364 301.151106 l
317.323636 301.296701 l
320.930909 301.419689 l
324.538182 301.568691 l
328.145455 301.720436 l
331.752727 301.854666 l
335.36 301.96533 l
338.967273 302.077241 l
342.574545 302.177175 l
346.181818 302.274716 l
349.789091 302.372257 l
353.396364 302.469798 l
357.003636 302.56734 l
360.610909 302.664881 l
364.218182 302.762422 l
367.825455 302.859963 l
371.432727 302.957505 l
375.04 303.055046 l
378.647273 303.152587 l
382.254545 303.250129 l
385.861818 303.34767 l
389.469091 303.445211 l
393.076364 303.542752 l
396.683636 303.640294 l
400.290909 303.737835 l
403.898182 303.835376 l
407.505455 303.932917 l
411.112727 304.030459 l
414.72 304.128 l
414.72 304.128 l
414.72 304.128 l
411.112727 303.759421 l
407.505455 303.390842 l
403.898182 303.022263 l
400.290909 302.653684 l
396.683636 302.285105 l
393.076364 301.916526 l
389.469091 301.547947 l
385.861818 301.179368 l
382.254545 300.810789 l
378.647273 300.44221 l
375.04 300.073631 l
371.432727 299.705052 l
367.825455 299.336473 l
364.218182 298.967894 l
360.610909 298.599315 l
357.003636 298.230736 l
353.396364 297.862157 l
349.789091 297.493578 l
346.181818 297.124999 l
342.574545 296.75642 l
338.967273 296.392355 l
335.36 296.051585 l
331.752727 295.709569 l
328.145455 295.410926 l
324.538182 295.14583 l
320.930909 294.877992 l
317.323636 294.454266 l
313.716364 294.193773 l
310.109091 293.65831 l
306.501818 293.421979 l
302.894545 293.182647 l
299.287273 292.867052 l
295.68 292.512773 l
292.072727 291.294859 l
288.465455 291.108185 l
284.858182 290.903338 l
281.250909 290.111526 l
277.643636 289.891331 l
274.036364 289.652295 l
270.429091 288.973673 l
266.821818 288.708089 l
263.214545 287.54322 l
259.607273 287.449024 l
256 287.349729 l
252.392727 285.419983 l
248.785455 285.276539 l
245.178182 283.128782 l
241.570909 282.471034 l
237.963636 281.78605 l
234.356364 280.319818 l
230.749091 279.871936 l
227.141818 279.381551 l
223.534545 278.641769 l
219.927273 278.197063 l
216.32 274.423602 l
212.712727 273.95685 l
209.105455 273.462554 l
205.498182 268.432829 l
201.890909 267.693315 l
198.283636 262.621918 l
194.676364 261.395467 l
191.069091 260.109835 l
187.461818 252.984098 l
183.854545 251.607364 l
180.247273 250.172593 l
176.64 243.519653 l
173.032727 241.81121 l
169.425455 230.655758 l
165.818182 227.76307 l
162.210909 224.715299 l
158.603636 216.99 l
154.996364 214.580145 l
151.389091 201.453228 l
147.781818 198.818964 l
144.174545 196.026635 l
140.567273 181.425314 l
136.96 178.375241 l
133.352727 175.16981 l
129.745455 162.700866 l
126.138182 159.637173 l
122.530909 152.629991 l
118.923636 149.735047 l
115.316364 146.659105 l
111.709091 134.668339 l
108.101818 130.404262 l
104.494545 118.078219 l
100.887273 114.24075 l
97.28 110.165162 l
93.672727 99.111709 l
90.065455 96.275493 l
86.458182 93.170923 l
82.850909 86.108747 l
79.243636 82.756272 l
75.636364 74.510773 l
72.029091 71.205859 l
68.421818 67.580689 l
64.814545 46.049286 l
61.207273 44.257309 l
57.6 42.204256 l
cl

gsave
0.000 0.500 0.000 setrgbcolor
fill
grestore
stroke
grestore
} bind def
0 0 o
grestore
1.000 0.000 0.000 setrgbcolor
gsave
357.1 266.1 57.6 38.02 clipbox
/o {
gsave
newpath
translate
1.0 setlinewidth
1 setlinejoin
0 setlinecap
57.6 36.673136 m
57.6 46.328464 l
61.207273 49.153137 l
64.814545 77.163993 l
68.421818 97.168928 l
72.029091 107.122976 l
75.636364 115.837765 l
79.243636 120.137826 l
82.850909 124.323053 l
86.458182 131.281322 l
90.065455 140.933501 l
93.672727 148.422701 l
97.28 152.038725 l
100.887273 155.403906 l
104.494545 157.999601 l
108.101818 159.357081 l
111.709091 162.255653 l
115.316364 164.377255 l
118.923636 171.288322 l
122.530909 179.737031 l
126.138182 187.849805 l
129.745455 188.966154 l
133.352727 191.308159 l
136.96 192.110532 l
140.567273 201.981704 l
144.174545 206.210435 l
147.781818 208.3799 l
151.389091 213.461893 l
154.996364 214.17623 l
158.603636 216.004237 l
162.210909 218.615373 l
165.818182 220.496422 l
169.425455 222.767702 l
173.032727 225.911037 l
176.64 231.198291 l
180.247273 231.800224 l
183.854545 233.293779 l
187.461818 236.609533 l
191.069091 240.551598 l
194.676364 241.783059 l
198.283636 245.148423 l
201.890909 246.474083 l
205.498182 252.896009 l
209.105455 253.417806 l
212.712727 255.697061 l
216.32 256.978091 l
219.927273 258.902966 l
223.534545 260.34075 l
227.141818 261.426087 l
230.749091 261.970521 l
234.356364 263.759471 l
237.963636 267.148084 l
241.570909 270.875558 l
245.178182 272.70309 l
248.785455 274.426207 l
252.392727 275.197066 l
256 276.414471 l
259.607273 277.734747 l
263.214545 278.928775 l
266.821818 281.187528 l
270.429091 282.570394 l
274.036364 283.982569 l
277.643636 284.283524 l
281.250909 285.835662 l
284.858182 287.138387 l
288.465455 287.509797 l
292.072727 288.765514 l
295.68 290.11469 l
299.287273 291.085731 l
302.894545 293.578711 l
306.501818 293.762816 l
310.109091 294.123042 l
313.716364 294.666973 l
317.323636 294.967464 l
320.930909 295.409603 l
324.538182 295.837161 l
328.145455 296.101753 l
331.752727 296.5921 l
335.36 297.031021 l
338.967273 297.147191 l
342.574545 297.424416 l
346.181818 297.805108 l
349.789091 297.884628 l
353.396364 297.859616 l
357.003636 299.336229 l
360.610909 299.988915 l
364.218182 300.71775 l
367.825455 300.888579 l
371.432727 301.099524 l
375.04 302.212476 l
378.647273 302.513354 l
382.254545 302.848629 l
385.861818 303.58846 l
389.469091 303.525455 l
393.076364 303.503966 l
396.683636 303.529031 l
400.290909 303.535424 l
403.898182 304.466836 l
407.505455 304.71509 l
411.112727 304.781246 l
414.72 304.128 l
414.72 304.128 l
414.72 304.128 l
411.112727 301.955476 l
407.505455 301.356756 l
403.898182 300.642532 l
400.290909 299.443467 l
396.683636 298.845782 l
393.076364 298.07477 l
389.469091 297.257203 l
385.861818 296.647721 l
382.254545 295.823475 l
378.647273 294.940272 l
375.04 294.058329 l
371.432727 292.954404 l
367.825455 291.582072 l
364.218182 290.803224 l
360.610909 289.41118 l
357.003636 288.85179 l
353.396364 288.156325 l
349.789091 287.274436 l
346.181818 286.272621 l
342.574545 285.319636 l
338.967273 284.522383 l
335.36 283.996075 l
331.752727 283.418119 l
328.145455 282.574789 l
324.538182 281.606503 l
320.930909 280.405984 l
317.323636 279.021646 l
313.716364 277.81566 l
310.109091 276.891513 l
306.501818 276.143661 l
302.894545 275.211689 l
299.287273 273.977392 l
295.68 272.503715 l
292.072727 270.972973 l
288.465455 268.110373 l
284.858182 266.753866 l
281.250909 264.692338 l
277.643636 263.908476 l
274.036364 261.643031 l
270.429091 260.008806 l
266.821818 257.910072 l
263.214545 256.808825 l
259.607273 252.780453 l
256 250.846329 l
252.392727 249.394934 l
248.785455 247.266593 l
245.178182 246.83931 l
241.570909 246.286042 l
237.963636 244.695116 l
234.356364 242.131729 l
230.749091 238.602279 l
227.141818 235.364313 l
223.534545 234.56805 l
219.927273 233.519434 l
216.32 232.372309 l
212.712727 228.715739 l
209.105455 227.570994 l
205.498182 225.302391 l
201.890909 225.029917 l
198.283636 223.398777 l
194.676364 220.812141 l
191.069091 219.240402 l
187.461818 218.017667 l
183.854545 216.219821 l
180.247273 213.290976 l
176.64 212.638509 l
173.032727 209.516163 l
169.425455 207.302698 l
165.818182 202.777178 l
162.210909 198.831027 l
158.603636 194.914163 l
154.996364 193.55977 l
151.389091 191.451707 l
147.781818 186.7417 l
144.174545 184.447165 l
140.567273 178.634296 l
136.96 174.321468 l
133.352727 162.014081 l
129.745455 157.154806 l
126.138182 153.719475 l
122.530909 150.253369 l
118.923636 143.235198 l
115.316364 137.204185 l
111.709091 128.908507 l
108.101818 121.706599 l
104.494545 117.437199 l
100.887273 113.023614 l
97.28 103.837115 l
93.672727 92.824659 l
90.065455 88.907779 l
86.458182 83.323478 l
82.850909 77.243667 l
79.243636 74.592414 l
75.636364 72.401595 l
72.029091 58.958304 l
68.421818 43.663072 l
64.814545 41.626407 l
61.207273 37.611663 l
57.6 36.673136 l
cl

gsave
1.000 0.000 0.000 setrgbcolor
fill
grestore
stroke
grestore
} bind def
0 0 o
grestore
0.000 0.000 1.000 setrgbcolor
gsave
357.1 266.1 57.6 38.02 clipbox
/o {
gsave
newpath
translate
1.0 setlinewidth
1 setlinejoin
0 setlinecap
57.6 31.270387 m
57.6 61.288569 l
61.207273 69.839013 l
64.814545 81.214222 l
68.421818 93.728846 l
72.029091 99.501897 l
75.636364 106.23991 l
79.243636 112.714619 l
82.850909 116.920728 l
86.458182 121.650464 l
90.065455 124.839724 l
93.672727 128.676976 l
97.28 132.93615 l
100.887273 135.698067 l
104.494545 138.778749 l
108.101818 141.825706 l
111.709091 144.49072 l
115.316364 149.075745 l
118.923636 152.503083 l
122.530909 156.246165 l
126.138182 159.877432 l
129.745455 163.351672 l
133.352727 167.287697 l
136.96 171.236633 l
140.567273 175.317097 l
144.174545 178.904168 l
147.781818 182.646805 l
151.389091 186.483854 l
154.996364 190.493549 l
158.603636 194.526905 l
162.210909 198.582214 l
165.818182 202.599455 l
169.425455 206.682168 l
173.032727 210.684876 l
176.64 214.712389 l
180.247273 218.841364 l
183.854545 223.244525 l
187.461818 227.76031 l
191.069091 232.293791 l
194.676364 236.858502 l
198.283636 241.531979 l
201.890909 245.690129 l
205.498182 249.82383 l
209.105455 256.038237 l
212.712727 259.483235 l
216.32 263.043838 l
219.927273 266.720751 l
223.534545 269.679524 l
227.141818 273.759174 l
230.749091 276.304862 l
234.356364 278.997455 l
237.963636 282.741965 l
241.570909 285.26831 l
245.178182 288.007536 l
248.785455 293.260359 l
252.392727 295.102834 l
256 298.964795 l
259.607273 299.625514 l
263.214545 300.439287 l
266.821818 303.17542 l
270.429091 303.23544 l
274.036364 304.659221 l
277.643636 304.37762 l
281.250909 304.214796 l
284.858182 304.990781 l
288.465455 304.538106 l
292.072727 304.142805 l
295.68 304.482776 l
299.287273 303.725676 l
302.894545 303.306849 l
306.501818 302.810844 l
310.109091 302.405812 l
313.716364 301.752819 l
317.323636 300.578771 l
320.930909 299.793889 l
324.538182 299.512483 l
328.145455 299.275162 l
331.752727 298.930669 l
335.36 298.857285 l
338.967273 298.817423 l
342.574545 298.857511 l
346.181818 298.857511 l
349.789091 298.857511 l
353.396364 298.857511 l
357.003636 298.857511 l
360.610909 298.857511 l
364.218182 298.857511 l
367.825455 298.857511 l
371.432727 298.857511 l
375.04 298.857511 l
378.647273 298.857511 l
382.254545 298.857511 l
385.861818 298.857511 l
389.469091 298.857511 l
393.076364 298.857511 l
396.683636 298.857511 l
400.290909 298.857511 l
403.898182 298.857511 l
407.505455 298.857511 l
411.112727 298.857511 l
414.72 298.857511 l
414.72 291.330885 l
414.72 291.330885 l
411.112727 291.330885 l
407.505455 291.330885 l
403.898182 291.330885 l
400.290909 291.330885 l
396.683636 291.330885 l
393.076364 291.330885 l
389.469091 291.330885 l
385.861818 291.330885 l
382.254545 291.330885 l
378.647273 291.330885 l
375.04 291.330885 l
371.432727 291.330885 l
367.825455 291.330885 l
364.218182 291.330885 l
360.610909 291.330885 l
357.003636 291.330885 l
353.396364 291.330885 l
349.789091 291.330885 l
346.181818 291.330885 l
342.574545 291.330885 l
338.967273 291.213937 l
335.36 291.066555 l
331.752727 290.885651 l
328.145455 289.929285 l
324.538182 289.432123 l
320.930909 288.890878 l
317.323636 287.358071 l
313.716364 285.556823 l
310.109091 283.39183 l
306.501818 282.229678 l
302.894545 280.976553 l
299.287273 279.030518 l
295.68 277.041418 l
292.072727 273.431073 l
288.465455 271.369083 l
284.858182 269.24972 l
281.250909 266.053511 l
277.643636 263.302992 l
274.036364 260.433697 l
270.429091 256.71665 l
266.821818 253.545897 l
263.214545 249.496302 l
259.607273 246.022899 l
256 242.396442 l
252.392727 237.989218 l
248.785455 233.488367 l
245.178182 227.949322 l
241.570909 223.331416 l
237.963636 218.50063 l
234.356364 213.676882 l
230.749091 209.111154 l
227.141818 204.398521 l
223.534545 200.22729 l
219.927273 195.757629 l
216.32 191.502267 l
212.712727 187.345413 l
209.105455 183.072954 l
205.498182 179.453598 l
201.890909 175.028498 l
198.283636 170.524867 l
194.676364 167.109217 l
191.069091 163.584801 l
187.461818 160.246338 l
183.854545 157.131492 l
180.247273 153.904022 l
176.64 150.851467 l
173.032727 147.765493 l
169.425455 144.646723 l
165.818182 141.585578 l
162.210909 138.45896 l
158.603636 135.305007 l
154.996364 132.095089 l
151.389091 128.745859 l
147.781818 125.803378 l
144.174545 122.766485 l
140.567273 119.126333 l
136.96 116.678835 l
133.352727 114.099808 l
129.745455 111.57279 l
126.138182 109.594081 l
122.530909 107.474652 l
118.923636 105.690352 l
115.316364 103.590309 l
111.709091 100.205726 l
108.101818 97.68994 l
104.494545 94.284268 l
100.887273 91.754773 l
97.28 88.906515 l
93.672727 85.292216 l
90.065455 81.803004 l
86.458182 77.6658 l
82.850909 72.872976 l
79.243636 67.747374 l
75.636364 62.164267 l
72.029091 55.935496 l
68.421818 48.741763 l
64.814545 43.473502 l
61.207273 38.784327 l
57.6 31.270387 l
cl

gsave
0.000 0.000 1.000 setrgbcolor
fill
grestore
stroke
grestore
} bind def
0 0 o
grestore
0.800 setlinewidth
2 setlinecap
0.690 setgray
gsave
357.1 266.1 57.6 38.02 clipbox
57.6 38.016 m
57.6 304.128 l
stroke
grestore
0 setlinecap
0.000 setgray
gsave
/o {
gsave
newpath
translate
0.8 setlinewidth
1 setlinejoin
0 setlinecap
0 0 m
0 -3.5 l

gsave
0.000 setgray
fill
grestore
stroke
grestore
} bind def
57.6 38.016 o
grestore
/DejaVuSans findfont
12.000 scalefont
setfont
gsave
48.053125 21.891000 translate
0.000000 rotate
0.000000 0.000000 m /zero glyphshow
7.634766 0.000000 m /period glyphshow
11.449219 0.000000 m /zero glyphshow
grestore
2 setlinecap
0.690 setgray
gsave
357.1 266.1 57.6 38.02 clipbox
129.024 38.016 m
129.024 304.128 l
stroke
grestore
0 setlinecap
0.000 setgray
gsave
/o {
gsave
newpath
translate
0.8 setlinewidth
1 setlinejoin
0 setlinecap
0 0 m
0 -3.5 l

gsave
0.000 setgray
fill
grestore
stroke
grestore
} bind def
129.024 38.016 o
grestore
gsave
119.477125 21.891000 translate
0.000000 rotate
0.000000 0.000000 m /zero glyphshow
7.634766 0.000000 m /period glyphshow
11.449219 0.000000 m /two glyphshow
grestore
2 setlinecap
0.690 setgray
gsave
357.1 266.1 57.6 38.02 clipbox
200.448 38.016 m
200.448 304.128 l
stroke
grestore
0 setlinecap
0.000 setgray
gsave
/o {
gsave
newpath
translate
0.8 setlinewidth
1 setlinejoin
0 setlinecap
0 0 m
0 -3.5 l

gsave
0.000 setgray
fill
grestore
stroke
grestore
} bind def
200.448 38.016 o
grestore
gsave
190.901125 21.891000 translate
0.000000 rotate
0.000000 0.000000 m /zero glyphshow
7.634766 0.000000 m /period glyphshow
11.449219 0.000000 m /four glyphshow
grestore
2 setlinecap
0.690 setgray
gsave
357.1 266.1 57.6 38.02 clipbox
271.872 38.016 m
271.872 304.128 l
stroke
grestore
0 setlinecap
0.000 setgray
gsave
/o {
gsave
newpath
translate
0.8 setlinewidth
1 setlinejoin
0 setlinecap
0 0 m
0 -3.5 l

gsave
0.000 setgray
fill
grestore
stroke
grestore
} bind def
271.872 38.016 o
grestore
gsave
262.325125 21.891000 translate
0.000000 rotate
0.000000 0.000000 m /zero glyphshow
7.634766 0.000000 m /period glyphshow
11.449219 0.000000 m /six glyphshow
grestore
2 setlinecap
0.690 setgray
gsave
357.1 266.1 57.6 38.02 clipbox
343.296 38.016 m
343.296 304.128 l
stroke
grestore
0 setlinecap
0.000 setgray
gsave
/o {
gsave
newpath
translate
0.8 setlinewidth
1 setlinejoin
0 setlinecap
0 0 m
0 -3.5 l

gsave
0.000 setgray
fill
grestore
stroke
grestore
} bind def
343.296 38.016 o
grestore
gsave
333.749125 21.891000 translate
0.000000 rotate
0.000000 0.000000 m /zero glyphshow
7.634766 0.000000 m /period glyphshow
11.449219 0.000000 m /eight glyphshow
grestore
2 setlinecap
0.690 setgray
gsave
357.1 266.1 57.6 38.02 clipbox
414.72 38.016 m
414.72 304.128 l
stroke
grestore
0 setlinecap
0.000 setgray
gsave
/o {
gsave
newpath
translate
0.8 setlinewidth
1 setlinejoin
0 setlinecap
0 0 m
0 -3.5 l

gsave
0.000 setgray
fill
grestore
stroke
grestore
} bind def
414.72 38.016 o
grestore
gsave
405.173125 21.891000 translate
0.000000 rotate
0.000000 0.000000 m /one glyphshow
7.634766 0.000000 m /period glyphshow
11.449219 0.000000 m /zero glyphshow
grestore
gsave
224.042812 6.266000 translate
0.000000 rotate
0.000000 0.000000 m /F glyphshow
6.902344 0.000000 m /N glyphshow
15.878906 0.000000 m /R glyphshow
grestore
2 setlinecap
0.690 setgray
gsave
357.1 266.1 57.6 38.02 clipbox
57.6 38.016 m
414.72 38.016 l
stroke
grestore
0 setlinecap
0.000 setgray
gsave
/o {
gsave
newpath
translate
0.8 setlinewidth
1 setlinejoin
0 setlinecap
0 0 m
-3.5 0 l

gsave
0.000 setgray
fill
grestore
stroke
grestore
} bind def
57.6 38.016 o
grestore
gsave
31.506250 33.453500 translate
0.000000 rotate
0.000000 0.000000 m /zero glyphshow
7.634766 0.000000 m /period glyphshow
11.449219 0.000000 m /zero glyphshow
grestore
2 setlinecap
0.690 setgray
gsave
357.1 266.1 57.6 38.02 clipbox
57.6 91.2384 m
414.72 91.2384 l
stroke
grestore
0 setlinecap
0.000 setgray
gsave
/o {
gsave
newpath
translate
0.8 setlinewidth
1 setlinejoin
0 setlinecap
0 0 m
-3.5 0 l

gsave
0.000 setgray
fill
grestore
stroke
grestore
} bind def
57.6 91.2384 o
grestore
gsave
31.506250 86.675900 translate
0.000000 rotate
0.000000 0.000000 m /zero glyphshow
7.634766 0.000000 m /period glyphshow
11.449219 0.000000 m /two glyphshow
grestore
2 setlinecap
0.690 setgray
gsave
357.1 266.1 57.6 38.02 clipbox
57.6 144.4608 m
414.72 144.4608 l
stroke
grestore
0 setlinecap
0.000 setgray
gsave
/o {
gsave
newpath
translate
0.8 setlinewidth
1 setlinejoin
0 setlinecap
0 0 m
-3.5 0 l

gsave
0.000 setgray
fill
grestore
stroke
grestore
} bind def
57.6 144.461 o
grestore
gsave
31.506250 139.898300 translate
0.000000 rotate
0.000000 0.000000 m /zero glyphshow
7.634766 0.000000 m /period glyphshow
11.449219 0.000000 m /four glyphshow
grestore
2 setlinecap
0.690 setgray
gsave
357.1 266.1 57.6 38.02 clipbox
57.6 197.6832 m
414.72 197.6832 l
stroke
grestore
0 setlinecap
0.000 setgray
gsave
/o {
gsave
newpath
translate
0.8 setlinewidth
1 setlinejoin
0 setlinecap
0 0 m
-3.5 0 l

gsave
0.000 setgray
fill
grestore
stroke
grestore
} bind def
57.6 197.683 o
grestore
gsave
31.506250 193.120700 translate
0.000000 rotate
0.000000 0.000000 m /zero glyphshow
7.634766 0.000000 m /period glyphshow
11.449219 0.000000 m /six glyphshow
grestore
2 setlinecap
0.690 setgray
gsave
357.1 266.1 57.6 38.02 clipbox
57.6 250.9056 m
414.72 250.9056 l
stroke
grestore
0 setlinecap
0.000 setgray
gsave
/o {
gsave
newpath
translate
0.8 setlinewidth
1 setlinejoin
0 setlinecap
0 0 m
-3.5 0 l

gsave
0.000 setgray
fill
grestore
stroke
grestore
} bind def
57.6 250.906 o
grestore
gsave
31.506250 246.343100 translate
0.000000 rotate
0.000000 0.000000 m /zero glyphshow
7.634766 0.000000 m /period glyphshow
11.449219 0.000000 m /eight glyphshow
grestore
2 setlinecap
0.690 setgray
gsave
357.1 266.1 57.6 38.02 clipbox
57.6 304.128 m
414.72 304.128 l
stroke
grestore
0 setlinecap
0.000 setgray
gsave
/o {
gsave
newpath
translate
0.8 setlinewidth
1 setlinejoin
0 setlinecap
0 0 m
-3.5 0 l

gsave
0.000 setgray
fill
grestore
stroke
grestore
} bind def
57.6 304.128 o
grestore
gsave
31.506250 299.565500 translate
0.000000 rotate
0.000000 0.000000 m /one glyphshow
7.634766 0.000000 m /period glyphshow
11.449219 0.000000 m /zero glyphshow
grestore
gsave
25.006250 159.618875 translate
90.000000 rotate
0.000000 0.000000 m /T glyphshow
7.330078 0.000000 m /P glyphshow
14.566406 0.000000 m /R glyphshow
grestore
2.000 setlinewidth
2 setlinecap
0.750 0.000 0.750 setrgbcolor
gsave
357.1 266.1 57.6 38.02 clipbox
57.6 91.378459 m
61.207273 93.649819 l
64.814545 95.921179 l
68.421818 118.746897 l
72.029091 121.640977 l
75.636364 124.535057 l
79.243636 138.872589 l
82.850909 141.625549 l
86.458182 155.575091 l
90.065455 158.664051 l
93.672727 161.753011 l
97.28 175.206333 l
100.887273 178.658173 l
104.494545 182.110013 l
108.101818 197.16576 l
111.709091 201.67488 l
115.316364 212.778796 l
118.923636 216.750316 l
122.530909 220.721836 l
126.138182 233.089265 l
129.745455 237.417841 l
133.352727 246.847038 l
136.96 250.65907 l
140.567273 254.471102 l
144.174545 261.201595 l
147.781818 264.085371 l
151.389091 266.969147 l
154.996364 270.911853 l
158.603636 272.621869 l
162.210909 275.27476 l
165.818182 277.079752 l
169.425455 278.884744 l
173.032727 281.563336 l
176.64 282.938248 l
180.247273 285.135123 l
183.854545 286.370259 l
187.461818 287.605395 l
191.069091 289.341583 l
194.676364 290.331215 l
198.283636 291.320847 l
201.890909 292.827271 l
205.498182 293.693703 l
209.105455 294.995591 l
212.712727 295.688647 l
216.32 296.381703 l
219.927273 297.624808 l
223.534545 298.500648 l
227.141818 299.60544 l
230.749091 299.9952 l
234.356364 300.38496 l
237.963636 300.798299 l
241.570909 300.955099 l
245.178182 301.111899 l
248.785455 301.390838 l
252.392727 301.605878 l
256 301.870198 l
259.607273 302.013558 l
263.214545 302.156918 l
266.821818 302.372901 l
270.429091 302.417701 l
274.036364 302.462501 l
277.643636 302.507301 l
281.250909 302.552101 l
284.858182 302.662686 l
288.465455 302.698526 l
292.072727 302.734366 l
295.68 303.015309 l
299.287273 303.091469 l
302.894545 303.231764 l
306.501818 303.285524 l
310.109091 303.339284 l
313.716364 303.506577 l
317.323636 303.520017 l
320.930909 303.533457 l
324.538182 303.546897 l
328.145455 303.560337 l
331.752727 303.579789 l
335.36 303.606669 l
338.967273 303.633549 l
342.574545 303.777853 l
346.181818 303.777853 l
349.789091 303.777853 l
353.396364 303.777853 l
357.003636 303.777853 l
360.610909 304.057971 l
364.218182 304.057971 l
367.825455 304.057971 l
371.432727 304.057971 l
375.04 304.057971 l
378.647273 304.057971 l
382.254545 304.057971 l
385.861818 304.057971 l
389.469091 304.128 l
393.076364 304.128 l
396.683636 304.128 l
400.290909 304.128 l
403.898182 304.128 l
407.505455 304.128 l
411.112727 304.128 l
414.72 304.128 l
stroke
grestore
0 setlinecap
[2 3.3] 0 setdash
0.000 0.500 0.000 setrgbcolor
gsave
357.1 266.1 57.6 38.02 clipbox
57.6 62.806434 m
61.207273 65.794594 l
64.814545 68.782754 l
68.421818 91.683335 l
72.029091 95.442055 l
75.636364 99.200775 l
79.243636 110.900413 l
82.850909 114.605373 l
86.458182 127.400017 l
90.065455 130.648017 l
93.672727 133.896017 l
97.28 147.534316 l
100.887273 151.431916 l
104.494545 155.329516 l
108.101818 166.773086 l
111.709091 170.581086 l
115.316364 183.229541 l
118.923636 186.132581 l
122.530909 189.035621 l
126.138182 200.514796 l
129.745455 203.552236 l
133.352727 216.029507 l
136.96 218.977347 l
140.567273 221.925187 l
144.174545 234.244598 l
147.781818 236.282998 l
151.389091 238.321398 l
154.996364 249.720404 l
158.603636 251.364564 l
162.210909 258.560977 l
165.818182 260.263377 l
169.425455 261.965777 l
173.032727 269.971773 l
176.64 271.105213 l
180.247273 275.129785 l
183.854545 275.882425 l
187.461818 276.635065 l
191.069091 280.93728 l
194.676364 281.5152 l
198.283636 282.09312 l
201.890909 284.858285 l
205.498182 285.225839 l
209.105455 287.435575 l
212.712727 287.64918 l
216.32 287.862786 l
219.927273 289.416956 l
223.534545 289.644641 l
227.141818 290.154426 l
230.749091 290.400927 l
234.356364 290.647429 l
237.963636 291.429291 l
241.570909 291.626041 l
245.178182 291.822791 l
248.785455 292.669063 l
252.392727 292.809066 l
256 293.707264 l
259.607273 293.805367 l
263.214545 293.903469 l
266.821818 294.552316 l
270.429091 294.738899 l
274.036364 295.135286 l
277.643636 295.318285 l
281.250909 295.501283 l
284.858182 295.827069 l
288.465455 296.015827 l
292.072727 296.204585 l
295.68 296.616899 l
299.287273 296.821165 l
302.894545 297.021894 l
306.501818 297.21272 l
310.109091 297.403546 l
313.716364 297.67244 l
317.323636 297.875484 l
320.930909 298.14884 l
324.538182 298.357261 l
328.145455 298.565681 l
331.752727 298.782118 l
335.36 299.008458 l
338.967273 299.234798 l
342.574545 299.466797 l
346.181818 299.699857 l
349.789091 299.932917 l
353.396364 300.165978 l
357.003636 300.399038 l
360.610909 300.632098 l
364.218182 300.865158 l
367.825455 301.098218 l
371.432727 301.331278 l
375.04 301.564338 l
378.647273 301.797399 l
382.254545 302.030459 l
385.861818 302.263519 l
389.469091 302.496579 l
393.076364 302.729639 l
396.683636 302.962699 l
400.290909 303.195759 l
403.898182 303.42882 l
407.505455 303.66188 l
411.112727 303.89494 l
414.72 304.128 l
stroke
grestore
[12.8 3.2 2 3.2] 0 setdash
1.000 0.000 0.000 setrgbcolor
gsave
357.1 266.1 57.6 38.02 clipbox
57.6 41.5008 m
61.207273 43.3824 l
64.814545 59.3952 l
68.421818 70.416 l
72.029091 83.04064 l
75.636364 94.11968 l
79.243636 97.36512 l
82.850909 100.78336 l
86.458182 107.3024 l
90.065455 114.92064 l
93.672727 120.62368 l
97.28 127.93792 l
100.887273 134.21376 l
104.494545 137.7184 l
108.101818 140.53184 l
111.709091 145.58208 l
115.316364 150.79072 l
118.923636 157.26176 l
122.530909 164.9952 l
126.138182 170.78464 l
129.745455 173.06048 l
133.352727 176.66112 l
136.96 183.216 l
140.567273 190.308 l
144.174545 195.3288 l
147.781818 197.5608 l
151.389091 202.4568 l
154.996364 203.868 l
158.603636 205.4592 l
162.210909 208.7232 l
165.818182 211.6368 l
169.425455 215.0352 l
173.032727 217.7136 l
176.64 221.9184 l
180.247273 222.5456 l
183.854545 224.7568 l
187.461818 227.3136 l
191.069091 229.896 l
194.676364 231.2976 l
198.283636 234.2736 l
201.890909 235.752 l
205.498182 239.0992 l
209.105455 240.4944 l
212.712727 242.2064 l
216.32 244.6752 l
219.927273 246.2112 l
223.534545 247.4544 l
227.141818 248.3952 l
230.749091 250.2864 l
234.356364 252.9456 l
237.963636 255.9216 l
241.570909 258.5808 l
245.178182 259.7712 l
248.785455 260.8464 l
252.392727 262.296 l
256 263.6304 l
259.607273 265.2576 l
263.214545 267.8688 l
266.821818 269.5488 l
270.429091 271.2896 l
274.036364 272.8128 l
277.643636 274.096 l
281.250909 275.264 l
284.858182 276.946126 l
288.465455 277.810085 l
292.072727 279.869244 l
295.68 281.309203 l
299.287273 282.531561 l
302.894545 284.3952 l
306.501818 284.953239 l
310.109091 285.507277 l
313.716364 286.241316 l
317.323636 286.994555 l
320.930909 287.907794 l
324.538182 288.721832 l
328.145455 289.338271 l
331.752727 290.00511 l
335.36 290.513548 l
338.967273 290.834787 l
342.574545 291.372026 l
346.181818 292.038865 l
349.789091 292.579532 l
353.396364 293.007971 l
357.003636 294.094009 l
360.610909 294.700048 l
364.218182 295.760487 l
367.825455 296.235325 l
371.432727 297.026964 l
375.04 298.135403 l
378.647273 298.726813 l
382.254545 299.336052 l
385.861818 300.11809 l
389.469091 300.391329 l
393.076364 300.789368 l
396.683636 301.187406 l
400.290909 301.489445 l
403.898182 302.554684 l
407.505455 303.035923 l
411.112727 303.368361 l
414.72 304.128 l
stroke
grestore
[7.4 3.2] 0 setdash
0.000 0.000 1.000 setrgbcolor
gsave
357.1 266.1 57.6 38.02 clipbox
57.6 46.279478 m
61.207273 54.31167 l
64.814545 62.343862 l
68.421818 71.235304 l
72.029091 77.718696 l
75.636364 84.202088 l
79.243636 90.230996 l
82.850909 94.896852 l
86.458182 99.658132 l
90.065455 103.321364 l
93.672727 106.984596 l
97.28 110.921332 l
100.887273 113.72642 l
104.494545 116.531508 l
108.101818 119.757823 l
111.709091 122.348223 l
115.316364 126.333027 l
118.923636 129.096718 l
122.530909 131.860408 l
126.138182 134.735756 l
129.745455 137.462231 l
133.352727 140.693752 l
136.96 143.957734 l
140.567273 147.221715 l
144.174545 150.835326 l
147.781818 154.225091 l
151.389091 157.614856 l
154.996364 161.294319 l
158.603636 164.915956 l
162.210909 168.520587 l
165.818182 172.092516 l
169.425455 175.664446 l
173.032727 179.225185 l
176.64 182.781928 l
180.247273 186.372693 l
183.854545 190.188008 l
187.461818 194.003324 l
191.069091 197.939296 l
194.676364 201.983859 l
198.283636 206.028423 l
201.890909 210.359313 l
205.498182 214.638714 l
209.105455 219.555595 l
212.712727 223.414324 l
216.32 227.273053 l
219.927273 231.23919 l
223.534545 234.953407 l
227.141818 239.078847 l
230.749091 242.708008 l
234.356364 246.337169 l
237.963636 250.621297 l
241.570909 254.299863 l
245.178182 257.978429 l
248.785455 263.374363 l
252.392727 266.546026 l
256 270.680618 l
259.607273 272.824206 l
263.214545 274.967794 l
266.821818 278.360659 l
270.429091 279.976045 l
274.036364 282.546459 l
277.643636 283.840306 l
281.250909 285.134154 l
284.858182 287.120251 l
288.465455 287.953595 l
292.072727 288.786939 l
295.68 290.762097 l
299.287273 291.378097 l
302.894545 292.141701 l
306.501818 292.520261 l
310.109091 292.898821 l
313.716364 293.654821 l
317.323636 293.968421 l
320.930909 294.342383 l
324.538182 294.472303 l
328.145455 294.602223 l
331.752727 294.90816 l
335.36 294.96192 l
338.967273 295.01568 l
342.574545 295.094198 l
346.181818 295.094198 l
349.789091 295.094198 l
353.396364 295.094198 l
357.003636 295.094198 l
360.610909 295.094198 l
364.218182 295.094198 l
367.825455 295.094198 l
371.432727 295.094198 l
375.04 295.094198 l
378.647273 295.094198 l
382.254545 295.094198 l
385.861818 295.094198 l
389.469091 295.094198 l
393.076364 295.094198 l
396.683636 295.094198 l
400.290909 295.094198 l
403.898182 295.094198 l
407.505455 295.094198 l
411.112727 295.094198 l
414.72 295.094198 l
stroke
grestore
0.800 setlinewidth
0 setlinejoin
2 setlinecap
[] 0 setdash
0.000 setgray
gsave
57.6 38.016 m
57.6 304.128 l
stroke
grestore
gsave
414.72 38.016 m
414.72 304.128 l
stroke
grestore
gsave
57.6 38.016 m
414.72 38.016 l
stroke
grestore
gsave
57.6 304.128 m
414.72 304.128 l
stroke
grestore
1.000 setlinewidth
0 setlinecap
0.800 setgray
gsave
343.63875 44.016 m
406.32 44.016 l
407.92 44.016 408.72 44.816 408.72 46.416 c
408.72 115.716 l
408.72 117.316 407.92 118.116 406.32 118.116 c
343.63875 118.116 l
342.03875 118.116 341.23875 117.316 341.23875 115.716 c
341.23875 46.416 l
341.23875 44.816 342.03875 44.016 343.63875 44.016 c
cl
gsave
1.000 setgray
fill
grestore
stroke
grestore
2.000 setlinewidth
1 setlinejoin
2 setlinecap
[] 0 setdash
0.750 0.000 0.750 setrgbcolor
gsave
346.03875 108.391 m
370.03875 108.391 l
stroke
grestore
0.000 setgray
gsave
379.638750 104.191000 translate
0.000000 rotate
0.000000 0.000000 m /R glyphshow
8.337891 0.000000 m /T glyphshow
15.667969 0.000000 m /x glyphshow
grestore
0 setlinecap
[2 3.3] 0 setdash
0.000 0.500 0.000 setrgbcolor
gsave
346.03875 90.766 m
370.03875 90.766 l
stroke
grestore
0.000 setgray
gsave
379.638750 86.566000 translate
0.000000 rotate
0.000000 0.000000 m /G glyphshow
9.298828 0.000000 m /A glyphshow
grestore
[12.8 3.2 2 3.2] 0 setdash
1.000 0.000 0.000 setrgbcolor
gsave
346.03875 73.141 m
370.03875 73.141 l
stroke
grestore
0.000 setgray
gsave
379.638750 68.941000 translate
0.000000 rotate
0.000000 0.000000 m /M glyphshow
10.353516 0.000000 m /L glyphshow
17.039062 0.000000 m /P glyphshow
grestore
[7.4 3.2] 0 setdash
0.000 0.000 1.000 setrgbcolor
gsave
346.03875 55.516 m
370.03875 55.516 l
stroke
grestore
0.000 setgray
gsave
379.638750 51.316000 translate
0.000000 rotate
0.000000 0.000000 m /T glyphshow
7.330078 0.000000 m /T glyphshow
14.660156 0.000000 m /C glyphshow
grestore

end
showpage
