%!PS-Adobe-3.0 EPSF-3.0
%%Title: ./Model_fit_results/lanechange_clustering.eps
%%Creator: matplotlib version 3.0.3, http://matplotlib.org/
%%CreationDate: Fri Nov 12 16:06:11 2021
%%Orientation: portrait
%%BoundingBox: 75 223 536 568
%%EndComments
%%BeginProlog
/mpldict 9 dict def
mpldict begin
/m { moveto } bind def
/l { lineto } bind def
/r { rlineto } bind def
/c { curveto } bind def
/cl { closepath } bind def
/box {
m
1 index 0 r
0 exch r
neg 0 r
cl
} bind def
/clipbox {
box
clip
newpath
} bind def
%!PS-Adobe-3.0 Resource-Font
%%Title: DejaVu Sans
%%Copyright: Copyright (c) 2003 by Bitstream, Inc. All Rights Reserved. Copyright (c) 2006 by Tavmjong Bah. All Rights Reserved. DejaVu changes are in public domain 
%%Creator: Converted from TrueType to type 3 by PPR
25 dict begin
/_d{bind def}bind def
/_m{moveto}_d
/_l{lineto}_d
/_cl{closepath eofill}_d
/_c{curveto}_d
/_sc{7 -1 roll{setcachedevice}{pop pop pop pop pop pop}ifelse}_d
/_e{exec}_d
/FontName /DejaVuSans def
/PaintType 0 def
/FontMatrix[.001 0 0 .001 0 0]def
/FontBBox[-1021 -463 1793 1232]def
/FontType 3 def
/Encoding [ /space /one /two /three /c /e /l /r /s /t /u /uni0394 ] def
/FontInfo 10 dict dup begin
/FamilyName (DejaVu Sans) def
/FullName (DejaVu Sans) def
/Notice (Copyright (c) 2003 by Bitstream, Inc. All Rights Reserved. Copyright (c) 2006 by Tavmjong Bah. All Rights Reserved. DejaVu changes are in public domain ) def
/Weight (Book) def
/Version (Version 2.35) def
/ItalicAngle 0.0 def
/isFixedPitch false def
/UnderlinePosition -130 def
/UnderlineThickness 90 def
end readonly def
/CharStrings 13 dict dup begin
/.notdef 0 def
/space{318 0 0 0 0 0 _sc
}_d
/one{636 0 110 0 544 729 _sc
124 83 _m
285 83 _l
285 639 _l
110 604 _l
110 694 _l
284 729 _l
383 729 _l
383 83 _l
544 83 _l
544 0 _l
124 0 _l
124 83 _l
_cl}_d
/two{{636 0 73 0 536 742 _sc
192 83 _m
536 83 _l
536 0 _l
73 0 _l
73 83 _l
110 121 161 173 226 239 _c
290 304 331 346 348 365 _c
380 400 402 430 414 455 _c
426 479 433 504 433 528 _c
433 566 419 598 392 622 _c
365 646 330 659 286 659 _c
255 659 222 653 188 643 _c
154 632 117 616 78 594 _c
78 694 _l
118 710 155 722 189 730 _c
223 738 255 742 284 742 _c
}_e{359 742 419 723 464 685 _c
509 647 532 597 532 534 _c
532 504 526 475 515 449 _c
504 422 484 390 454 354 _c
446 344 420 317 376 272 _c
332 227 271 164 192 83 _c
_cl}_e}_d
/three{{636 0 76 -13 556 742 _sc
406 393 _m
453 383 490 362 516 330 _c
542 298 556 258 556 212 _c
556 140 531 84 482 45 _c
432 6 362 -13 271 -13 _c
240 -13 208 -10 176 -4 _c
144 1 110 10 76 22 _c
76 117 _l
103 101 133 89 166 81 _c
198 73 232 69 268 69 _c
330 69 377 81 409 105 _c
441 129 458 165 458 212 _c
458 254 443 288 413 312 _c
383 336 341 349 287 349 _c
}_e{202 349 _l
202 430 _l
291 430 _l
339 430 376 439 402 459 _c
428 478 441 506 441 543 _c
441 580 427 609 401 629 _c
374 649 336 659 287 659 _c
260 659 231 656 200 650 _c
169 644 135 635 98 623 _c
98 711 _l
135 721 170 729 203 734 _c
235 739 266 742 296 742 _c
370 742 429 725 473 691 _c
517 657 539 611 539 553 _c
539 513 527 479 504 451 _c
481 423 448 403 406 393 _c
_cl}_e}_d
/c{{550 0 55 -13 488 560 _sc
488 526 _m
488 442 _l
462 456 437 466 411 473 _c
385 480 360 484 334 484 _c
276 484 230 465 198 428 _c
166 391 150 339 150 273 _c
150 206 166 154 198 117 _c
230 80 276 62 334 62 _c
360 62 385 65 411 72 _c
437 79 462 90 488 104 _c
488 21 _l
462 9 436 0 410 -5 _c
383 -10 354 -13 324 -13 _c
242 -13 176 12 128 64 _c
}_e{79 115 55 185 55 273 _c
55 362 79 432 128 483 _c
177 534 244 560 330 560 _c
358 560 385 557 411 551 _c
437 545 463 537 488 526 _c
_cl}_e}_d
/e{{615 0 55 -13 562 560 _sc
562 296 _m
562 252 _l
149 252 _l
153 190 171 142 205 110 _c
238 78 284 62 344 62 _c
378 62 412 66 444 74 _c
476 82 509 95 541 113 _c
541 28 _l
509 14 476 3 442 -3 _c
408 -9 373 -13 339 -13 _c
251 -13 182 12 131 62 _c
80 112 55 181 55 268 _c
55 357 79 428 127 481 _c
175 533 241 560 323 560 _c
397 560 455 536 498 489 _c
}_e{540 441 562 377 562 296 _c
472 322 _m
471 371 457 410 431 440 _c
404 469 368 484 324 484 _c
274 484 234 469 204 441 _c
174 413 156 373 152 322 _c
472 322 _l
_cl}_e}_d
/l{278 0 94 0 184 760 _sc
94 760 _m
184 760 _l
184 0 _l
94 0 _l
94 760 _l
_cl}_d
/r{411 0 91 0 411 560 _sc
411 463 _m
401 469 390 473 378 476 _c
366 478 353 480 339 480 _c
288 480 249 463 222 430 _c
194 397 181 350 181 288 _c
181 0 _l
91 0 _l
91 547 _l
181 547 _l
181 462 _l
199 495 224 520 254 536 _c
284 552 321 560 365 560 _c
371 560 378 559 386 559 _c
393 558 401 557 411 555 _c
411 463 _l
_cl}_d
/s{{521 0 54 -13 472 560 _sc
443 531 _m
443 446 _l
417 458 391 468 364 475 _c
336 481 308 485 279 485 _c
234 485 200 478 178 464 _c
156 450 145 430 145 403 _c
145 382 153 366 169 354 _c
185 342 217 330 265 320 _c
296 313 _l
360 299 405 279 432 255 _c
458 230 472 195 472 151 _c
472 100 452 60 412 31 _c
372 1 316 -13 246 -13 _c
216 -13 186 -10 154 -5 _c
}_e{122 0 89 8 54 20 _c
54 113 _l
87 95 120 82 152 74 _c
184 65 216 61 248 61 _c
290 61 323 68 346 82 _c
368 96 380 117 380 144 _c
380 168 371 187 355 200 _c
339 213 303 226 247 238 _c
216 245 _l
160 257 119 275 95 299 _c
70 323 58 356 58 399 _c
58 450 76 490 112 518 _c
148 546 200 560 268 560 _c
301 560 332 557 362 552 _c
391 547 418 540 443 531 _c
}_e{_cl}_e}_d
/t{392 0 27 0 368 702 _sc
183 702 _m
183 547 _l
368 547 _l
368 477 _l
183 477 _l
183 180 _l
183 135 189 106 201 94 _c
213 81 238 75 276 75 _c
368 75 _l
368 0 _l
276 0 _l
206 0 158 13 132 39 _c
106 65 93 112 93 180 _c
93 477 _l
27 477 _l
27 547 _l
93 547 _l
93 702 _l
183 702 _l
_cl}_d
/u{634 0 85 -13 543 560 _sc
85 216 _m
85 547 _l
175 547 _l
175 219 _l
175 167 185 129 205 103 _c
225 77 255 64 296 64 _c
344 64 383 79 411 110 _c
439 141 453 183 453 237 _c
453 547 _l
543 547 _l
543 0 _l
453 0 _l
453 84 _l
431 50 405 26 377 10 _c
348 -5 315 -13 277 -13 _c
214 -13 166 6 134 45 _c
101 83 85 140 85 216 _c
311 560 _m
311 560 _l
_cl}_d
/uni0394{684 0 8 0 676 729 _sc
342 632 _m
142 82 _l
542 82 _l
342 632 _l
8 0 _m
286 729 _l
398 729 _l
676 0 _l
8 0 _l
_cl}_d
end readonly def

/BuildGlyph
 {exch begin
 CharStrings exch
 2 copy known not{pop /.notdef}if
 true 3 1 roll get exec
 end}_d

/BuildChar {
 1 index /Encoding get exch get
 1 index /BuildGlyph get exec
}_d

FontName currentdict end definefont pop
%!PS-Adobe-3.0 Resource-Font
%%Title: DejaVu Sans Oblique
%%Copyright: Copyright (c) 2003 by Bitstream, Inc. All Rights Reserved. Copyright (c) 2006 by Tavmjong Bah. All Rights Reserved. DejaVu changes are in public domain 
%%Creator: Converted from TrueType to type 3 by PPR
25 dict begin
/_d{bind def}bind def
/_m{moveto}_d
/_l{lineto}_d
/_cl{closepath eofill}_d
/_c{curveto}_d
/_sc{7 -1 roll{setcachedevice}{pop pop pop pop pop pop}ifelse}_d
/_e{exec}_d
/FontName /DejaVuSans-Oblique def
/PaintType 0 def
/FontMatrix[.001 0 0 .001 0 0]def
/FontBBox[-1016 -350 1659 1068]def
/FontType 3 def
/Encoding [ /c /p /x ] def
/FontInfo 10 dict dup begin
/FamilyName (DejaVu Sans) def
/FullName (DejaVu Sans Oblique) def
/Notice (Copyright (c) 2003 by Bitstream, Inc. All Rights Reserved. Copyright (c) 2006 by Tavmjong Bah. All Rights Reserved. DejaVu changes are in public domain ) def
/Weight (Oblique) def
/Version (Version 2.35) def
/ItalicAngle -11.0 def
/isFixedPitch false def
/UnderlinePosition -130 def
/UnderlineThickness 90 def
end readonly def
/CharStrings 4 dict dup begin
/.notdef 0 def
/c{{550 0 46 -13 536 560 _sc
536 526 _m
518 437 _l
496 452 473 464 449 472 _c
425 480 400 484 374 484 _c
345 484 318 479 292 469 _c
266 459 244 444 227 426 _c
199 397 177 364 162 326 _c
146 288 139 248 139 208 _c
139 158 151 122 176 98 _c
200 74 238 62 288 62 _c
312 62 339 65 367 73 _c
395 80 424 91 454 107 _c
437 18 _l
411 7 384 0 356 -5 _c
}_e{328 -10 300 -13 272 -13 _c
199 -13 143 5 104 41 _c
65 77 46 128 46 196 _c
46 252 56 304 76 352 _c
96 400 127 443 167 481 _c
194 507 226 526 263 540 _c
299 553 340 560 384 560 _c
409 560 434 557 459 551 _c
484 545 510 537 536 526 _c
_cl}_e}_d
/p{{635 0 -2 -207 589 560 _sc
496 337 _m
496 385 485 421 465 447 _c
444 472 414 485 375 485 _c
348 485 322 478 298 464 _c
274 450 252 431 234 405 _c
215 379 200 347 189 311 _c
178 275 173 239 173 203 _c
173 157 183 122 204 98 _c
224 73 254 61 293 61 _c
321 61 347 67 371 81 _c
395 94 416 113 434 139 _c
452 165 467 197 479 233 _c
490 269 496 304 496 337 _c
218 464 _m
}_e{242 495 270 519 303 535 _c
335 551 372 560 412 560 _c
468 560 511 541 542 505 _c
573 468 589 417 589 351 _c
589 297 579 245 560 196 _c
540 147 513 103 477 65 _c
453 39 425 19 395 6 _c
365 -6 333 -13 300 -13 _c
261 -13 228 -5 202 10 _c
176 26 156 50 143 82 _c
87 -207 _l
-2 -207 _l
144 547 _l
234 547 _l
218 464 _l
_cl}_e}_d
/x{592 0 -25 0 600 547 _sc
600 547 _m
349 279 _l
503 0 _l
400 0 _l
284 217 _l
83 0 _l
-25 0 _l
243 288 _l
100 547 _l
203 547 _l
308 349 _l
491 547 _l
600 547 _l
_cl}_d
end readonly def

/BuildGlyph
 {exch begin
 CharStrings exch
 2 copy known not{pop /.notdef}if
 true 3 1 roll get exec
 end}_d

/BuildChar {
 1 index /Encoding get exch get
 1 index /BuildGlyph get exec
}_d

FontName currentdict end definefont pop
end
%%EndProlog
mpldict begin
75.6 223.2 translate
460.8 345.6 0 0 clipbox
gsave
0 0 m
460.8 0 l
460.8 345.6 l
0 345.6 l
cl
1.000 setgray
fill
grestore
gsave
57.6 38.016 m
414.72 38.016 l
414.72 304.128 l
57.6 304.128 l
cl
1.000 setgray
fill
grestore
1.000 setlinewidth
0 setlinejoin
0 setlinecap
[] 0 setdash
0.950 setgray
gsave
104.941774 96.817374 m
207.151387 162.062006 l
205.449705 286.733791 l
97.541237 228.11283 l
gsave
fill
grestore
stroke
grestore
0.900 setgray
gsave
207.151387 162.062006 m
372.72135 125.586046 l
379.648599 254.017258 l
205.449705 286.733791 l
gsave
fill
grestore
stroke
grestore
0.925 setgray
gsave
104.941774 96.817374 m
279.143747 54.335175 l
372.72135 125.586046 l
207.151387 162.062006 l
gsave
fill
grestore
stroke
grestore
0.800 setlinewidth
1 setlinejoin
2 setlinecap
[] 0 setdash
0.000 setgray
gsave
104.941774 96.817374 m
279.143747 54.335175 l
stroke
grestore
gsave
151.531206 45.512123 translate
346.294929 rotate
/DejaVuSans findfont
20.0 scalefont
setfont
0.000000 0.501563 moveto
/uni0394 glyphshow

/DejaVuSans-Oblique findfont
20.0 scalefont
setfont
13.681641 0.501563 moveto
/x glyphshow

/DejaVuSans-Oblique findfont
14.0 scalefont
setfont
26.410807 8.157813 moveto
/c glyphshow

/DejaVuSans findfont
14.0 scalefont
setfont
25.517578 -4.967187 moveto
/two glyphshow

34.424805 -4.967187 moveto
/one glyphshow


grestore
0 setlinecap
0.690 setgray
gsave
119.296806 93.316648 m
220.837148 159.046959 l
219.819973 284.034891 l
stroke
grestore
gsave
140.616765 88.117403 m
241.149137 154.572118 l
241.157421 280.027476 l
stroke
grestore
gsave
162.181248 82.858527 m
261.677119 150.049692 l
262.733349 275.975271 l
stroke
grestore
gsave
183.994488 77.538986 m
282.424557 145.478919 l
284.551776 271.877523 l
stroke
grestore
gsave
206.060812 72.157727 m
303.394988 140.859019 l
306.616814 267.733458 l
stroke
grestore
gsave
228.384652 66.713668 m
324.592028 136.189197 l
328.932668 263.542287 l
stroke
grestore
gsave
250.970541 61.205704 m
346.019369 131.468637 l
351.503638 259.303202 l
stroke
grestore
gsave
273.823121 55.632703 m
367.680786 126.69651 l
374.334126 255.015376 l
stroke
grestore
2 setlinecap
0.000 setgray
gsave
120.171691 93.882989 m
117.54377 92.181852 l
stroke
grestore
gsave
141.483318 88.690219 m
138.880405 86.969621 l
stroke
grestore
gsave
163.03922 83.437929 m
160.462064 81.697534 l
stroke
grestore
gsave
184.843623 78.12509 m
182.292993 76.364554 l
stroke
grestore
gsave
206.900847 72.750648 m
204.377534 70.96962 l
stroke
grestore
gsave
229.215315 67.313527 m
226.720133 65.511647 l
stroke
grestore
gsave
251.791555 61.812622 m
249.325339 59.989522 l
stroke
grestore
gsave
274.634199 56.246806 m
272.197811 54.402108 l
stroke
grestore
gsave
372.72135 125.586046 m
279.143747 54.335175 l
stroke
grestore
gsave
339.888462 48.489696 translate
37.285988 rotate
/DejaVuSans findfont
20.0 scalefont
setfont
0.000000 0.501563 moveto
/uni0394 glyphshow

/DejaVuSans-Oblique findfont
20.0 scalefont
setfont
13.681641 0.501563 moveto
/x glyphshow

/DejaVuSans-Oblique findfont
14.0 scalefont
setfont
26.410807 8.157813 moveto
/c glyphshow

/DejaVuSans findfont
14.0 scalefont
setfont
25.517578 -4.967187 moveto
/three glyphshow

34.424805 -4.967187 moveto
/one glyphshow


grestore
0 setlinecap
0.690 setgray
gsave
101.7889 230.420361 m
108.950064 99.376031 l
282.825364 57.138393 l
stroke
grestore
gsave
117.028854 238.699422 m
123.341303 108.562555 l
296.035738 67.196896 l
stroke
grestore
gsave
131.946534 246.803408 m
137.443557 117.564609 l
308.968728 77.044197 l
stroke
grestore
gsave
146.552056 254.737814 m
151.265443 126.387692 l
321.632982 86.68688 l
stroke
grestore
gsave
160.855114 262.507909 m
164.815242 135.03709 l
334.036788 96.131255 l
stroke
grestore
gsave
174.86501 270.118744 m
178.100907 143.517881 l
346.1881 105.383379 l
stroke
grestore
gsave
188.590664 277.575166 m
191.130089 151.834948 l
358.09455 114.449062 l
stroke
grestore
gsave
202.04064 284.881826 m
203.910144 159.992987 l
369.763464 123.333884 l
stroke
grestore
2 setlinecap
0.000 setgray
gsave
281.370041 57.491919 m
285.739272 56.430549 l
stroke
grestore
gsave
294.590975 67.542961 m
298.928465 66.503998 l
stroke
grestore
gsave
307.534407 77.383036 m
311.840517 76.365778 l
stroke
grestore
gsave
320.208981 87.018715 m
324.484073 86.022489 l
stroke
grestore
gsave
332.62299 96.456302 m
336.867421 95.480462 l
stroke
grestore
gsave
344.784385 105.701844 m
348.998513 104.745771 l
stroke
grestore
gsave
356.700802 114.761144 m
360.884979 113.824243 l
stroke
grestore
gsave
368.379566 123.639772 m
372.534143 122.721472 l
stroke
grestore
gsave
372.72135 125.586046 m
379.648599 254.017258 l
stroke
grestore
gsave
421.739535 180.943828 translate
86.912605 rotate
/DejaVuSans-Oblique findfont
20.0 scalefont
setfont
0.000000 0.501563 moveto
/p glyphshow

/DejaVuSans-Oblique findfont
14.0 scalefont
setfont
13.625729 8.157813 moveto
/c glyphshow


grestore
0 setlinecap
0.690 setgray
gsave
372.853105 128.028789 m
207.118952 164.438318 l
104.801255 99.31038 l
stroke
grestore
gsave
374.131495 151.73014 m
206.804383 187.48487 l
103.437349 123.507903 l
stroke
grestore
gsave
375.434914 175.895536 m
206.483915 210.963567 l
102.045847 148.195012 l
stroke
grestore
gsave
376.764105 200.538741 m
206.157382 234.886676 l
100.625903 173.386716 l
stroke
grestore
gsave
378.11984 225.674067 m
205.824608 259.266938 l
99.176637 199.098646 l
stroke
grestore
gsave
379.502921 251.316404 m
205.485415 284.117582 l
97.69713 225.347086 l
stroke
grestore
2 setlinecap
0.000 setgray
gsave
371.47029 128.332575 m
375.621611 127.420586 l
stroke
grestore
gsave
372.734832 152.028581 m
376.927754 151.132631 l
stroke
grestore
gsave
374.024123 176.188365 m
378.259488 175.309258 l
stroke
grestore
gsave
375.338898 200.825675 m
379.617572 199.964258 l
stroke
grestore
gsave
376.679919 225.954812 m
381.002797 225.111969 l
stroke
grestore
gsave
378.04798 251.590651 m
382.415984 250.767311 l
stroke
grestore
/p0_0 {
newpath
translate
0 -2.236068 m
0.593012 -2.236068 1.161816 -2.000462 1.581139 -1.581139 c
2.000462 -1.161816 2.236068 -0.593012 2.236068 0 c
2.236068 0.593012 2.000462 1.161816 1.581139 1.581139 c
1.161816 2.000462 0.593012 2.236068 0 2.236068 c
-0.593012 2.236068 -1.161816 2.000462 -1.581139 1.581139 c
-2.000462 1.161816 -2.236068 0.593012 -2.236068 0 c
-2.236068 -0.593012 -2.000462 -1.161816 -1.581139 -1.581139 c
-1.161816 -2.000462 -0.593012 -2.236068 0 -2.236068 c
cl

} bind def
1.000 setlinewidth
0 setlinecap
0.000 0.000 1.000 setrgbcolor
gsave
357.1 266.1 57.6 38.02 clipbox
236.17 229.483 p0_0
gsave
fill
grestore
stroke
grestore
gsave
357.1 266.1 57.6 38.02 clipbox
230.481 219.135 p0_0
gsave
fill
grestore
stroke
grestore
gsave
357.1 266.1 57.6 38.02 clipbox
252.744 239.45 p0_0
gsave
fill
grestore
stroke
grestore
gsave
357.1 266.1 57.6 38.02 clipbox
209.546 253.033 p0_0
gsave
fill
grestore
stroke
grestore
gsave
357.1 266.1 57.6 38.02 clipbox
201.468 241.209 p0_0
gsave
fill
grestore
stroke
grestore
gsave
357.1 266.1 57.6 38.02 clipbox
208.223 261.1 p0_0
gsave
fill
grestore
stroke
grestore
gsave
357.1 266.1 57.6 38.02 clipbox
214.187 255.946 p0_0
gsave
fill
grestore
stroke
grestore
gsave
357.1 266.1 57.6 38.02 clipbox
203.818 229.163 p0_0
gsave
fill
grestore
stroke
grestore
gsave
357.1 266.1 57.6 38.02 clipbox
204.981 238.288 p0_0
gsave
fill
grestore
stroke
grestore
gsave
357.1 266.1 57.6 38.02 clipbox
218.342 255.483 p0_0
gsave
fill
grestore
stroke
grestore
gsave
357.1 266.1 57.6 38.02 clipbox
234.442 253.843 p0_0
gsave
fill
grestore
stroke
grestore
gsave
357.1 266.1 57.6 38.02 clipbox
199.519 256.929 p0_0
gsave
fill
grestore
stroke
grestore
gsave
357.1 266.1 57.6 38.02 clipbox
224.479 249.158 p0_0
gsave
fill
grestore
stroke
grestore
gsave
357.1 266.1 57.6 38.02 clipbox
215.296 244.251 p0_0
gsave
fill
grestore
stroke
grestore
gsave
357.1 266.1 57.6 38.02 clipbox
228.804 229.254 p0_0
gsave
fill
grestore
stroke
grestore
gsave
357.1 266.1 57.6 38.02 clipbox
227.125 240.252 p0_0
gsave
fill
grestore
stroke
grestore
gsave
357.1 266.1 57.6 38.02 clipbox
238.531 251.019 p0_0
gsave
fill
grestore
stroke
grestore
gsave
357.1 266.1 57.6 38.02 clipbox
214.43 243.757 p0_0
gsave
fill
grestore
stroke
grestore
gsave
357.1 266.1 57.6 38.02 clipbox
224.729 245.261 p0_0
gsave
fill
grestore
stroke
grestore
gsave
357.1 266.1 57.6 38.02 clipbox
216.637 248.538 p0_0
gsave
fill
grestore
stroke
grestore
gsave
357.1 266.1 57.6 38.02 clipbox
220.804 240.109 p0_0
gsave
fill
grestore
stroke
grestore
gsave
357.1 266.1 57.6 38.02 clipbox
221.28 259.785 p0_0
gsave
fill
grestore
stroke
grestore
gsave
357.1 266.1 57.6 38.02 clipbox
216.803 216.407 p0_0
gsave
fill
grestore
stroke
grestore
/p1_0 {
newpath
translate
0 -2.236068 m
0.593012 -2.236068 1.161816 -2.000462 1.581139 -1.581139 c
2.000462 -1.161816 2.236068 -0.593012 2.236068 0 c
2.236068 0.593012 2.000462 1.161816 1.581139 1.581139 c
1.161816 2.000462 0.593012 2.236068 0 2.236068 c
-0.593012 2.236068 -1.161816 2.000462 -1.581139 1.581139 c
-2.000462 1.161816 -2.236068 0.593012 -2.236068 0 c
-2.236068 -0.593012 -2.000462 -1.161816 -1.581139 -1.581139 c
-1.161816 -2.000462 -0.593012 -2.236068 0 -2.236068 c
cl

} bind def
1.000 0.000 0.000 setrgbcolor
gsave
357.1 266.1 57.6 38.02 clipbox
318.15 195.843 p1_0
gsave
fill
grestore
stroke
grestore
gsave
357.1 266.1 57.6 38.02 clipbox
298.36 199.814 p1_0
gsave
fill
grestore
stroke
grestore
gsave
357.1 266.1 57.6 38.02 clipbox
258.956 243.418 p1_0
gsave
fill
grestore
stroke
grestore
gsave
357.1 266.1 57.6 38.02 clipbox
254.43 227.256 p1_0
gsave
fill
grestore
stroke
grestore
gsave
357.1 266.1 57.6 38.02 clipbox
361.34 232.965 p1_0
gsave
fill
grestore
stroke
grestore
gsave
357.1 266.1 57.6 38.02 clipbox
261.721 236.979 p1_0
gsave
fill
grestore
stroke
grestore
gsave
357.1 266.1 57.6 38.02 clipbox
327.379 237.208 p1_0
gsave
fill
grestore
stroke
grestore
gsave
357.1 266.1 57.6 38.02 clipbox
260.92 238.987 p1_0
gsave
fill
grestore
stroke
grestore
gsave
357.1 266.1 57.6 38.02 clipbox
314.309 216.191 p1_0
gsave
fill
grestore
stroke
grestore
gsave
357.1 266.1 57.6 38.02 clipbox
262.126 239.31 p1_0
gsave
fill
grestore
stroke
grestore
/p2_0 {
newpath
translate
0 -2.236068 m
0.593012 -2.236068 1.161816 -2.000462 1.581139 -1.581139 c
2.000462 -1.161816 2.236068 -0.593012 2.236068 0 c
2.236068 0.593012 2.000462 1.161816 1.581139 1.581139 c
1.161816 2.000462 0.593012 2.236068 0 2.236068 c
-0.593012 2.236068 -1.161816 2.000462 -1.581139 1.581139 c
-2.000462 1.161816 -2.236068 0.593012 -2.236068 0 c
-2.236068 -0.593012 -2.000462 -1.161816 -1.581139 -1.581139 c
-1.161816 -2.000462 -0.593012 -2.236068 0 -2.236068 c
cl

} bind def
0.000 0.500 0.000 setrgbcolor
gsave
357.1 266.1 57.6 38.02 clipbox
210.363 215.319 p2_0
gsave
fill
grestore
stroke
grestore
gsave
357.1 266.1 57.6 38.02 clipbox
205.378 236.106 p2_0
gsave
fill
grestore
stroke
grestore
gsave
357.1 266.1 57.6 38.02 clipbox
238.061 180.19 p2_0
gsave
fill
grestore
stroke
grestore
gsave
357.1 266.1 57.6 38.02 clipbox
212.97 179.94 p2_0
gsave
fill
grestore
stroke
grestore
gsave
357.1 266.1 57.6 38.02 clipbox
198.149 158.327 p2_0
gsave
fill
grestore
stroke
grestore
gsave
357.1 266.1 57.6 38.02 clipbox
193.407 185.816 p2_0
gsave
fill
grestore
stroke
grestore
gsave
357.1 266.1 57.6 38.02 clipbox
246.625 204.917 p2_0
gsave
fill
grestore
stroke
grestore
gsave
357.1 266.1 57.6 38.02 clipbox
220.451 219.08 p2_0
gsave
fill
grestore
stroke
grestore
gsave
357.1 266.1 57.6 38.02 clipbox
203.478 237.249 p2_0
gsave
fill
grestore
stroke
grestore
0 setlinejoin
[] 0 setdash
0.800 setgray
gsave
71.6 200.049875 m
222.709375 200.049875 l
225.376042 200.049875 226.709375 201.383208 226.709375 204.049875 c
226.709375 290.128 l
226.709375 292.794667 225.376042 294.128 222.709375 294.128 c
71.6 294.128 l
68.933333 294.128 67.6 292.794667 67.6 290.128 c
67.6 204.049875 l
67.6 201.383208 68.933333 200.049875 71.6 200.049875 c
cl
gsave
1.000 setgray
fill
grestore
stroke
grestore
1 setlinejoin
[] 0 setdash
0.000 0.000 1.000 setrgbcolor
gsave
/o {
gsave
newpath
translate
1.0 setlinewidth
1 setlinejoin
0 setlinecap
0 -2.236068 m
0.593012 -2.236068 1.161816 -2.000462 1.581139 -1.581139 c
2.000462 -1.161816 2.236068 -0.593012 2.236068 0 c
2.236068 0.593012 2.000462 1.161816 1.581139 1.581139 c
1.161816 2.000462 0.593012 2.236068 0 2.236068 c
-0.593012 2.236068 -1.161816 2.000462 -1.581139 1.581139 c
-2.000462 1.161816 -2.236068 0.593012 -2.236068 0 c
-2.236068 -0.593012 -2.000462 -1.161816 -1.581139 -1.581139 c
-1.161816 -2.000462 -0.593012 -2.236068 0 -2.236068 c
cl

gsave
0.000 0.000 1.000 setrgbcolor
fill
grestore
stroke
grestore
} bind def
95.6 276.175 o
grestore
0.000 setgray
/DejaVuSans findfont
20.000 scalefont
setfont
gsave
131.600000 270.924875 translate
0.000000 rotate
0.000000 0.000000 m /c glyphshow
10.996094 0.000000 m /l glyphshow
16.552734 0.000000 m /u glyphshow
29.228516 0.000000 m /s glyphshow
39.648438 0.000000 m /t glyphshow
47.490234 0.000000 m /e glyphshow
59.794922 0.000000 m /r glyphshow
68.017578 0.000000 m /space glyphshow
74.375000 0.000000 m /one glyphshow
grestore
1.000 0.000 0.000 setrgbcolor
gsave
/o {
gsave
newpath
translate
1.0 setlinewidth
1 setlinejoin
0 setlinecap
0 -2.236068 m
0.593012 -2.236068 1.161816 -2.000462 1.581139 -1.581139 c
2.000462 -1.161816 2.236068 -0.593012 2.236068 0 c
2.236068 0.593012 2.000462 1.161816 1.581139 1.581139 c
1.161816 2.000462 0.593012 2.236068 0 2.236068 c
-0.593012 2.236068 -1.161816 2.000462 -1.581139 1.581139 c
-2.000462 1.161816 -2.236068 0.593012 -2.236068 0 c
-2.236068 -0.593012 -2.000462 -1.161816 -1.581139 -1.581139 c
-1.161816 -2.000462 -0.593012 -2.236068 0 -2.236068 c
cl

gsave
1.000 0.000 0.000 setrgbcolor
fill
grestore
stroke
grestore
} bind def
95.6 246.815 o
grestore
0.000 setgray
gsave
131.600000 241.565500 translate
0.000000 rotate
0.000000 0.000000 m /c glyphshow
10.996094 0.000000 m /l glyphshow
16.552734 0.000000 m /u glyphshow
29.228516 0.000000 m /s glyphshow
39.648438 0.000000 m /t glyphshow
47.490234 0.000000 m /e glyphshow
59.794922 0.000000 m /r glyphshow
68.017578 0.000000 m /space glyphshow
74.375000 0.000000 m /two glyphshow
grestore
0.000 0.500 0.000 setrgbcolor
gsave
/o {
gsave
newpath
translate
1.0 setlinewidth
1 setlinejoin
0 setlinecap
0 -2.236068 m
0.593012 -2.236068 1.161816 -2.000462 1.581139 -1.581139 c
2.000462 -1.161816 2.236068 -0.593012 2.236068 0 c
2.236068 0.593012 2.000462 1.161816 1.581139 1.581139 c
1.161816 2.000462 0.593012 2.236068 0 2.236068 c
-0.593012 2.236068 -1.161816 2.000462 -1.581139 1.581139 c
-2.000462 1.161816 -2.236068 0.593012 -2.236068 0 c
-2.236068 -0.593012 -2.000462 -1.161816 -1.581139 -1.581139 c
-1.161816 -2.000462 -0.593012 -2.236068 0 -2.236068 c
cl

gsave
0.000 0.500 0.000 setrgbcolor
fill
grestore
stroke
grestore
} bind def
95.6 217.456 o
grestore
0.000 setgray
gsave
131.600000 212.206125 translate
0.000000 rotate
0.000000 0.000000 m /c glyphshow
10.996094 0.000000 m /l glyphshow
16.552734 0.000000 m /u glyphshow
29.228516 0.000000 m /s glyphshow
39.648438 0.000000 m /t glyphshow
47.490234 0.000000 m /e glyphshow
59.794922 0.000000 m /r glyphshow
68.017578 0.000000 m /space glyphshow
74.375000 0.000000 m /three glyphshow
grestore

end
showpage
