%!PS-Adobe-3.0 EPSF-3.0
%%Title: ./Model_fit_results/logliklihood_global.eps
%%Creator: matplotlib version 3.0.3, http://matplotlib.org/
%%CreationDate: Fri Nov 12 15:34:50 2021
%%Orientation: portrait
%%BoundingBox: 75 223 536 568
%%EndComments
%%BeginProlog
/mpldict 8 dict def
mpldict begin
/m { moveto } bind def
/l { lineto } bind def
/r { rlineto } bind def
/c { curveto } bind def
/cl { closepath } bind def
/box {
m
1 index 0 r
0 exch r
neg 0 r
cl
} bind def
/clipbox {
box
clip
newpath
} bind def
%!PS-Adobe-3.0 Resource-Font
%%Title: DejaVu Sans
%%Copyright: Copyright (c) 2003 by Bitstream, Inc. All Rights Reserved. Copyright (c) 2006 by Tavmjong Bah. All Rights Reserved. DejaVu changes are in public domain 
%%Creator: Converted from TrueType to type 3 by PPR
25 dict begin
/_d{bind def}bind def
/_m{moveto}_d
/_l{lineto}_d
/_cl{closepath eofill}_d
/_c{curveto}_d
/_sc{7 -1 roll{setcachedevice}{pop pop pop pop pop pop}ifelse}_d
/_e{exec}_d
/FontName /DejaVuSans def
/PaintType 0 def
/FontMatrix[.001 0 0 .001 0 0]def
/FontBBox[-1021 -463 1793 1232]def
/FontType 3 def
/Encoding [ /hyphen /zero /one /two /four /six /eight /a /d /e /g /h /i /k /l /n /o /r /t ] def
/FontInfo 10 dict dup begin
/FamilyName (DejaVu Sans) def
/FullName (DejaVu Sans) def
/Notice (Copyright (c) 2003 by Bitstream, Inc. All Rights Reserved. Copyright (c) 2006 by Tavmjong Bah. All Rights Reserved. DejaVu changes are in public domain ) def
/Weight (Book) def
/Version (Version 2.35) def
/ItalicAngle 0.0 def
/isFixedPitch false def
/UnderlinePosition -130 def
/UnderlineThickness 90 def
end readonly def
/CharStrings 20 dict dup begin
/.notdef 0 def
/hyphen{361 0 49 234 312 314 _sc
49 314 _m
312 314 _l
312 234 _l
49 234 _l
49 314 _l
_cl}_d
/zero{636 0 66 -13 570 742 _sc
318 664 _m
267 664 229 639 203 589 _c
177 539 165 464 165 364 _c
165 264 177 189 203 139 _c
229 89 267 64 318 64 _c
369 64 407 89 433 139 _c
458 189 471 264 471 364 _c
471 464 458 539 433 589 _c
407 639 369 664 318 664 _c
318 742 _m
399 742 461 709 505 645 _c
548 580 570 486 570 364 _c
570 241 548 147 505 83 _c
461 19 399 -13 318 -13 _c
236 -13 173 19 130 83 _c
87 147 66 241 66 364 _c
66 486 87 580 130 645 _c
173 709 236 742 318 742 _c
_cl}_d
/one{636 0 110 0 544 729 _sc
124 83 _m
285 83 _l
285 639 _l
110 604 _l
110 694 _l
284 729 _l
383 729 _l
383 83 _l
544 83 _l
544 0 _l
124 0 _l
124 83 _l
_cl}_d
/two{{636 0 73 0 536 742 _sc
192 83 _m
536 83 _l
536 0 _l
73 0 _l
73 83 _l
110 121 161 173 226 239 _c
290 304 331 346 348 365 _c
380 400 402 430 414 455 _c
426 479 433 504 433 528 _c
433 566 419 598 392 622 _c
365 646 330 659 286 659 _c
255 659 222 653 188 643 _c
154 632 117 616 78 594 _c
78 694 _l
118 710 155 722 189 730 _c
223 738 255 742 284 742 _c
}_e{359 742 419 723 464 685 _c
509 647 532 597 532 534 _c
532 504 526 475 515 449 _c
504 422 484 390 454 354 _c
446 344 420 317 376 272 _c
332 227 271 164 192 83 _c
_cl}_e}_d
/four{636 0 49 0 580 729 _sc
378 643 _m
129 254 _l
378 254 _l
378 643 _l
352 729 _m
476 729 _l
476 254 _l
580 254 _l
580 172 _l
476 172 _l
476 0 _l
378 0 _l
378 172 _l
49 172 _l
49 267 _l
352 729 _l
_cl}_d
/six{{636 0 70 -13 573 742 _sc
330 404 _m
286 404 251 388 225 358 _c
199 328 186 286 186 234 _c
186 181 199 139 225 109 _c
251 79 286 64 330 64 _c
374 64 409 79 435 109 _c
461 139 474 181 474 234 _c
474 286 461 328 435 358 _c
409 388 374 404 330 404 _c
526 713 _m
526 623 _l
501 635 476 644 451 650 _c
425 656 400 659 376 659 _c
310 659 260 637 226 593 _c
}_e{192 549 172 482 168 394 _c
187 422 211 444 240 459 _c
269 474 301 482 336 482 _c
409 482 467 459 509 415 _c
551 371 573 310 573 234 _c
573 159 550 99 506 54 _c
462 9 403 -13 330 -13 _c
246 -13 181 19 137 83 _c
92 147 70 241 70 364 _c
70 479 97 571 152 639 _c
206 707 280 742 372 742 _c
396 742 421 739 447 735 _c
472 730 498 723 526 713 _c
_cl}_e}_d
/eight{{636 0 68 -13 568 742 _sc
318 346 _m
271 346 234 333 207 308 _c
180 283 167 249 167 205 _c
167 161 180 126 207 101 _c
234 76 271 64 318 64 _c
364 64 401 76 428 102 _c
455 127 469 161 469 205 _c
469 249 455 283 429 308 _c
402 333 365 346 318 346 _c
219 388 _m
177 398 144 418 120 447 _c
96 476 85 511 85 553 _c
85 611 105 657 147 691 _c
188 725 245 742 318 742 _c
}_e{390 742 447 725 489 691 _c
530 657 551 611 551 553 _c
551 511 539 476 515 447 _c
491 418 459 398 417 388 _c
464 377 501 355 528 323 _c
554 291 568 251 568 205 _c
568 134 546 80 503 43 _c
459 5 398 -13 318 -13 _c
237 -13 175 5 132 43 _c
89 80 68 134 68 205 _c
68 251 81 291 108 323 _c
134 355 171 377 219 388 _c
183 544 _m
183 506 194 476 218 455 _c
}_e{242 434 275 424 318 424 _c
360 424 393 434 417 455 _c
441 476 453 506 453 544 _c
453 582 441 611 417 632 _c
393 653 360 664 318 664 _c
275 664 242 653 218 632 _c
194 611 183 582 183 544 _c
_cl}_e}_d
/a{{613 0 60 -13 522 560 _sc
343 275 _m
270 275 220 266 192 250 _c
164 233 150 205 150 165 _c
150 133 160 107 181 89 _c
202 70 231 61 267 61 _c
317 61 357 78 387 114 _c
417 149 432 196 432 255 _c
432 275 _l
343 275 _l
522 312 _m
522 0 _l
432 0 _l
432 83 _l
411 49 385 25 355 10 _c
325 -5 287 -13 243 -13 _c
187 -13 142 2 109 33 _c
76 64 60 106 60 159 _c
}_e{60 220 80 266 122 298 _c
163 329 224 345 306 345 _c
432 345 _l
432 354 _l
432 395 418 427 391 450 _c
364 472 326 484 277 484 _c
245 484 215 480 185 472 _c
155 464 127 453 100 439 _c
100 522 _l
132 534 164 544 195 550 _c
226 556 256 560 286 560 _c
365 560 424 539 463 498 _c
502 457 522 395 522 312 _c
_cl}_e}_d
/d{{635 0 55 -13 544 760 _sc
454 464 _m
454 760 _l
544 760 _l
544 0 _l
454 0 _l
454 82 _l
435 49 411 25 382 10 _c
353 -5 319 -13 279 -13 _c
213 -13 159 13 117 65 _c
75 117 55 187 55 273 _c
55 359 75 428 117 481 _c
159 533 213 560 279 560 _c
319 560 353 552 382 536 _c
411 520 435 496 454 464 _c
148 273 _m
148 207 161 155 188 117 _c
215 79 253 61 301 61 _c
}_e{348 61 385 79 413 117 _c
440 155 454 207 454 273 _c
454 339 440 390 413 428 _c
385 466 348 485 301 485 _c
253 485 215 466 188 428 _c
161 390 148 339 148 273 _c
_cl}_e}_d
/e{{615 0 55 -13 562 560 _sc
562 296 _m
562 252 _l
149 252 _l
153 190 171 142 205 110 _c
238 78 284 62 344 62 _c
378 62 412 66 444 74 _c
476 82 509 95 541 113 _c
541 28 _l
509 14 476 3 442 -3 _c
408 -9 373 -13 339 -13 _c
251 -13 182 12 131 62 _c
80 112 55 181 55 268 _c
55 357 79 428 127 481 _c
175 533 241 560 323 560 _c
397 560 455 536 498 489 _c
}_e{540 441 562 377 562 296 _c
472 322 _m
471 371 457 410 431 440 _c
404 469 368 484 324 484 _c
274 484 234 469 204 441 _c
174 413 156 373 152 322 _c
472 322 _l
_cl}_e}_d
/g{{635 0 55 -207 544 560 _sc
454 280 _m
454 344 440 395 414 431 _c
387 467 349 485 301 485 _c
253 485 215 467 188 431 _c
161 395 148 344 148 280 _c
148 215 161 165 188 129 _c
215 93 253 75 301 75 _c
349 75 387 93 414 129 _c
440 165 454 215 454 280 _c
544 68 _m
544 -24 523 -93 482 -139 _c
440 -184 377 -207 292 -207 _c
260 -207 231 -204 203 -200 _c
175 -195 147 -188 121 -178 _c
}_e{121 -91 _l
147 -105 173 -115 199 -122 _c
225 -129 251 -133 278 -133 _c
336 -133 380 -117 410 -87 _c
439 -56 454 -10 454 52 _c
454 96 _l
435 64 411 40 382 24 _c
353 8 319 0 279 0 _c
211 0 157 25 116 76 _c
75 127 55 195 55 280 _c
55 364 75 432 116 483 _c
157 534 211 560 279 560 _c
319 560 353 552 382 536 _c
411 520 435 496 454 464 _c
454 547 _l
544 547 _l
}_e{544 68 _l
_cl}_e}_d
/h{634 0 91 0 549 760 _sc
549 330 _m
549 0 _l
459 0 _l
459 327 _l
459 379 448 417 428 443 _c
408 469 378 482 338 482 _c
289 482 251 466 223 435 _c
195 404 181 362 181 309 _c
181 0 _l
91 0 _l
91 760 _l
181 760 _l
181 462 _l
202 494 227 519 257 535 _c
286 551 320 560 358 560 _c
420 560 468 540 500 501 _c
532 462 549 405 549 330 _c
_cl}_d
/i{278 0 94 0 184 760 _sc
94 547 _m
184 547 _l
184 0 _l
94 0 _l
94 547 _l
94 760 _m
184 760 _l
184 646 _l
94 646 _l
94 760 _l
_cl}_d
/k{579 0 91 0 576 760 _sc
91 760 _m
181 760 _l
181 311 _l
449 547 _l
564 547 _l
274 291 _l
576 0 _l
459 0 _l
181 267 _l
181 0 _l
91 0 _l
91 760 _l
_cl}_d
/l{278 0 94 0 184 760 _sc
94 760 _m
184 760 _l
184 0 _l
94 0 _l
94 760 _l
_cl}_d
/n{634 0 91 0 549 560 _sc
549 330 _m
549 0 _l
459 0 _l
459 327 _l
459 379 448 417 428 443 _c
408 469 378 482 338 482 _c
289 482 251 466 223 435 _c
195 404 181 362 181 309 _c
181 0 _l
91 0 _l
91 547 _l
181 547 _l
181 462 _l
202 494 227 519 257 535 _c
286 551 320 560 358 560 _c
420 560 468 540 500 501 _c
532 462 549 405 549 330 _c
_cl}_d
/o{612 0 55 -13 557 560 _sc
306 484 _m
258 484 220 465 192 427 _c
164 389 150 338 150 273 _c
150 207 163 156 191 118 _c
219 80 257 62 306 62 _c
354 62 392 80 420 118 _c
448 156 462 207 462 273 _c
462 337 448 389 420 427 _c
392 465 354 484 306 484 _c
306 560 _m
384 560 445 534 490 484 _c
534 433 557 363 557 273 _c
557 183 534 113 490 63 _c
445 12 384 -13 306 -13 _c
227 -13 165 12 121 63 _c
77 113 55 183 55 273 _c
55 363 77 433 121 484 _c
165 534 227 560 306 560 _c
_cl}_d
/r{411 0 91 0 411 560 _sc
411 463 _m
401 469 390 473 378 476 _c
366 478 353 480 339 480 _c
288 480 249 463 222 430 _c
194 397 181 350 181 288 _c
181 0 _l
91 0 _l
91 547 _l
181 547 _l
181 462 _l
199 495 224 520 254 536 _c
284 552 321 560 365 560 _c
371 560 378 559 386 559 _c
393 558 401 557 411 555 _c
411 463 _l
_cl}_d
/t{392 0 27 0 368 702 _sc
183 702 _m
183 547 _l
368 547 _l
368 477 _l
183 477 _l
183 180 _l
183 135 189 106 201 94 _c
213 81 238 75 276 75 _c
368 75 _l
368 0 _l
276 0 _l
206 0 158 13 132 39 _c
106 65 93 112 93 180 _c
93 477 _l
27 477 _l
27 547 _l
93 547 _l
93 702 _l
183 702 _l
_cl}_d
end readonly def

/BuildGlyph
 {exch begin
 CharStrings exch
 2 copy known not{pop /.notdef}if
 true 3 1 roll get exec
 end}_d

/BuildChar {
 1 index /Encoding get exch get
 1 index /BuildGlyph get exec
}_d

FontName currentdict end definefont pop
end
%%EndProlog
mpldict begin
75.6 223.2 translate
460.8 345.6 0 0 clipbox
gsave
0 0 m
460.8 0 l
460.8 345.6 l
0 345.6 l
cl
1.000 setgray
fill
grestore
gsave
57.6 38.016 m
414.72 38.016 l
414.72 304.128 l
57.6 304.128 l
cl
1.000 setgray
fill
grestore
1.000 setlinewidth
1 setlinejoin
0 setlinecap
[] 0 setdash
0.000 0.000 1.000 setrgbcolor
gsave
357.1 266.1 57.6 38.02 clipbox
/o {
gsave
newpath
translate
1.0 setlinewidth
1 setlinejoin
0 setlinecap
61.1712 68.15057 m
61.1712 74.442656 l
64.7424 78.508477 l
68.3136 83.903299 l
71.8848 91.875811 l
75.456 100.5701 l
79.0272 111.331677 l
82.5984 122.973753 l
86.1696 137.547199 l
89.7408 154.353557 l
93.312 170.206179 l
96.8832 182.808558 l
100.4544 195.251722 l
104.0256 203.089468 l
107.5968 233.07913 l
111.168 271.46009 l
114.7392 288.479829 l
118.3104 290.540628 l
121.8816 290.691467 l
125.4528 290.789589 l
129.024 290.863701 l
132.5952 290.924773 l
136.1664 290.977869 l
139.7376 291.025993 l
143.3088 291.070892 l
146.88 291.113652 l
150.4512 291.154973 l
154.0224 291.195332 l
157.5936 291.235065 l
161.1648 291.274413 l
164.736 291.313541 l
168.3072 291.35254 l
171.8784 291.391434 l
175.4496 291.430177 l
179.0208 291.468672 l
182.592 291.506798 l
186.1632 291.544436 l
189.7344 291.581489 l
193.3056 291.617885 l
196.8768 291.653577 l
200.448 291.688537 l
204.0192 291.722751 l
207.5904 291.756212 l
211.1616 291.788924 l
214.7328 291.820891 l
218.304 291.852123 l
221.8752 291.882631 l
225.4464 291.912428 l
229.0176 291.941531 l
232.5888 291.969959 l
236.16 291.997731 l
239.7312 292.024868 l
243.3024 292.05139 l
246.8736 292.077319 l
250.4448 292.102676 l
254.016 292.12748 l
257.5872 292.151753 l
261.1584 292.175512 l
264.7296 292.198777 l
268.3008 292.221565 l
271.872 292.243895 l
275.4432 292.265764 l
279.0144 292.287202 l
282.5856 292.308229 l
286.1568 292.328859 l
289.728 292.349106 l
293.2992 292.368984 l
296.8704 292.388506 l
300.4416 292.407672 l
304.0128 292.426488 l
307.584 292.44494 l
311.1552 292.463064 l
314.7264 292.48087 l
318.2976 292.49834 l
321.8688 292.515432 l
325.44 292.532112 l
329.0112 292.548418 l
332.5824 292.564418 l
336.1536 292.580082 l
339.7248 292.595427 l
343.296 292.610502 l
346.8672 292.625327 l
350.4384 292.639862 l
354.0096 292.65414 l
357.5808 292.668168 l
361.152 292.681953 l
364.7232 292.695436 l
368.2944 292.708687 l
371.8656 292.721714 l
375.4368 292.734514 l
379.008 292.747105 l
382.5792 292.759519 l
386.1504 292.771745 l
389.7216 292.783776 l
393.2928 292.795628 l
396.864 292.80732 l
400.4352 292.818863 l
404.0064 292.830259 l
407.5776 292.841517 l
411.1488 292.852642 l
414.72 292.863642 l
414.72 292.475498 l
414.72 292.475498 l
411.1488 292.464473 l
407.5776 292.45329 l
404.0064 292.441934 l
400.4352 292.430382 l
396.864 292.418646 l
393.2928 292.406723 l
389.7216 292.394564 l
386.1504 292.382139 l
382.5792 292.369475 l
379.008 292.356565 l
375.4368 292.343412 l
371.8656 292.329985 l
368.2944 292.316304 l
364.7232 292.302353 l
361.152 292.288118 l
357.5808 292.273598 l
354.0096 292.258791 l
350.4384 292.243702 l
346.8672 292.228332 l
343.296 292.212632 l
339.7248 292.196643 l
336.1536 292.180371 l
332.5824 292.163788 l
329.0112 292.146889 l
325.44 292.129655 l
321.8688 292.112092 l
318.2976 292.094258 l
314.7264 292.076134 l
311.1552 292.057695 l
307.584 292.038929 l
304.0128 292.019816 l
300.4416 292.000351 l
296.8704 291.980532 l
293.2992 291.960338 l
289.728 291.939771 l
286.1568 291.918819 l
282.5856 291.897473 l
279.0144 291.875725 l
275.4432 291.853566 l
271.872 291.830987 l
268.3008 291.807981 l
264.7296 291.784544 l
261.1584 291.76067 l
257.5872 291.736358 l
254.016 291.711605 l
250.4448 291.686414 l
246.8736 291.660787 l
243.3024 291.63473 l
239.7312 291.608253 l
236.16 291.581367 l
232.5888 291.554087 l
229.0176 291.526432 l
225.4464 291.498423 l
221.8752 291.470084 l
218.304 291.441445 l
214.7328 291.412536 l
211.1616 291.383391 l
207.5904 291.354046 l
204.0192 291.32454 l
200.448 291.294912 l
196.8768 291.2652 l
193.3056 291.23544 l
189.7344 291.205658 l
186.1632 291.175866 l
182.592 291.14605 l
179.0208 291.116169 l
175.4496 291.086151 l
171.8784 291.055899 l
168.3072 291.025298 l
164.736 290.994231 l
161.1648 290.962573 l
157.5936 290.930181 l
154.0224 290.896875 l
150.4512 290.862415 l
146.88 290.826466 l
143.3088 290.788552 l
139.7376 290.747964 l
136.1664 290.703609 l
132.5952 290.653686 l
129.024 290.595276 l
125.4528 290.523532 l
121.8816 290.427303 l
118.3104 290.268075 l
114.7392 287.8552 l
111.168 269.057661 l
107.5968 229.388017 l
104.0256 198.423784 l
100.4544 190.729165 l
96.8832 178.002311 l
93.312 165.100146 l
89.7408 148.873197 l
86.1696 131.875026 l
82.5984 117.079629 l
79.0272 105.380853 l
75.456 94.493032 l
71.8848 85.886423 l
68.3136 77.748736 l
64.7424 72.196988 l
61.1712 68.15057 l
cl

gsave
0.000 0.000 1.000 setrgbcolor
fill
grestore
stroke
grestore
} bind def
0 0 o
grestore
0.800 setlinewidth
2 setlinecap
0.690 setgray
gsave
357.1 266.1 57.6 38.02 clipbox
57.6 38.016 m
57.6 304.128 l
stroke
grestore
0 setlinecap
0.000 setgray
gsave
/o {
gsave
newpath
translate
0.8 setlinewidth
1 setlinejoin
0 setlinecap
0 0 m
0 -3.5 l

gsave
0.000 setgray
fill
grestore
stroke
grestore
} bind def
57.6 38.016 o
grestore
/DejaVuSans findfont
10.000 scalefont
setfont
gsave
54.420313 23.422250 translate
0.000000 rotate
0.000000 0.000000 m /zero glyphshow
grestore
2 setlinecap
0.690 setgray
gsave
357.1 266.1 57.6 38.02 clipbox
129.024 38.016 m
129.024 304.128 l
stroke
grestore
0 setlinecap
0.000 setgray
gsave
/o {
gsave
newpath
translate
0.8 setlinewidth
1 setlinejoin
0 setlinecap
0 0 m
0 -3.5 l

gsave
0.000 setgray
fill
grestore
stroke
grestore
} bind def
129.024 38.016 o
grestore
gsave
122.664625 23.422250 translate
0.000000 rotate
0.000000 0.000000 m /two glyphshow
6.362305 0.000000 m /zero glyphshow
grestore
2 setlinecap
0.690 setgray
gsave
357.1 266.1 57.6 38.02 clipbox
200.448 38.016 m
200.448 304.128 l
stroke
grestore
0 setlinecap
0.000 setgray
gsave
/o {
gsave
newpath
translate
0.8 setlinewidth
1 setlinejoin
0 setlinecap
0 0 m
0 -3.5 l

gsave
0.000 setgray
fill
grestore
stroke
grestore
} bind def
200.448 38.016 o
grestore
gsave
194.088625 23.422250 translate
0.000000 rotate
0.000000 0.000000 m /four glyphshow
6.362305 0.000000 m /zero glyphshow
grestore
2 setlinecap
0.690 setgray
gsave
357.1 266.1 57.6 38.02 clipbox
271.872 38.016 m
271.872 304.128 l
stroke
grestore
0 setlinecap
0.000 setgray
gsave
/o {
gsave
newpath
translate
0.8 setlinewidth
1 setlinejoin
0 setlinecap
0 0 m
0 -3.5 l

gsave
0.000 setgray
fill
grestore
stroke
grestore
} bind def
271.872 38.016 o
grestore
gsave
265.512625 23.422250 translate
0.000000 rotate
0.000000 0.000000 m /six glyphshow
6.362305 0.000000 m /zero glyphshow
grestore
2 setlinecap
0.690 setgray
gsave
357.1 266.1 57.6 38.02 clipbox
343.296 38.016 m
343.296 304.128 l
stroke
grestore
0 setlinecap
0.000 setgray
gsave
/o {
gsave
newpath
translate
0.8 setlinewidth
1 setlinejoin
0 setlinecap
0 0 m
0 -3.5 l

gsave
0.000 setgray
fill
grestore
stroke
grestore
} bind def
343.296 38.016 o
grestore
gsave
336.936625 23.422250 translate
0.000000 rotate
0.000000 0.000000 m /eight glyphshow
6.362305 0.000000 m /zero glyphshow
grestore
2 setlinecap
0.690 setgray
gsave
357.1 266.1 57.6 38.02 clipbox
414.72 38.016 m
414.72 304.128 l
stroke
grestore
0 setlinecap
0.000 setgray
gsave
/o {
gsave
newpath
translate
0.8 setlinewidth
1 setlinejoin
0 setlinecap
0 0 m
0 -3.5 l

gsave
0.000 setgray
fill
grestore
stroke
grestore
} bind def
414.72 38.016 o
grestore
gsave
405.180938 23.422250 translate
0.000000 rotate
0.000000 0.000000 m /one glyphshow
6.362305 0.000000 m /zero glyphshow
12.724609 0.000000 m /zero glyphshow
grestore
gsave
215.027187 9.750375 translate
0.000000 rotate
0.000000 0.000000 m /i glyphshow
2.778320 0.000000 m /t glyphshow
6.699219 0.000000 m /e glyphshow
12.851562 0.000000 m /r glyphshow
16.962891 0.000000 m /a glyphshow
23.090820 0.000000 m /t glyphshow
27.011719 0.000000 m /i glyphshow
29.790039 0.000000 m /o glyphshow
35.908203 0.000000 m /n glyphshow
grestore
2 setlinecap
0.690 setgray
gsave
357.1 266.1 57.6 38.02 clipbox
57.6 38.016 m
414.72 38.016 l
stroke
grestore
0 setlinecap
0.000 setgray
gsave
/o {
gsave
newpath
translate
0.8 setlinewidth
1 setlinejoin
0 setlinecap
0 0 m
-3.5 0 l

gsave
0.000 setgray
fill
grestore
stroke
grestore
} bind def
57.6 38.016 o
grestore
gsave
28.475000 34.219125 translate
0.000000 rotate
0.000000 0.000000 m /hyphen glyphshow
3.608398 0.000000 m /one glyphshow
9.970703 0.000000 m /zero glyphshow
16.333008 0.000000 m /k glyphshow
grestore
2 setlinecap
0.690 setgray
gsave
357.1 266.1 57.6 38.02 clipbox
57.6 91.2384 m
414.72 91.2384 l
stroke
grestore
0 setlinecap
0.000 setgray
gsave
/o {
gsave
newpath
translate
0.8 setlinewidth
1 setlinejoin
0 setlinecap
0 0 m
-3.5 0 l

gsave
0.000 setgray
fill
grestore
stroke
grestore
} bind def
57.6 91.2384 o
grestore
gsave
34.834375 87.441525 translate
0.000000 rotate
0.000000 0.000000 m /hyphen glyphshow
3.608398 0.000000 m /eight glyphshow
9.970703 0.000000 m /k glyphshow
grestore
2 setlinecap
0.690 setgray
gsave
357.1 266.1 57.6 38.02 clipbox
57.6 144.4608 m
414.72 144.4608 l
stroke
grestore
0 setlinecap
0.000 setgray
gsave
/o {
gsave
newpath
translate
0.8 setlinewidth
1 setlinejoin
0 setlinecap
0 0 m
-3.5 0 l

gsave
0.000 setgray
fill
grestore
stroke
grestore
} bind def
57.6 144.461 o
grestore
gsave
34.834375 140.663925 translate
0.000000 rotate
0.000000 0.000000 m /hyphen glyphshow
3.608398 0.000000 m /six glyphshow
9.970703 0.000000 m /k glyphshow
grestore
2 setlinecap
0.690 setgray
gsave
357.1 266.1 57.6 38.02 clipbox
57.6 197.6832 m
414.72 197.6832 l
stroke
grestore
0 setlinecap
0.000 setgray
gsave
/o {
gsave
newpath
translate
0.8 setlinewidth
1 setlinejoin
0 setlinecap
0 0 m
-3.5 0 l

gsave
0.000 setgray
fill
grestore
stroke
grestore
} bind def
57.6 197.683 o
grestore
gsave
34.834375 193.886325 translate
0.000000 rotate
0.000000 0.000000 m /hyphen glyphshow
3.608398 0.000000 m /four glyphshow
9.970703 0.000000 m /k glyphshow
grestore
2 setlinecap
0.690 setgray
gsave
357.1 266.1 57.6 38.02 clipbox
57.6 250.9056 m
414.72 250.9056 l
stroke
grestore
0 setlinecap
0.000 setgray
gsave
/o {
gsave
newpath
translate
0.8 setlinewidth
1 setlinejoin
0 setlinecap
0 0 m
-3.5 0 l

gsave
0.000 setgray
fill
grestore
stroke
grestore
} bind def
57.6 250.906 o
grestore
gsave
34.834375 247.108725 translate
0.000000 rotate
0.000000 0.000000 m /hyphen glyphshow
3.608398 0.000000 m /two glyphshow
9.970703 0.000000 m /k glyphshow
grestore
2 setlinecap
0.690 setgray
gsave
357.1 266.1 57.6 38.02 clipbox
57.6 304.128 m
414.72 304.128 l
stroke
grestore
0 setlinecap
0.000 setgray
gsave
/o {
gsave
newpath
translate
0.8 setlinewidth
1 setlinejoin
0 setlinecap
0 0 m
-3.5 0 l

gsave
0.000 setgray
fill
grestore
stroke
grestore
} bind def
57.6 304.128 o
grestore
gsave
44.240625 300.331125 translate
0.000000 rotate
0.000000 0.000000 m /zero glyphshow
grestore
gsave
22.396875 137.634500 translate
90.000000 rotate
0.000000 0.000000 m /l glyphshow
2.778320 0.000000 m /o glyphshow
8.896484 0.000000 m /g glyphshow
15.244141 0.000000 m /hyphen glyphshow
18.852539 0.000000 m /l glyphshow
21.630859 0.000000 m /i glyphshow
24.409180 0.000000 m /k glyphshow
30.200195 0.000000 m /e glyphshow
36.352539 0.000000 m /l glyphshow
39.130859 0.000000 m /i glyphshow
41.909180 0.000000 m /h glyphshow
48.247070 0.000000 m /o glyphshow
54.365234 0.000000 m /o glyphshow
60.483398 0.000000 m /d glyphshow
grestore
1.500 setlinewidth
2 setlinecap
0.000 0.000 1.000 setrgbcolor
gsave
357.1 266.1 57.6 38.02 clipbox
61.1712 71.296613 m
64.7424 75.352733 l
68.3136 80.826017 l
71.8848 88.881117 l
75.456 97.531566 l
79.0272 108.356265 l
82.5984 120.026691 l
86.1696 134.711112 l
89.7408 151.613377 l
93.312 167.653163 l
96.8832 180.405435 l
100.4544 192.990443 l
104.0256 200.756626 l
107.5968 231.233574 l
111.168 270.258876 l
114.7392 288.167514 l
118.3104 290.404351 l
121.8816 290.559385 l
125.4528 290.656561 l
129.024 290.729489 l
132.5952 290.78923 l
136.1664 290.840739 l
139.7376 290.886979 l
143.3088 290.929722 l
146.88 290.970059 l
150.4512 291.008694 l
154.0224 291.046103 l
157.5936 291.082623 l
161.1648 291.118493 l
164.736 291.153886 l
168.3072 291.188919 l
171.8784 291.223666 l
175.4496 291.258164 l
179.0208 291.292421 l
182.592 291.326424 l
186.1632 291.360151 l
189.7344 291.393574 l
193.3056 291.426663 l
196.8768 291.459389 l
200.448 291.491725 l
204.0192 291.523645 l
207.5904 291.555129 l
211.1616 291.586157 l
214.7328 291.616714 l
218.304 291.646784 l
221.8752 291.676358 l
225.4464 291.705425 l
229.0176 291.733982 l
232.5888 291.762023 l
236.16 291.789549 l
239.7312 291.81656 l
243.3024 291.84306 l
246.8736 291.869053 l
250.4448 291.894545 l
254.016 291.919543 l
257.5872 291.944055 l
261.1584 291.968091 l
264.7296 291.99166 l
268.3008 292.014773 l
271.872 292.037441 l
275.4432 292.059665 l
279.0144 292.081464 l
282.5856 292.102851 l
286.1568 292.123839 l
289.728 292.144438 l
293.2992 292.164661 l
296.8704 292.184519 l
300.4416 292.204012 l
304.0128 292.223152 l
307.584 292.241935 l
311.1552 292.26038 l
314.7264 292.278502 l
318.2976 292.296299 l
321.8688 292.313762 l
325.44 292.330884 l
329.0112 292.347654 l
332.5824 292.364103 l
336.1536 292.380226 l
339.7248 292.396035 l
343.296 292.411567 l
346.8672 292.426829 l
350.4384 292.441782 l
354.0096 292.456466 l
357.5808 292.470883 l
361.152 292.485035 l
364.7232 292.498894 l
368.2944 292.512495 l
371.8656 292.525849 l
375.4368 292.538963 l
379.008 292.551835 l
382.5792 292.564497 l
386.1504 292.576942 l
389.7216 292.58917 l
393.2928 292.601175 l
396.864 292.612983 l
400.4352 292.624622 l
404.0064 292.636097 l
407.5776 292.647404 l
411.1488 292.658558 l
414.72 292.66957 l
stroke
grestore
0.800 setlinewidth
0 setlinejoin
[] 0 setdash
0.000 setgray
gsave
57.6 38.016 m
57.6 304.128 l
stroke
grestore
gsave
414.72 38.016 m
414.72 304.128 l
stroke
grestore
gsave
57.6 38.016 m
414.72 38.016 l
stroke
grestore
gsave
57.6 304.128 m
414.72 304.128 l
stroke
grestore

end
showpage
