%!PS-Adobe-3.0 EPSF-3.0
%%Title: ./Model_fit_results/roc_orig.eps
%%Creator: matplotlib version 3.0.3, http://matplotlib.org/
%%CreationDate: Fri Nov 12 16:06:09 2021
%%Orientation: portrait
%%BoundingBox: 75 223 536 568
%%EndComments
%%BeginProlog
/mpldict 8 dict def
mpldict begin
/m { moveto } bind def
/l { lineto } bind def
/r { rlineto } bind def
/c { curveto } bind def
/cl { closepath } bind def
/box {
m
1 index 0 r
0 exch r
neg 0 r
cl
} bind def
/clipbox {
box
clip
newpath
} bind def
%!PS-Adobe-3.0 Resource-Font
%%Title: DejaVu Sans
%%Copyright: Copyright (c) 2003 by Bitstream, Inc. All Rights Reserved. Copyright (c) 2006 by Tavmjong Bah. All Rights Reserved. DejaVu changes are in public domain 
%%Creator: Converted from TrueType to type 3 by PPR
25 dict begin
/_d{bind def}bind def
/_m{moveto}_d
/_l{lineto}_d
/_cl{closepath eofill}_d
/_c{curveto}_d
/_sc{7 -1 roll{setcachedevice}{pop pop pop pop pop pop}ifelse}_d
/_e{exec}_d
/FontName /DejaVuSans def
/PaintType 0 def
/FontMatrix[.001 0 0 .001 0 0]def
/FontBBox[-1021 -463 1793 1232]def
/FontType 3 def
/Encoding [ /period /zero /one /two /four /six /seven /eight /F /N /P /R /T /x ] def
/FontInfo 10 dict dup begin
/FamilyName (DejaVu Sans) def
/FullName (DejaVu Sans) def
/Notice (Copyright (c) 2003 by Bitstream, Inc. All Rights Reserved. Copyright (c) 2006 by Tavmjong Bah. All Rights Reserved. DejaVu changes are in public domain ) def
/Weight (Book) def
/Version (Version 2.35) def
/ItalicAngle 0.0 def
/isFixedPitch false def
/UnderlinePosition -130 def
/UnderlineThickness 90 def
end readonly def
/CharStrings 15 dict dup begin
/.notdef 0 def
/period{318 0 107 0 210 124 _sc
107 124 _m
210 124 _l
210 0 _l
107 0 _l
107 124 _l
_cl}_d
/zero{636 0 66 -13 570 742 _sc
318 664 _m
267 664 229 639 203 589 _c
177 539 165 464 165 364 _c
165 264 177 189 203 139 _c
229 89 267 64 318 64 _c
369 64 407 89 433 139 _c
458 189 471 264 471 364 _c
471 464 458 539 433 589 _c
407 639 369 664 318 664 _c
318 742 _m
399 742 461 709 505 645 _c
548 580 570 486 570 364 _c
570 241 548 147 505 83 _c
461 19 399 -13 318 -13 _c
236 -13 173 19 130 83 _c
87 147 66 241 66 364 _c
66 486 87 580 130 645 _c
173 709 236 742 318 742 _c
_cl}_d
/one{636 0 110 0 544 729 _sc
124 83 _m
285 83 _l
285 639 _l
110 604 _l
110 694 _l
284 729 _l
383 729 _l
383 83 _l
544 83 _l
544 0 _l
124 0 _l
124 83 _l
_cl}_d
/two{{636 0 73 0 536 742 _sc
192 83 _m
536 83 _l
536 0 _l
73 0 _l
73 83 _l
110 121 161 173 226 239 _c
290 304 331 346 348 365 _c
380 400 402 430 414 455 _c
426 479 433 504 433 528 _c
433 566 419 598 392 622 _c
365 646 330 659 286 659 _c
255 659 222 653 188 643 _c
154 632 117 616 78 594 _c
78 694 _l
118 710 155 722 189 730 _c
223 738 255 742 284 742 _c
}_e{359 742 419 723 464 685 _c
509 647 532 597 532 534 _c
532 504 526 475 515 449 _c
504 422 484 390 454 354 _c
446 344 420 317 376 272 _c
332 227 271 164 192 83 _c
_cl}_e}_d
/four{636 0 49 0 580 729 _sc
378 643 _m
129 254 _l
378 254 _l
378 643 _l
352 729 _m
476 729 _l
476 254 _l
580 254 _l
580 172 _l
476 172 _l
476 0 _l
378 0 _l
378 172 _l
49 172 _l
49 267 _l
352 729 _l
_cl}_d
/six{{636 0 70 -13 573 742 _sc
330 404 _m
286 404 251 388 225 358 _c
199 328 186 286 186 234 _c
186 181 199 139 225 109 _c
251 79 286 64 330 64 _c
374 64 409 79 435 109 _c
461 139 474 181 474 234 _c
474 286 461 328 435 358 _c
409 388 374 404 330 404 _c
526 713 _m
526 623 _l
501 635 476 644 451 650 _c
425 656 400 659 376 659 _c
310 659 260 637 226 593 _c
}_e{192 549 172 482 168 394 _c
187 422 211 444 240 459 _c
269 474 301 482 336 482 _c
409 482 467 459 509 415 _c
551 371 573 310 573 234 _c
573 159 550 99 506 54 _c
462 9 403 -13 330 -13 _c
246 -13 181 19 137 83 _c
92 147 70 241 70 364 _c
70 479 97 571 152 639 _c
206 707 280 742 372 742 _c
396 742 421 739 447 735 _c
472 730 498 723 526 713 _c
_cl}_e}_d
/seven{636 0 82 0 551 729 _sc
82 729 _m
551 729 _l
551 687 _l
286 0 _l
183 0 _l
432 646 _l
82 646 _l
82 729 _l
_cl}_d
/eight{{636 0 68 -13 568 742 _sc
318 346 _m
271 346 234 333 207 308 _c
180 283 167 249 167 205 _c
167 161 180 126 207 101 _c
234 76 271 64 318 64 _c
364 64 401 76 428 102 _c
455 127 469 161 469 205 _c
469 249 455 283 429 308 _c
402 333 365 346 318 346 _c
219 388 _m
177 398 144 418 120 447 _c
96 476 85 511 85 553 _c
85 611 105 657 147 691 _c
188 725 245 742 318 742 _c
}_e{390 742 447 725 489 691 _c
530 657 551 611 551 553 _c
551 511 539 476 515 447 _c
491 418 459 398 417 388 _c
464 377 501 355 528 323 _c
554 291 568 251 568 205 _c
568 134 546 80 503 43 _c
459 5 398 -13 318 -13 _c
237 -13 175 5 132 43 _c
89 80 68 134 68 205 _c
68 251 81 291 108 323 _c
134 355 171 377 219 388 _c
183 544 _m
183 506 194 476 218 455 _c
}_e{242 434 275 424 318 424 _c
360 424 393 434 417 455 _c
441 476 453 506 453 544 _c
453 582 441 611 417 632 _c
393 653 360 664 318 664 _c
275 664 242 653 218 632 _c
194 611 183 582 183 544 _c
_cl}_e}_d
/F{575 0 98 0 517 729 _sc
98 729 _m
517 729 _l
517 646 _l
197 646 _l
197 431 _l
486 431 _l
486 348 _l
197 348 _l
197 0 _l
98 0 _l
98 729 _l
_cl}_d
/N{748 0 98 0 650 729 _sc
98 729 _m
231 729 _l
554 119 _l
554 729 _l
650 729 _l
650 0 _l
517 0 _l
194 610 _l
194 0 _l
98 0 _l
98 729 _l
_cl}_d
/P{603 0 98 0 569 729 _sc
197 648 _m
197 374 _l
321 374 _l
367 374 402 385 427 409 _c
452 433 465 467 465 511 _c
465 555 452 588 427 612 _c
402 636 367 648 321 648 _c
197 648 _l
98 729 _m
321 729 _l
402 729 464 710 506 673 _c
548 636 569 582 569 511 _c
569 439 548 384 506 348 _c
464 311 402 293 321 293 _c
197 293 _l
197 0 _l
98 0 _l
98 729 _l
_cl}_d
/R{{695 0 98 0 666 729 _sc
444 342 _m
465 334 486 319 506 296 _c
526 272 546 240 566 199 _c
666 0 _l
560 0 _l
467 187 _l
443 235 419 268 397 284 _c
374 300 343 308 304 308 _c
197 308 _l
197 0 _l
98 0 _l
98 729 _l
321 729 _l
404 729 466 711 507 677 _c
548 642 569 589 569 519 _c
569 473 558 434 537 404 _c
515 374 484 353 444 342 _c
197 648 _m
197 389 _l
321 389 _l
}_e{368 389 404 400 428 422 _c
452 444 465 476 465 519 _c
465 561 452 593 428 615 _c
404 637 368 648 321 648 _c
197 648 _l
_cl}_e}_d
/T{611 0 -2 0 614 729 _sc
-2 729 _m
614 729 _l
614 646 _l
355 646 _l
355 0 _l
256 0 _l
256 646 _l
-2 646 _l
-2 729 _l
_cl}_d
/x{592 0 29 0 559 547 _sc
549 547 _m
351 281 _l
559 0 _l
453 0 _l
294 215 _l
135 0 _l
29 0 _l
241 286 _l
47 547 _l
153 547 _l
298 352 _l
443 547 _l
549 547 _l
_cl}_d
end readonly def

/BuildGlyph
 {exch begin
 CharStrings exch
 2 copy known not{pop /.notdef}if
 true 3 1 roll get exec
 end}_d

/BuildChar {
 1 index /Encoding get exch get
 1 index /BuildGlyph get exec
}_d

FontName currentdict end definefont pop
end
%%EndProlog
mpldict begin
75.6 223.2 translate
460.8 345.6 0 0 clipbox
gsave
0 0 m
460.8 0 l
460.8 345.6 l
0 345.6 l
cl
1.000 setgray
fill
grestore
gsave
57.6 38.016 m
414.72 38.016 l
414.72 304.128 l
57.6 304.128 l
cl
1.000 setgray
fill
grestore
1.000 setlinewidth
1 setlinejoin
0 setlinecap
[] 0 setdash
1.000 0.498 0.055 setrgbcolor
gsave
357.1 266.1 57.6 38.02 clipbox
/o {
gsave
newpath
translate
1.0 setlinewidth
1 setlinejoin
0 setlinecap
57.6 57.254822 m
57.6 107.994727 l
61.207273 112.565177 l
64.814545 117.442316 l
68.421818 133.13602 l
72.029091 138.890921 l
75.636364 145.074288 l
79.243636 159.589331 l
82.850909 165.772864 l
86.458182 175.127939 l
90.065455 179.292002 l
93.672727 183.899253 l
97.28 190.39278 l
100.887273 193.31422 l
104.494545 196.54319 l
108.101818 198.85302 l
111.709091 201.674756 l
115.316364 204.465041 l
118.923636 206.063411 l
122.530909 207.956052 l
126.138182 211.803294 l
129.745455 213.428664 l
133.352727 215.170025 l
136.96 216.738274 l
140.567273 218.569472 l
144.174545 220.55134 l
147.781818 222.209399 l
151.389091 224.041472 l
154.996364 225.313677 l
158.603636 226.489968 l
162.210909 227.789761 l
165.818182 228.405073 l
169.425455 229.202629 l
173.032727 230.234332 l
176.64 231.015801 l
180.247273 232.015172 l
183.854545 232.994646 l
187.461818 234.176025 l
191.069091 235.104368 l
194.676364 236.064825 l
198.283636 237.105475 l
201.890909 239.004394 l
205.498182 240.089478 l
209.105455 241.129348 l
212.712727 241.857656 l
216.32 242.696457 l
219.927273 244.070514 l
223.534545 244.986343 l
227.141818 246.162348 l
230.749091 247.208336 l
234.356364 248.391389 l
237.963636 249.687179 l
241.570909 250.473676 l
245.178182 251.331407 l
248.785455 252.032755 l
252.392727 252.7233 l
256 253.499007 l
259.607273 253.876373 l
263.214545 254.400878 l
266.821818 254.667992 l
270.429091 254.946638 l
274.036364 255.512459 l
277.643636 255.610253 l
281.250909 255.824848 l
284.858182 256.024675 l
288.465455 256.145264 l
292.072727 256.355179 l
295.68 256.576342 l
299.287273 256.842514 l
302.894545 257.193954 l
306.501818 257.501424 l
310.109091 257.929278 l
313.716364 259.427627 l
317.323636 259.978905 l
320.930909 261.906695 l
324.538182 262.882562 l
328.145455 264.004387 l
331.752727 266.315449 l
335.36 267.458397 l
338.967273 268.734626 l
342.574545 272.32993 l
346.181818 273.350266 l
349.789091 276.573726 l
353.396364 277.597722 l
357.003636 278.841205 l
360.610909 283.88088 l
364.218182 284.675942 l
367.825455 287.472594 l
371.432727 287.872326 l
375.04 288.417132 l
378.647273 291.878142 l
382.254545 292.032835 l
385.861818 292.328599 l
389.469091 294.355127 l
393.076364 294.614195 l
396.683636 297.31009 l
400.290909 297.201504 l
403.898182 297.241124 l
407.505455 302.701949 l
411.112727 302.861135 l
414.72 304.128 l
414.72 304.128 l
414.72 304.128 l
411.112727 290.646233 l
407.505455 290.482859 l
403.898182 285.244737 l
400.290909 284.576517 l
396.683636 283.760091 l
393.076364 279.903868 l
389.469091 278.971257 l
385.861818 272.812235 l
382.254545 271.965599 l
378.647273 270.977892 l
375.04 266.669639 l
371.432727 265.753965 l
367.825455 264.693217 l
364.218182 261.268799 l
360.610909 260.173301 l
357.003636 256.542808 l
353.396364 255.741619 l
349.789091 254.720943 l
346.181818 252.945053 l
342.574545 252.270158 l
338.967273 251.809741 l
335.36 251.520658 l
331.752727 251.098294 l
328.145455 250.55147 l
324.538182 250.556879 l
320.930909 250.41633 l
317.323636 250.030836 l
313.716364 249.680738 l
310.109091 249.608682 l
306.501818 249.226552 l
302.894545 248.724039 l
299.287273 248.31369 l
295.68 247.835286 l
292.072727 247.165094 l
288.465455 246.579361 l
284.858182 245.904302 l
281.250909 245.048169 l
277.643636 243.972524 l
274.036364 242.780079 l
270.429091 241.22285 l
266.821818 239.763257 l
263.214545 237.40311 l
259.607273 236.035263 l
256 234.520277 l
252.392727 232.78419 l
248.785455 231.301935 l
245.178182 229.739886 l
241.570909 228.894704 l
237.963636 227.978289 l
234.356364 226.963919 l
230.749091 226.069916 l
227.141818 225.038848 l
223.534545 224.106201 l
219.927273 223.222734 l
216.32 221.920829 l
212.712727 220.834894 l
209.105455 219.638467 l
205.498182 218.457807 l
201.890909 217.595242 l
198.283636 216.150805 l
194.676364 215.305631 l
191.069091 214.380264 l
187.461818 212.760201 l
183.854545 211.544011 l
180.247273 210.125918 l
176.64 208.33978 l
173.032727 206.59952 l
169.425455 204.301344 l
165.818182 202.167316 l
162.210909 199.851044 l
158.603636 197.288475 l
154.996364 195.182846 l
151.389091 192.019177 l
147.781818 189.933169 l
144.174545 187.673149 l
140.567273 185.144792 l
136.96 182.360437 l
133.352727 179.313134 l
129.745455 175.679607 l
126.138182 172.951953 l
122.530909 167.627962 l
118.923636 163.156186 l
115.316364 158.390141 l
111.709091 150.893873 l
108.101818 146.019866 l
104.494545 136.149236 l
100.887273 131.574943 l
97.28 126.693118 l
93.672727 118.797687 l
90.065455 113.93153 l
86.458182 108.622185 l
82.850909 101.79333 l
79.243636 98.003488 l
75.636364 86.992481 l
72.029091 83.838632 l
68.421818 80.256317 l
64.814545 62.367234 l
61.207273 59.964373 l
57.6 57.254822 l
cl

gsave
1.000 0.498 0.055 setrgbcolor
fill
grestore
stroke
grestore
} bind def
0 0 o
grestore
0.000 0.000 1.000 setrgbcolor
gsave
357.1 266.1 57.6 38.02 clipbox
/o {
gsave
newpath
translate
1.0 setlinewidth
1 setlinejoin
0 setlinecap
57.6 56.508689 m
57.6 118.264869 l
61.207273 121.470366 l
64.814545 124.860001 l
68.421818 150.774534 l
72.029091 153.376434 l
75.636364 156.149061 l
79.243636 171.974896 l
82.850909 175.165732 l
86.458182 194.014816 l
90.065455 197.014459 l
93.672727 200.216259 l
97.28 213.787994 l
100.887273 217.072816 l
104.494545 220.538448 l
108.101818 231.843884 l
111.709091 235.259836 l
115.316364 241.193533 l
118.923636 244.405467 l
122.530909 247.82022 l
126.138182 255.065244 l
129.745455 257.698803 l
133.352727 262.995087 l
136.96 265.526078 l
140.567273 268.340866 l
144.174545 272.600795 l
147.781818 274.508149 l
151.389091 276.576001 l
154.996364 278.784872 l
158.603636 280.226589 l
162.210909 283.598451 l
165.818182 285.038059 l
169.425455 286.707231 l
173.032727 290.583569 l
176.64 292.041419 l
180.247273 295.298093 l
183.854545 296.126078 l
187.461818 297.162731 l
191.069091 299.883364 l
194.676364 300.737285 l
198.283636 301.741025 l
201.890909 302.900505 l
205.498182 303.969625 l
209.105455 305.588763 l
212.712727 305.899203 l
216.32 306.333455 l
219.927273 307.074107 l
223.534545 307.31583 l
227.141818 307.53338 l
230.749091 307.550293 l
234.356364 307.650721 l
237.963636 306.43535 l
241.570909 306.132501 l
245.178182 305.924946 l
248.785455 305.852893 l
252.392727 305.759715 l
256 305.744271 l
259.607273 305.549476 l
263.214545 305.542087 l
266.821818 305.58588 l
270.429091 305.62184 l
274.036364 305.72143 l
277.643636 305.595465 l
281.250909 305.548909 l
284.858182 305.491775 l
288.465455 305.425083 l
292.072727 305.492267 l
295.68 305.473261 l
299.287273 305.461778 l
302.894545 305.468961 l
306.501818 305.443169 l
310.109091 305.426438 l
313.716364 305.419221 l
317.323636 305.421846 l
320.930909 305.433576 l
324.538182 305.433576 l
328.145455 305.433576 l
331.752727 305.405119 l
335.36 305.369129 l
338.967273 305.374526 l
342.574545 305.325477 l
346.181818 305.300246 l
349.789091 305.118543 l
353.396364 305.118543 l
357.003636 305.118543 l
360.610909 304.879198 l
364.218182 304.776922 l
367.825455 304.758265 l
371.432727 304.758265 l
375.04 304.758265 l
378.647273 304.758265 l
382.254545 304.758265 l
385.861818 304.758265 l
389.469091 304.128 l
393.076364 304.128 l
396.683636 304.128 l
400.290909 304.128 l
403.898182 304.128 l
407.505455 304.128 l
411.112727 304.128 l
414.72 304.128 l
414.72 304.128 l
414.72 304.128 l
411.112727 304.128 l
407.505455 304.128 l
403.898182 304.128 l
400.290909 304.128 l
396.683636 304.128 l
393.076364 304.128 l
389.469091 304.128 l
385.861818 303.357676 l
382.254545 303.357676 l
378.647273 303.357676 l
375.04 303.357676 l
371.432727 303.357676 l
367.825455 303.357676 l
364.218182 303.286673 l
360.610909 303.130638 l
357.003636 302.71728 l
353.396364 302.71728 l
349.789091 302.71728 l
346.181818 302.214432 l
342.574545 302.135441 l
338.967273 302.032632 l
335.36 301.984269 l
331.752727 301.894519 l
328.145455 301.842011 l
324.538182 301.842011 l
320.930909 301.842011 l
317.323636 301.828276 l
313.716364 301.804021 l
310.109091 301.769924 l
306.501818 301.726313 l
302.894545 301.673641 l
299.287273 301.634137 l
295.68 301.568895 l
292.072727 301.471371 l
288.465455 301.296634 l
284.858182 300.988023 l
281.250909 300.703116 l
277.643636 300.44152 l
274.036364 300.100515 l
270.429091 299.816122 l
266.821818 299.605682 l
263.214545 298.582528 l
259.607273 297.947938 l
256 297.125944 l
252.392727 296.400538 l
248.785455 295.760799 l
245.178182 294.570162 l
241.570909 293.704046 l
237.963636 292.742638 l
234.356364 289.309077 l
230.749091 288.432865 l
227.141818 287.473138 l
223.534545 284.83108 l
219.927273 283.713572 l
216.32 281.508954 l
212.712727 279.943333 l
209.105455 278.253901 l
205.498182 274.308738 l
201.890909 272.262466 l
198.283636 267.246902 l
194.676364 265.409426 l
191.069091 263.422132 l
187.461818 260.42646 l
183.854545 257.874505 l
180.247273 255.113882 l
176.64 251.29448 l
173.032727 249.341129 l
169.425455 246.483287 l
165.818182 243.822859 l
162.210909 240.932867 l
158.603636 235.150994 l
154.996364 233.020231 l
151.389091 228.116715 l
147.781818 225.881846 l
144.174545 223.486481 l
140.567273 218.156913 l
136.96 214.869812 l
133.352727 211.298915 l
129.745455 195.659136 l
126.138182 192.205143 l
122.530909 180.489317 l
118.923636 177.276359 l
115.316364 173.860581 l
111.709091 161.804814 l
108.101818 158.566174 l
104.494545 143.901828 l
100.887273 141.204772 l
97.28 138.326906 l
93.672727 126.794985 l
90.065455 124.420977 l
86.458182 121.844811 l
82.850909 108.971935 l
79.243636 106.813651 l
75.636364 88.417003 l
72.029091 86.404989 l
68.421818 84.222249 l
64.814545 59.751637 l
61.207273 58.222232 l
57.6 56.508689 l
cl

gsave
0.000 0.000 1.000 setrgbcolor
fill
grestore
stroke
grestore
} bind def
0 0 o
grestore
0.000 0.500 0.000 setrgbcolor
gsave
357.1 266.1 57.6 38.02 clipbox
/o {
gsave
newpath
translate
1.0 setlinewidth
1 setlinejoin
0 setlinecap
57.6 55.847248 m
57.6 117.245603 l
61.207273 122.726987 l
64.814545 128.597388 l
68.421818 147.480856 l
72.029091 152.343005 l
75.636364 157.697724 l
79.243636 166.955533 l
82.850909 171.154357 l
86.458182 179.366881 l
90.065455 184.260494 l
93.672727 189.827164 l
97.28 200.98534 l
100.887273 206.53551 l
104.494545 212.445733 l
108.101818 221.351487 l
111.709091 227.650136 l
115.316364 234.23506 l
118.923636 239.577268 l
122.530909 245.525322 l
126.138182 251.231357 l
129.745455 255.455596 l
133.352727 260.009844 l
136.96 262.509369 l
140.567273 265.198043 l
144.174545 268.69167 l
147.781818 271.475528 l
151.389091 274.520059 l
154.996364 277.924748 l
158.603636 280.475119 l
162.210909 283.083811 l
165.818182 284.982975 l
169.425455 287.02147 l
173.032727 288.333215 l
176.64 289.477673 l
180.247273 290.853737 l
183.854545 291.413575 l
187.461818 292.115007 l
191.069091 292.921127 l
194.676364 293.467674 l
198.283636 294.097296 l
201.890909 294.720678 l
205.498182 295.374669 l
209.105455 296.059382 l
212.712727 296.496416 l
216.32 296.994494 l
219.927273 297.261937 l
223.534545 297.499608 l
227.141818 297.815338 l
230.749091 297.92724 l
234.356364 298.130703 l
237.963636 298.322177 l
241.570909 298.477566 l
245.178182 298.724461 l
248.785455 298.738263 l
252.392727 298.758818 l
256 298.791292 l
259.607273 298.771837 l
263.214545 298.794131 l
266.821818 298.839415 l
270.429091 298.800807 l
274.036364 298.850576 l
277.643636 298.688033 l
281.250909 298.682955 l
284.858182 298.921229 l
288.465455 298.968666 l
292.072727 299.048363 l
295.68 298.979631 l
299.287273 299.03232 l
302.894545 299.384088 l
306.501818 299.548017 l
310.109091 299.800804 l
313.716364 299.986782 l
317.323636 300.146619 l
320.930909 300.670935 l
324.538182 300.781797 l
328.145455 300.963419 l
331.752727 302.104341 l
335.36 302.25428 l
338.967273 302.47256 l
342.574545 302.800255 l
346.181818 303.009948 l
349.789091 303.44252 l
353.396364 303.633982 l
357.003636 303.997147 l
360.610909 304.858165 l
364.218182 304.976118 l
367.825455 305.662914 l
371.432727 305.649174 l
375.04 305.717862 l
378.647273 305.689925 l
382.254545 305.641221 l
385.861818 305.74497 l
389.469091 305.232742 l
393.076364 304.950294 l
396.683636 304.128 l
400.290909 304.128 l
403.898182 304.128 l
407.505455 304.128 l
411.112727 304.128 l
414.72 304.128 l
414.72 304.128 l
414.72 304.128 l
411.112727 304.128 l
407.505455 304.128 l
403.898182 304.128 l
400.290909 304.128 l
396.683636 304.128 l
393.076364 303.080763 l
389.469091 302.690795 l
385.861818 300.770904 l
382.254545 300.552093 l
378.647273 300.180829 l
375.04 299.192285 l
371.432727 299.045934 l
367.825455 298.817153 l
364.218182 297.389625 l
360.610909 297.211898 l
357.003636 296.130954 l
353.396364 295.911719 l
349.789091 295.520781 l
346.181818 295.261782 l
342.574545 295.113076 l
338.967273 294.674219 l
335.36 294.610259 l
331.752727 294.477958 l
328.145455 294.095916 l
324.538182 294.031137 l
320.930909 293.8956 l
317.323636 293.388337 l
313.716364 293.212173 l
310.109091 292.771612 l
306.501818 292.657935 l
302.894545 292.4554 l
299.287273 291.939227 l
295.68 291.705196 l
292.072727 291.212632 l
288.465455 291.028009 l
284.858182 290.811126 l
281.250909 290.226742 l
277.643636 289.694838 l
274.036364 289.005468 l
270.429091 288.408295 l
266.821818 287.864514 l
263.214545 287.218082 l
259.607273 286.588002 l
256 285.916174 l
252.392727 285.162809 l
248.785455 284.34315 l
245.178182 283.468659 l
241.570909 282.418572 l
237.963636 281.27698 l
234.356364 279.876593 l
230.749091 278.193314 l
227.141818 276.418475 l
223.534545 274.763401 l
219.927273 273.020379 l
216.32 271.273836 l
212.712727 269.676214 l
209.105455 268.017546 l
205.498182 265.997899 l
201.890909 263.66661 l
198.283636 260.882219 l
194.676364 258.497227 l
191.069091 256.029161 l
187.461818 253.264333 l
183.854545 250.368026 l
180.247273 247.330126 l
176.64 244.336403 l
173.032727 241.316659 l
169.425455 238.146811 l
165.818182 234.815024 l
162.210909 231.343905 l
158.603636 227.214593 l
154.996364 222.528633 l
151.389091 216.608274 l
147.781818 212.647642 l
144.174545 208.426338 l
140.567273 202.99603 l
136.96 198.460469 l
133.352727 193.735759 l
129.745455 187.751597 l
126.138182 182.479217 l
122.530909 173.921031 l
118.923636 168.574749 l
115.316364 162.622621 l
111.709091 156.327854 l
108.101818 152.148424 l
104.494545 145.146203 l
100.887273 141.809706 l
97.28 138.113156 l
93.672727 132.167258 l
90.065455 128.786472 l
86.458182 124.732629 l
82.850909 114.472745 l
79.243636 110.924753 l
75.636364 93.02999 l
72.029091 89.603909 l
68.421818 85.685257 l
64.814545 61.716582 l
61.207273 58.976424 l
57.6 55.847248 l
cl

gsave
0.000 0.500 0.000 setrgbcolor
fill
grestore
stroke
grestore
} bind def
0 0 o
grestore
0.750 0.000 0.750 setrgbcolor
gsave
357.1 266.1 57.6 38.02 clipbox
/o {
gsave
newpath
translate
1.0 setlinewidth
1 setlinejoin
0 setlinecap
57.6 62.792858 m
57.6 119.96406 l
61.207273 123.008513 l
64.814545 126.23687 l
68.421818 147.936517 l
72.029091 151.226288 l
75.636364 154.8378 l
79.243636 168.306803 l
82.850909 171.105341 l
86.458182 185.403149 l
90.065455 188.832538 l
93.672727 192.551602 l
97.28 210.177588 l
100.887273 214.951223 l
104.494545 220.057318 l
108.101818 236.552615 l
111.709091 241.857672 l
115.316364 253.804367 l
118.923636 257.525834 l
122.530909 261.473265 l
126.138182 271.630621 l
129.745455 275.288748 l
133.352727 282.285932 l
136.96 284.602612 l
140.567273 287.342777 l
144.174545 289.002055 l
147.781818 290.585515 l
151.389091 292.572903 l
154.996364 295.532211 l
158.603636 296.776162 l
162.210909 298.247289 l
165.818182 299.354505 l
169.425455 300.668157 l
173.032727 302.142426 l
176.64 302.561977 l
180.247273 301.774374 l
183.854545 302.104871 l
187.461818 302.647235 l
191.069091 303.838681 l
194.676364 304.255847 l
198.283636 304.81288 l
201.890909 305.497331 l
205.498182 305.943581 l
209.105455 306.334785 l
212.712727 306.3534 l
216.32 306.457991 l
219.927273 306.314167 l
223.534545 306.35387 l
227.141818 306.286888 l
230.749091 306.044599 l
234.356364 305.899397 l
237.963636 305.682827 l
241.570909 305.616881 l
245.178182 305.573609 l
248.785455 305.565468 l
252.392727 305.548627 l
256 305.487063 l
259.607273 305.494538 l
263.214545 305.561276 l
266.821818 305.674509 l
270.429091 305.699515 l
274.036364 305.736083 l
277.643636 305.743325 l
281.250909 305.765936 l
284.858182 305.647332 l
288.465455 305.653191 l
292.072727 305.673513 l
295.68 305.506167 l
299.287273 305.529387 l
302.894545 305.563796 l
306.501818 305.520478 l
310.109091 305.538774 l
313.716364 305.494298 l
317.323636 305.474457 l
320.930909 305.463422 l
324.538182 305.461531 l
328.145455 305.469003 l
331.752727 305.451645 l
335.36 305.420749 l
338.967273 305.428663 l
342.574545 305.311799 l
346.181818 305.311799 l
349.789091 305.311799 l
353.396364 305.311799 l
357.003636 305.311799 l
360.610909 304.758265 l
364.218182 304.758265 l
367.825455 304.758265 l
371.432727 304.758265 l
375.04 304.758265 l
378.647273 304.758265 l
382.254545 304.758265 l
385.861818 304.758265 l
389.469091 304.128 l
393.076364 304.128 l
396.683636 304.128 l
400.290909 304.128 l
403.898182 304.128 l
407.505455 304.128 l
411.112727 304.128 l
414.72 304.128 l
414.72 304.128 l
414.72 304.128 l
411.112727 304.128 l
407.505455 304.128 l
403.898182 304.128 l
400.290909 304.128 l
396.683636 304.128 l
393.076364 304.128 l
389.469091 304.128 l
385.861818 303.357676 l
382.254545 303.357676 l
378.647273 303.357676 l
375.04 303.357676 l
371.432727 303.357676 l
367.825455 303.357676 l
364.218182 303.357676 l
360.610909 303.357676 l
357.003636 302.243907 l
353.396364 302.243907 l
349.789091 302.243907 l
346.181818 302.243907 l
342.574545 302.243907 l
338.967273 301.838436 l
335.36 301.79259 l
331.752727 301.707934 l
328.145455 301.651671 l
324.538182 301.632263 l
320.930909 301.603491 l
317.323636 301.565576 l
313.716364 301.518856 l
310.109091 301.139794 l
306.501818 301.050571 l
302.894545 300.899733 l
299.287273 300.653552 l
295.68 300.524452 l
292.072727 299.795219 l
288.465455 299.743862 l
284.858182 299.678041 l
281.250909 299.338266 l
277.643636 299.271277 l
274.036364 299.188919 l
270.429091 299.135887 l
266.821818 299.071293 l
263.214545 298.75256 l
259.607273 298.532578 l
256 298.253333 l
252.392727 297.663129 l
248.785455 297.216208 l
245.178182 296.650188 l
241.570909 296.293317 l
237.963636 295.913771 l
234.356364 294.870523 l
230.749091 293.945801 l
227.141818 292.923992 l
223.534545 290.647427 l
219.927273 288.93545 l
216.32 286.305415 l
212.712727 285.023893 l
209.105455 283.656396 l
205.498182 281.443824 l
201.890909 280.15721 l
198.283636 277.828814 l
194.676364 276.406583 l
191.069091 274.844485 l
187.461818 272.563554 l
183.854545 270.635646 l
180.247273 268.495871 l
176.64 263.31452 l
173.032727 260.984247 l
169.425455 257.101332 l
165.818182 254.805 l
162.210909 252.302232 l
158.603636 248.467577 l
154.996364 246.291496 l
151.389091 241.365391 l
147.781818 237.585227 l
144.174545 233.401135 l
140.567273 221.599428 l
136.96 216.715529 l
133.352727 211.408145 l
129.745455 199.546934 l
126.138182 194.547908 l
122.530909 179.970406 l
118.923636 175.974798 l
115.316364 171.753224 l
111.709091 161.492088 l
108.101818 157.778905 l
104.494545 144.162707 l
100.887273 142.365122 l
97.28 140.235078 l
93.672727 130.954419 l
90.065455 128.495563 l
86.458182 125.747032 l
82.850909 112.145758 l
79.243636 109.438376 l
75.636364 94.232314 l
72.029091 92.055666 l
68.421818 89.557277 l
64.814545 65.605487 l
61.207273 64.291125 l
57.6 62.792858 l
cl

gsave
0.750 0.000 0.750 setrgbcolor
fill
grestore
stroke
grestore
} bind def
0 0 o
grestore
0.800 setlinewidth
2 setlinecap
0.690 setgray
gsave
357.1 266.1 57.6 38.02 clipbox
57.6 38.016 m
57.6 304.128 l
stroke
grestore
0 setlinecap
0.000 setgray
gsave
/o {
gsave
newpath
translate
0.8 setlinewidth
1 setlinejoin
0 setlinecap
0 0 m
0 -3.5 l

gsave
0.000 setgray
fill
grestore
stroke
grestore
} bind def
57.6 38.016 o
grestore
/DejaVuSans findfont
12.000 scalefont
setfont
gsave
48.053125 21.891000 translate
0.000000 rotate
0.000000 0.000000 m /zero glyphshow
7.634766 0.000000 m /period glyphshow
11.449219 0.000000 m /zero glyphshow
grestore
2 setlinecap
0.690 setgray
gsave
357.1 266.1 57.6 38.02 clipbox
129.024 38.016 m
129.024 304.128 l
stroke
grestore
0 setlinecap
0.000 setgray
gsave
/o {
gsave
newpath
translate
0.8 setlinewidth
1 setlinejoin
0 setlinecap
0 0 m
0 -3.5 l

gsave
0.000 setgray
fill
grestore
stroke
grestore
} bind def
129.024 38.016 o
grestore
gsave
119.477125 21.891000 translate
0.000000 rotate
0.000000 0.000000 m /zero glyphshow
7.634766 0.000000 m /period glyphshow
11.449219 0.000000 m /two glyphshow
grestore
2 setlinecap
0.690 setgray
gsave
357.1 266.1 57.6 38.02 clipbox
200.448 38.016 m
200.448 304.128 l
stroke
grestore
0 setlinecap
0.000 setgray
gsave
/o {
gsave
newpath
translate
0.8 setlinewidth
1 setlinejoin
0 setlinecap
0 0 m
0 -3.5 l

gsave
0.000 setgray
fill
grestore
stroke
grestore
} bind def
200.448 38.016 o
grestore
gsave
190.901125 21.891000 translate
0.000000 rotate
0.000000 0.000000 m /zero glyphshow
7.634766 0.000000 m /period glyphshow
11.449219 0.000000 m /four glyphshow
grestore
2 setlinecap
0.690 setgray
gsave
357.1 266.1 57.6 38.02 clipbox
271.872 38.016 m
271.872 304.128 l
stroke
grestore
0 setlinecap
0.000 setgray
gsave
/o {
gsave
newpath
translate
0.8 setlinewidth
1 setlinejoin
0 setlinecap
0 0 m
0 -3.5 l

gsave
0.000 setgray
fill
grestore
stroke
grestore
} bind def
271.872 38.016 o
grestore
gsave
262.325125 21.891000 translate
0.000000 rotate
0.000000 0.000000 m /zero glyphshow
7.634766 0.000000 m /period glyphshow
11.449219 0.000000 m /six glyphshow
grestore
2 setlinecap
0.690 setgray
gsave
357.1 266.1 57.6 38.02 clipbox
343.296 38.016 m
343.296 304.128 l
stroke
grestore
0 setlinecap
0.000 setgray
gsave
/o {
gsave
newpath
translate
0.8 setlinewidth
1 setlinejoin
0 setlinecap
0 0 m
0 -3.5 l

gsave
0.000 setgray
fill
grestore
stroke
grestore
} bind def
343.296 38.016 o
grestore
gsave
333.749125 21.891000 translate
0.000000 rotate
0.000000 0.000000 m /zero glyphshow
7.634766 0.000000 m /period glyphshow
11.449219 0.000000 m /eight glyphshow
grestore
2 setlinecap
0.690 setgray
gsave
357.1 266.1 57.6 38.02 clipbox
414.72 38.016 m
414.72 304.128 l
stroke
grestore
0 setlinecap
0.000 setgray
gsave
/o {
gsave
newpath
translate
0.8 setlinewidth
1 setlinejoin
0 setlinecap
0 0 m
0 -3.5 l

gsave
0.000 setgray
fill
grestore
stroke
grestore
} bind def
414.72 38.016 o
grestore
gsave
405.173125 21.891000 translate
0.000000 rotate
0.000000 0.000000 m /one glyphshow
7.634766 0.000000 m /period glyphshow
11.449219 0.000000 m /zero glyphshow
grestore
gsave
224.042812 6.266000 translate
0.000000 rotate
0.000000 0.000000 m /F glyphshow
6.902344 0.000000 m /N glyphshow
15.878906 0.000000 m /R glyphshow
grestore
2 setlinecap
0.690 setgray
gsave
357.1 266.1 57.6 38.02 clipbox
57.6 38.016 m
414.72 38.016 l
stroke
grestore
0 setlinecap
0.000 setgray
gsave
/o {
gsave
newpath
translate
0.8 setlinewidth
1 setlinejoin
0 setlinecap
0 0 m
-3.5 0 l

gsave
0.000 setgray
fill
grestore
stroke
grestore
} bind def
57.6 38.016 o
grestore
gsave
31.506250 33.453500 translate
0.000000 rotate
0.000000 0.000000 m /zero glyphshow
7.634766 0.000000 m /period glyphshow
11.449219 0.000000 m /zero glyphshow
grestore
2 setlinecap
0.690 setgray
gsave
357.1 266.1 57.6 38.02 clipbox
57.6 91.2384 m
414.72 91.2384 l
stroke
grestore
0 setlinecap
0.000 setgray
gsave
/o {
gsave
newpath
translate
0.8 setlinewidth
1 setlinejoin
0 setlinecap
0 0 m
-3.5 0 l

gsave
0.000 setgray
fill
grestore
stroke
grestore
} bind def
57.6 91.2384 o
grestore
gsave
31.506250 86.675900 translate
0.000000 rotate
0.000000 0.000000 m /zero glyphshow
7.634766 0.000000 m /period glyphshow
11.449219 0.000000 m /two glyphshow
grestore
2 setlinecap
0.690 setgray
gsave
357.1 266.1 57.6 38.02 clipbox
57.6 144.4608 m
414.72 144.4608 l
stroke
grestore
0 setlinecap
0.000 setgray
gsave
/o {
gsave
newpath
translate
0.8 setlinewidth
1 setlinejoin
0 setlinecap
0 0 m
-3.5 0 l

gsave
0.000 setgray
fill
grestore
stroke
grestore
} bind def
57.6 144.461 o
grestore
gsave
31.506250 139.898300 translate
0.000000 rotate
0.000000 0.000000 m /zero glyphshow
7.634766 0.000000 m /period glyphshow
11.449219 0.000000 m /four glyphshow
grestore
2 setlinecap
0.690 setgray
gsave
357.1 266.1 57.6 38.02 clipbox
57.6 197.6832 m
414.72 197.6832 l
stroke
grestore
0 setlinecap
0.000 setgray
gsave
/o {
gsave
newpath
translate
0.8 setlinewidth
1 setlinejoin
0 setlinecap
0 0 m
-3.5 0 l

gsave
0.000 setgray
fill
grestore
stroke
grestore
} bind def
57.6 197.683 o
grestore
gsave
31.506250 193.120700 translate
0.000000 rotate
0.000000 0.000000 m /zero glyphshow
7.634766 0.000000 m /period glyphshow
11.449219 0.000000 m /six glyphshow
grestore
2 setlinecap
0.690 setgray
gsave
357.1 266.1 57.6 38.02 clipbox
57.6 250.9056 m
414.72 250.9056 l
stroke
grestore
0 setlinecap
0.000 setgray
gsave
/o {
gsave
newpath
translate
0.8 setlinewidth
1 setlinejoin
0 setlinecap
0 0 m
-3.5 0 l

gsave
0.000 setgray
fill
grestore
stroke
grestore
} bind def
57.6 250.906 o
grestore
gsave
31.506250 246.343100 translate
0.000000 rotate
0.000000 0.000000 m /zero glyphshow
7.634766 0.000000 m /period glyphshow
11.449219 0.000000 m /eight glyphshow
grestore
2 setlinecap
0.690 setgray
gsave
357.1 266.1 57.6 38.02 clipbox
57.6 304.128 m
414.72 304.128 l
stroke
grestore
0 setlinecap
0.000 setgray
gsave
/o {
gsave
newpath
translate
0.8 setlinewidth
1 setlinejoin
0 setlinecap
0 0 m
-3.5 0 l

gsave
0.000 setgray
fill
grestore
stroke
grestore
} bind def
57.6 304.128 o
grestore
gsave
31.506250 299.565500 translate
0.000000 rotate
0.000000 0.000000 m /one glyphshow
7.634766 0.000000 m /period glyphshow
11.449219 0.000000 m /zero glyphshow
grestore
gsave
25.006250 159.618875 translate
90.000000 rotate
0.000000 0.000000 m /T glyphshow
7.330078 0.000000 m /P glyphshow
14.566406 0.000000 m /R glyphshow
grestore
2.000 setlinewidth
[12.8 3.2 2 3.2] 0 setdash
1.000 0.498 0.055 setrgbcolor
gsave
357.1 266.1 57.6 38.02 clipbox
57.6 82.624775 m
61.207273 86.264775 l
64.814545 89.904775 l
68.421818 106.696168 l
72.029091 111.364776 l
75.636364 116.033384 l
79.243636 128.796409 l
82.850909 133.783097 l
86.458182 141.875062 l
90.065455 146.611766 l
93.672727 151.34847 l
97.28 158.542949 l
100.887273 162.444581 l
104.494545 166.346213 l
108.101818 172.436443 l
111.709091 176.284315 l
115.316364 181.427591 l
118.923636 184.609799 l
122.530909 187.792007 l
126.138182 192.377624 l
129.745455 194.554136 l
133.352727 197.24158 l
136.96 199.549356 l
140.567273 201.857132 l
144.174545 204.112244 l
147.781818 206.071284 l
151.389091 208.030324 l
154.996364 210.248261 l
158.603636 211.889221 l
162.210909 213.820403 l
165.818182 215.286195 l
169.425455 216.751987 l
173.032727 218.416926 l
176.64 219.67779 l
180.247273 221.070545 l
183.854545 222.269329 l
187.461818 223.468113 l
191.069091 224.742316 l
194.676364 225.685228 l
198.283636 226.62814 l
201.890909 228.299818 l
205.498182 229.273642 l
209.105455 230.383907 l
212.712727 231.346275 l
216.32 232.308643 l
219.927273 233.646624 l
223.534545 234.546272 l
227.141818 235.600598 l
230.749091 236.639126 l
234.356364 237.677654 l
237.963636 238.832734 l
241.570909 239.68419 l
245.178182 240.535646 l
248.785455 241.667345 l
252.392727 242.753745 l
256 244.009642 l
259.607273 244.955818 l
263.214545 245.901994 l
266.821818 247.215624 l
270.429091 248.084744 l
274.036364 249.146269 l
277.643636 249.791389 l
281.250909 250.436509 l
284.858182 250.964488 l
288.465455 251.362312 l
292.072727 251.760136 l
295.68 252.205814 l
299.287273 252.578102 l
302.894545 252.958996 l
306.501818 253.363988 l
310.109091 253.76898 l
313.716364 254.554183 l
317.323636 255.004871 l
320.930909 256.161512 l
324.538182 256.71972 l
328.145455 257.277928 l
331.752727 258.706872 l
335.36 259.489528 l
338.967273 260.272184 l
342.574545 262.300044 l
346.181818 263.14766 l
349.789091 265.647335 l
353.396364 266.669671 l
357.003636 267.692007 l
360.610909 272.027091 l
364.218182 272.972371 l
367.825455 276.082905 l
371.432727 276.813145 l
375.04 277.543385 l
378.647273 281.428017 l
382.254545 281.999217 l
385.861818 282.570417 l
389.469091 286.663192 l
393.076364 287.259032 l
396.683636 290.535091 l
400.290909 290.889011 l
403.898182 291.242931 l
407.505455 296.592404 l
411.112727 296.753684 l
414.72 304.128 l
stroke
grestore
[7.4 3.2] 0 setdash
0.000 0.000 1.000 setrgbcolor
gsave
357.1 266.1 57.6 38.02 clipbox
57.6 87.386779 m
61.207273 89.846299 l
64.814545 92.305819 l
68.421818 117.498392 l
72.029091 119.890712 l
75.636364 122.283032 l
79.243636 139.394274 l
82.850909 142.068834 l
86.458182 157.929814 l
90.065455 160.717718 l
93.672727 163.505622 l
97.28 176.05745 l
100.887273 179.138794 l
104.494545 182.220138 l
108.101818 195.205029 l
111.709091 198.532325 l
115.316364 207.527057 l
118.923636 210.840913 l
122.530909 214.154769 l
126.138182 223.635193 l
129.745455 226.678969 l
133.352727 237.147001 l
136.96 240.197945 l
140.567273 243.248889 l
144.174545 248.043638 l
147.781818 250.194998 l
151.389091 252.346358 l
154.996364 255.902552 l
158.603636 257.688792 l
162.210909 262.265659 l
165.818182 264.430459 l
169.425455 266.595259 l
173.032727 269.962349 l
176.64 271.667949 l
180.247273 275.205987 l
183.854545 277.000291 l
187.461818 278.794595 l
191.069091 281.652748 l
194.676364 283.073356 l
198.283636 284.493964 l
201.890909 287.581485 l
205.498182 289.139181 l
209.105455 291.921332 l
212.712727 292.921268 l
216.32 293.921204 l
219.927273 295.393839 l
223.534545 296.073455 l
227.141818 297.503259 l
230.749091 297.991579 l
234.356364 298.479899 l
237.963636 299.588994 l
241.570909 299.918274 l
245.178182 300.247554 l
248.785455 300.806846 l
252.392727 301.080126 l
256 301.435107 l
259.607273 301.748707 l
263.214545 302.062307 l
266.821818 302.595781 l
270.429091 302.718981 l
274.036364 302.910973 l
277.643636 303.018493 l
281.250909 303.126013 l
284.858182 303.239899 l
288.465455 303.360859 l
292.072727 303.481819 l
295.68 303.521078 l
299.287273 303.547958 l
302.894545 303.571301 l
306.501818 303.584741 l
310.109091 303.598181 l
313.716364 303.611621 l
317.323636 303.625061 l
320.930909 303.637794 l
324.538182 303.637794 l
328.145455 303.637794 l
331.752727 303.649819 l
335.36 303.676699 l
338.967273 303.703579 l
342.574545 303.730459 l
346.181818 303.757339 l
349.789091 303.917912 l
353.396364 303.917912 l
357.003636 303.917912 l
360.610909 304.004918 l
364.218182 304.031798 l
367.825455 304.057971 l
371.432727 304.057971 l
375.04 304.057971 l
378.647273 304.057971 l
382.254545 304.057971 l
385.861818 304.057971 l
389.469091 304.128 l
393.076364 304.128 l
396.683636 304.128 l
400.290909 304.128 l
403.898182 304.128 l
407.505455 304.128 l
411.112727 304.128 l
414.72 304.128 l
stroke
grestore
[2 3.3] 0 setdash
0.000 0.500 0.000 setrgbcolor
gsave
357.1 266.1 57.6 38.02 clipbox
57.6 86.546425 m
61.207273 90.851705 l
64.814545 95.156985 l
68.421818 116.583057 l
72.029091 120.973457 l
75.636364 125.363857 l
79.243636 138.940143 l
82.850909 142.813551 l
86.458182 152.049755 l
90.065455 156.523483 l
93.672727 160.997211 l
97.28 169.549248 l
100.887273 174.172608 l
104.494545 178.795968 l
108.101818 186.749955 l
111.709091 191.988995 l
115.316364 198.42884 l
118.923636 204.076008 l
122.530909 209.723176 l
126.138182 216.855287 l
129.745455 221.603596 l
133.352727 226.872802 l
136.96 230.484919 l
140.567273 234.097036 l
144.174545 238.559004 l
147.781818 242.061585 l
151.389091 245.564166 l
154.996364 250.226691 l
158.603636 253.844856 l
162.210909 257.213858 l
165.818182 259.899 l
169.425455 262.584141 l
173.032727 264.824937 l
176.64 266.907038 l
180.247273 269.091931 l
183.854545 270.890801 l
187.461818 272.68967 l
191.069091 274.475144 l
194.676364 275.982451 l
198.283636 277.489757 l
201.890909 279.193644 l
205.498182 280.686284 l
209.105455 282.038464 l
212.712727 283.086315 l
216.32 284.134165 l
219.927273 285.141158 l
223.534545 286.131505 l
227.141818 287.116906 l
230.749091 288.060277 l
234.356364 289.003648 l
237.963636 289.799578 l
241.570909 290.448069 l
245.178182 291.09656 l
248.785455 291.540707 l
252.392727 291.960813 l
256 292.353733 l
259.607273 292.679919 l
263.214545 293.006106 l
266.821818 293.351964 l
270.429091 293.604551 l
274.036364 293.928022 l
277.643636 294.191435 l
281.250909 294.454849 l
284.858182 294.866178 l
288.465455 294.998338 l
292.072727 295.130498 l
295.68 295.342413 l
299.287273 295.485773 l
302.894545 295.919744 l
306.501818 296.102976 l
310.109091 296.286208 l
313.716364 296.599478 l
317.323636 296.767478 l
320.930909 297.283267 l
324.538182 297.406467 l
328.145455 297.529667 l
331.752727 298.291149 l
335.36 298.432269 l
338.967273 298.573389 l
342.574545 298.956665 l
346.181818 299.135865 l
349.789091 299.481651 l
353.396364 299.772851 l
357.003636 300.064051 l
360.610909 301.035032 l
364.218182 301.182872 l
367.825455 302.240034 l
371.432727 302.347554 l
375.04 302.455074 l
378.647273 302.935377 l
382.254545 303.096657 l
385.861818 303.257937 l
389.469091 303.961768 l
393.076364 304.015528 l
396.683636 304.128 l
400.290909 304.128 l
403.898182 304.128 l
407.505455 304.128 l
411.112727 304.128 l
414.72 304.128 l
stroke
grestore
2 setlinecap
[] 0 setdash
0.750 0.000 0.750 setrgbcolor
gsave
357.1 266.1 57.6 38.02 clipbox
57.6 91.378459 m
61.207273 93.649819 l
64.814545 95.921179 l
68.421818 118.746897 l
72.029091 121.640977 l
75.636364 124.535057 l
79.243636 138.872589 l
82.850909 141.625549 l
86.458182 155.575091 l
90.065455 158.664051 l
93.672727 161.753011 l
97.28 175.206333 l
100.887273 178.658173 l
104.494545 182.110013 l
108.101818 197.16576 l
111.709091 201.67488 l
115.316364 212.778796 l
118.923636 216.750316 l
122.530909 220.721836 l
126.138182 233.089265 l
129.745455 237.417841 l
133.352727 246.847038 l
136.96 250.65907 l
140.567273 254.471102 l
144.174545 261.201595 l
147.781818 264.085371 l
151.389091 266.969147 l
154.996364 270.911853 l
158.603636 272.621869 l
162.210909 275.27476 l
165.818182 277.079752 l
169.425455 278.884744 l
173.032727 281.563336 l
176.64 282.938248 l
180.247273 285.135123 l
183.854545 286.370259 l
187.461818 287.605395 l
191.069091 289.341583 l
194.676364 290.331215 l
198.283636 291.320847 l
201.890909 292.827271 l
205.498182 293.693703 l
209.105455 294.995591 l
212.712727 295.688647 l
216.32 296.381703 l
219.927273 297.624808 l
223.534545 298.500648 l
227.141818 299.60544 l
230.749091 299.9952 l
234.356364 300.38496 l
237.963636 300.798299 l
241.570909 300.955099 l
245.178182 301.111899 l
248.785455 301.390838 l
252.392727 301.605878 l
256 301.870198 l
259.607273 302.013558 l
263.214545 302.156918 l
266.821818 302.372901 l
270.429091 302.417701 l
274.036364 302.462501 l
277.643636 302.507301 l
281.250909 302.552101 l
284.858182 302.662686 l
288.465455 302.698526 l
292.072727 302.734366 l
295.68 303.015309 l
299.287273 303.091469 l
302.894545 303.231764 l
306.501818 303.285524 l
310.109091 303.339284 l
313.716364 303.506577 l
317.323636 303.520017 l
320.930909 303.533457 l
324.538182 303.546897 l
328.145455 303.560337 l
331.752727 303.579789 l
335.36 303.606669 l
338.967273 303.633549 l
342.574545 303.777853 l
346.181818 303.777853 l
349.789091 303.777853 l
353.396364 303.777853 l
357.003636 303.777853 l
360.610909 304.057971 l
364.218182 304.057971 l
367.825455 304.057971 l
371.432727 304.057971 l
375.04 304.057971 l
378.647273 304.057971 l
382.254545 304.057971 l
385.861818 304.057971 l
389.469091 304.128 l
393.076364 304.128 l
396.683636 304.128 l
400.290909 304.128 l
403.898182 304.128 l
407.505455 304.128 l
411.112727 304.128 l
414.72 304.128 l
stroke
grestore
0.800 setlinewidth
0 setlinejoin
[] 0 setdash
0.000 setgray
gsave
57.6 38.016 m
57.6 304.128 l
stroke
grestore
gsave
414.72 38.016 m
414.72 304.128 l
stroke
grestore
gsave
57.6 38.016 m
414.72 38.016 l
stroke
grestore
gsave
57.6 304.128 m
414.72 304.128 l
stroke
grestore
1.000 setlinewidth
0 setlinecap
0.800 setgray
gsave
337.498125 44.016 m
406.32 44.016 l
407.92 44.016 408.72 44.816 408.72 46.416 c
408.72 115.716 l
408.72 117.316 407.92 118.116 406.32 118.116 c
337.498125 118.116 l
335.898125 118.116 335.098125 117.316 335.098125 115.716 c
335.098125 46.416 l
335.098125 44.816 335.898125 44.016 337.498125 44.016 c
cl
gsave
1.000 setgray
fill
grestore
stroke
grestore
2.000 setlinewidth
1 setlinejoin
[12.8 3.2 2 3.2] 0 setdash
1.000 0.498 0.055 setrgbcolor
gsave
339.898125 108.391 m
363.898125 108.391 l
stroke
grestore
0.000 setgray
gsave
373.498125 104.191000 translate
0.000000 rotate
0.000000 0.000000 m /R glyphshow
8.337891 0.000000 m /T glyphshow
15.667969 0.000000 m /x glyphshow
22.769531 0.000000 m /zero glyphshow
grestore
[7.4 3.2] 0 setdash
0.000 0.000 1.000 setrgbcolor
gsave
339.898125 90.766 m
363.898125 90.766 l
stroke
grestore
0.000 setgray
gsave
373.498125 86.566000 translate
0.000000 rotate
0.000000 0.000000 m /R glyphshow
8.337891 0.000000 m /T glyphshow
15.667969 0.000000 m /x glyphshow
22.769531 0.000000 m /one glyphshow
grestore
[2 3.3] 0 setdash
0.000 0.500 0.000 setrgbcolor
gsave
339.898125 73.141 m
363.898125 73.141 l
stroke
grestore
0.000 setgray
gsave
373.498125 68.941000 translate
0.000000 rotate
0.000000 0.000000 m /R glyphshow
8.337891 0.000000 m /T glyphshow
15.667969 0.000000 m /x glyphshow
22.769531 0.000000 m /seven glyphshow
grestore
2 setlinecap
[] 0 setdash
0.750 0.000 0.750 setrgbcolor
gsave
339.898125 55.516 m
363.898125 55.516 l
stroke
grestore
0.000 setgray
gsave
373.498125 51.316000 translate
0.000000 rotate
0.000000 0.000000 m /R glyphshow
8.337891 0.000000 m /T glyphshow
15.667969 0.000000 m /x glyphshow
grestore

end
showpage
