%!PS-Adobe-3.0 EPSF-3.0
%%Title: ./Model_fit_results/w_function.eps
%%Creator: matplotlib version 3.0.3, http://matplotlib.org/
%%CreationDate: Fri Nov 12 16:06:08 2021
%%Orientation: portrait
%%BoundingBox: 75 223 536 568
%%EndComments
%%BeginProlog
/mpldict 9 dict def
mpldict begin
/m { moveto } bind def
/l { lineto } bind def
/r { rlineto } bind def
/c { curveto } bind def
/cl { closepath } bind def
/box {
m
1 index 0 r
0 exch r
neg 0 r
cl
} bind def
/clipbox {
box
clip
newpath
} bind def
%!PS-Adobe-3.0 Resource-Font
%%Title: DejaVu Sans
%%Copyright: Copyright (c) 2003 by Bitstream, Inc. All Rights Reserved. Copyright (c) 2006 by Tavmjong Bah. All Rights Reserved. DejaVu changes are in public domain 
%%Creator: Converted from TrueType to type 3 by PPR
25 dict begin
/_d{bind def}bind def
/_m{moveto}_d
/_l{lineto}_d
/_cl{closepath eofill}_d
/_c{curveto}_d
/_sc{7 -1 roll{setcachedevice}{pop pop pop pop pop pop}ifelse}_d
/_e{exec}_d
/FontName /DejaVuSans def
/PaintType 0 def
/FontMatrix[.001 0 0 .001 0 0]def
/FontBBox[-1021 -463 1793 1232]def
/FontType 3 def
/Encoding [ /parenleft /parenright /period /zero /one /two /four /six /seven /eight /R /T /x ] def
/FontInfo 10 dict dup begin
/FamilyName (DejaVu Sans) def
/FullName (DejaVu Sans) def
/Notice (Copyright (c) 2003 by Bitstream, Inc. All Rights Reserved. Copyright (c) 2006 by Tavmjong Bah. All Rights Reserved. DejaVu changes are in public domain ) def
/Weight (Book) def
/Version (Version 2.35) def
/ItalicAngle 0.0 def
/isFixedPitch false def
/UnderlinePosition -130 def
/UnderlineThickness 90 def
end readonly def
/CharStrings 14 dict dup begin
/.notdef 0 def
/parenleft{390 0 86 -131 310 759 _sc
310 759 _m
266 683 234 609 213 536 _c
191 463 181 389 181 314 _c
181 238 191 164 213 91 _c
234 17 266 -56 310 -131 _c
232 -131 _l
183 -54 146 20 122 94 _c
98 168 86 241 86 314 _c
86 386 98 459 122 533 _c
146 607 182 682 232 759 _c
310 759 _l
_cl}_d
/parenright{390 0 80 -131 304 759 _sc
80 759 _m
158 759 _l
206 682 243 607 267 533 _c
291 459 304 386 304 314 _c
304 241 291 168 267 94 _c
243 20 206 -54 158 -131 _c
80 -131 _l
123 -56 155 17 177 91 _c
198 164 209 238 209 314 _c
209 389 198 463 177 536 _c
155 609 123 683 80 759 _c
_cl}_d
/period{318 0 107 0 210 124 _sc
107 124 _m
210 124 _l
210 0 _l
107 0 _l
107 124 _l
_cl}_d
/zero{636 0 66 -13 570 742 _sc
318 664 _m
267 664 229 639 203 589 _c
177 539 165 464 165 364 _c
165 264 177 189 203 139 _c
229 89 267 64 318 64 _c
369 64 407 89 433 139 _c
458 189 471 264 471 364 _c
471 464 458 539 433 589 _c
407 639 369 664 318 664 _c
318 742 _m
399 742 461 709 505 645 _c
548 580 570 486 570 364 _c
570 241 548 147 505 83 _c
461 19 399 -13 318 -13 _c
236 -13 173 19 130 83 _c
87 147 66 241 66 364 _c
66 486 87 580 130 645 _c
173 709 236 742 318 742 _c
_cl}_d
/one{636 0 110 0 544 729 _sc
124 83 _m
285 83 _l
285 639 _l
110 604 _l
110 694 _l
284 729 _l
383 729 _l
383 83 _l
544 83 _l
544 0 _l
124 0 _l
124 83 _l
_cl}_d
/two{{636 0 73 0 536 742 _sc
192 83 _m
536 83 _l
536 0 _l
73 0 _l
73 83 _l
110 121 161 173 226 239 _c
290 304 331 346 348 365 _c
380 400 402 430 414 455 _c
426 479 433 504 433 528 _c
433 566 419 598 392 622 _c
365 646 330 659 286 659 _c
255 659 222 653 188 643 _c
154 632 117 616 78 594 _c
78 694 _l
118 710 155 722 189 730 _c
223 738 255 742 284 742 _c
}_e{359 742 419 723 464 685 _c
509 647 532 597 532 534 _c
532 504 526 475 515 449 _c
504 422 484 390 454 354 _c
446 344 420 317 376 272 _c
332 227 271 164 192 83 _c
_cl}_e}_d
/four{636 0 49 0 580 729 _sc
378 643 _m
129 254 _l
378 254 _l
378 643 _l
352 729 _m
476 729 _l
476 254 _l
580 254 _l
580 172 _l
476 172 _l
476 0 _l
378 0 _l
378 172 _l
49 172 _l
49 267 _l
352 729 _l
_cl}_d
/six{{636 0 70 -13 573 742 _sc
330 404 _m
286 404 251 388 225 358 _c
199 328 186 286 186 234 _c
186 181 199 139 225 109 _c
251 79 286 64 330 64 _c
374 64 409 79 435 109 _c
461 139 474 181 474 234 _c
474 286 461 328 435 358 _c
409 388 374 404 330 404 _c
526 713 _m
526 623 _l
501 635 476 644 451 650 _c
425 656 400 659 376 659 _c
310 659 260 637 226 593 _c
}_e{192 549 172 482 168 394 _c
187 422 211 444 240 459 _c
269 474 301 482 336 482 _c
409 482 467 459 509 415 _c
551 371 573 310 573 234 _c
573 159 550 99 506 54 _c
462 9 403 -13 330 -13 _c
246 -13 181 19 137 83 _c
92 147 70 241 70 364 _c
70 479 97 571 152 639 _c
206 707 280 742 372 742 _c
396 742 421 739 447 735 _c
472 730 498 723 526 713 _c
_cl}_e}_d
/seven{636 0 82 0 551 729 _sc
82 729 _m
551 729 _l
551 687 _l
286 0 _l
183 0 _l
432 646 _l
82 646 _l
82 729 _l
_cl}_d
/eight{{636 0 68 -13 568 742 _sc
318 346 _m
271 346 234 333 207 308 _c
180 283 167 249 167 205 _c
167 161 180 126 207 101 _c
234 76 271 64 318 64 _c
364 64 401 76 428 102 _c
455 127 469 161 469 205 _c
469 249 455 283 429 308 _c
402 333 365 346 318 346 _c
219 388 _m
177 398 144 418 120 447 _c
96 476 85 511 85 553 _c
85 611 105 657 147 691 _c
188 725 245 742 318 742 _c
}_e{390 742 447 725 489 691 _c
530 657 551 611 551 553 _c
551 511 539 476 515 447 _c
491 418 459 398 417 388 _c
464 377 501 355 528 323 _c
554 291 568 251 568 205 _c
568 134 546 80 503 43 _c
459 5 398 -13 318 -13 _c
237 -13 175 5 132 43 _c
89 80 68 134 68 205 _c
68 251 81 291 108 323 _c
134 355 171 377 219 388 _c
183 544 _m
183 506 194 476 218 455 _c
}_e{242 434 275 424 318 424 _c
360 424 393 434 417 455 _c
441 476 453 506 453 544 _c
453 582 441 611 417 632 _c
393 653 360 664 318 664 _c
275 664 242 653 218 632 _c
194 611 183 582 183 544 _c
_cl}_e}_d
/R{{695 0 98 0 666 729 _sc
444 342 _m
465 334 486 319 506 296 _c
526 272 546 240 566 199 _c
666 0 _l
560 0 _l
467 187 _l
443 235 419 268 397 284 _c
374 300 343 308 304 308 _c
197 308 _l
197 0 _l
98 0 _l
98 729 _l
321 729 _l
404 729 466 711 507 677 _c
548 642 569 589 569 519 _c
569 473 558 434 537 404 _c
515 374 484 353 444 342 _c
197 648 _m
197 389 _l
321 389 _l
}_e{368 389 404 400 428 422 _c
452 444 465 476 465 519 _c
465 561 452 593 428 615 _c
404 637 368 648 321 648 _c
197 648 _l
_cl}_e}_d
/T{611 0 -2 0 614 729 _sc
-2 729 _m
614 729 _l
614 646 _l
355 646 _l
355 0 _l
256 0 _l
256 646 _l
-2 646 _l
-2 729 _l
_cl}_d
/x{592 0 29 0 559 547 _sc
549 547 _m
351 281 _l
559 0 _l
453 0 _l
294 215 _l
135 0 _l
29 0 _l
241 286 _l
47 547 _l
153 547 _l
298 352 _l
443 547 _l
549 547 _l
_cl}_d
end readonly def

/BuildGlyph
 {exch begin
 CharStrings exch
 2 copy known not{pop /.notdef}if
 true 3 1 roll get exec
 end}_d

/BuildChar {
 1 index /Encoding get exch get
 1 index /BuildGlyph get exec
}_d

FontName currentdict end definefont pop
%!PS-Adobe-3.0 Resource-Font
%%Title: DejaVu Sans Oblique
%%Copyright: Copyright (c) 2003 by Bitstream, Inc. All Rights Reserved. Copyright (c) 2006 by Tavmjong Bah. All Rights Reserved. DejaVu changes are in public domain 
%%Creator: Converted from TrueType to type 3 by PPR
25 dict begin
/_d{bind def}bind def
/_m{moveto}_d
/_l{lineto}_d
/_cl{closepath eofill}_d
/_c{curveto}_d
/_sc{7 -1 roll{setcachedevice}{pop pop pop pop pop pop}ifelse}_d
/_e{exec}_d
/FontName /DejaVuSans-Oblique def
/PaintType 0 def
/FontMatrix[.001 0 0 .001 0 0]def
/FontBBox[-1016 -350 1659 1068]def
/FontType 3 def
/Encoding [ /p /w ] def
/FontInfo 10 dict dup begin
/FamilyName (DejaVu Sans) def
/FullName (DejaVu Sans Oblique) def
/Notice (Copyright (c) 2003 by Bitstream, Inc. All Rights Reserved. Copyright (c) 2006 by Tavmjong Bah. All Rights Reserved. DejaVu changes are in public domain ) def
/Weight (Oblique) def
/Version (Version 2.35) def
/ItalicAngle -11.0 def
/isFixedPitch false def
/UnderlinePosition -130 def
/UnderlineThickness 90 def
end readonly def
/CharStrings 3 dict dup begin
/.notdef 0 def
/p{{635 0 -2 -207 589 560 _sc
496 337 _m
496 385 485 421 465 447 _c
444 472 414 485 375 485 _c
348 485 322 478 298 464 _c
274 450 252 431 234 405 _c
215 379 200 347 189 311 _c
178 275 173 239 173 203 _c
173 157 183 122 204 98 _c
224 73 254 61 293 61 _c
321 61 347 67 371 81 _c
395 94 416 113 434 139 _c
452 165 467 197 479 233 _c
490 269 496 304 496 337 _c
218 464 _m
}_e{242 495 270 519 303 535 _c
335 551 372 560 412 560 _c
468 560 511 541 542 505 _c
573 468 589 417 589 351 _c
589 297 579 245 560 196 _c
540 147 513 103 477 65 _c
453 39 425 19 395 6 _c
365 -6 333 -13 300 -13 _c
261 -13 228 -5 202 10 _c
176 26 156 50 143 82 _c
87 -207 _l
-2 -207 _l
144 547 _l
234 547 _l
218 464 _l
_cl}_e}_d
/w{818 0 85 0 819 547 _sc
85 547 _m
174 547 _l
197 107 _l
401 547 _l
505 547 _l
535 107 _l
729 547 _l
819 547 _l
569 0 _l
464 0 _l
437 453 _l
228 0 _l
122 0 _l
85 547 _l
_cl}_d
end readonly def

/BuildGlyph
 {exch begin
 CharStrings exch
 2 copy known not{pop /.notdef}if
 true 3 1 roll get exec
 end}_d

/BuildChar {
 1 index /Encoding get exch get
 1 index /BuildGlyph get exec
}_d

FontName currentdict end definefont pop
end
%%EndProlog
mpldict begin
75.6 223.2 translate
460.8 345.6 0 0 clipbox
gsave
0 0 m
460.8 0 l
460.8 345.6 l
0 345.6 l
cl
1.000 setgray
fill
grestore
gsave
57.6 38.016 m
414.72 38.016 l
414.72 304.128 l
57.6 304.128 l
cl
1.000 setgray
fill
grestore
0.800 setlinewidth
1 setlinejoin
2 setlinecap
[] 0 setdash
0.690 setgray
gsave
357.1 266.1 57.6 38.02 clipbox
57.6 38.016 m
57.6 304.128 l
stroke
grestore
0 setlinecap
0.000 setgray
gsave
/o {
gsave
newpath
translate
0.8 setlinewidth
1 setlinejoin
0 setlinecap
0 0 m
0 -3.5 l

gsave
0.000 setgray
fill
grestore
stroke
grestore
} bind def
57.6 38.016 o
grestore
/DejaVuSans findfont
12.000 scalefont
setfont
gsave
48.053125 21.891000 translate
0.000000 rotate
0.000000 0.000000 m /zero glyphshow
7.634766 0.000000 m /period glyphshow
11.449219 0.000000 m /zero glyphshow
grestore
2 setlinecap
0.690 setgray
gsave
357.1 266.1 57.6 38.02 clipbox
129.024 38.016 m
129.024 304.128 l
stroke
grestore
0 setlinecap
0.000 setgray
gsave
/o {
gsave
newpath
translate
0.8 setlinewidth
1 setlinejoin
0 setlinecap
0 0 m
0 -3.5 l

gsave
0.000 setgray
fill
grestore
stroke
grestore
} bind def
129.024 38.016 o
grestore
gsave
119.477125 21.891000 translate
0.000000 rotate
0.000000 0.000000 m /zero glyphshow
7.634766 0.000000 m /period glyphshow
11.449219 0.000000 m /two glyphshow
grestore
2 setlinecap
0.690 setgray
gsave
357.1 266.1 57.6 38.02 clipbox
200.448 38.016 m
200.448 304.128 l
stroke
grestore
0 setlinecap
0.000 setgray
gsave
/o {
gsave
newpath
translate
0.8 setlinewidth
1 setlinejoin
0 setlinecap
0 0 m
0 -3.5 l

gsave
0.000 setgray
fill
grestore
stroke
grestore
} bind def
200.448 38.016 o
grestore
gsave
190.901125 21.891000 translate
0.000000 rotate
0.000000 0.000000 m /zero glyphshow
7.634766 0.000000 m /period glyphshow
11.449219 0.000000 m /four glyphshow
grestore
2 setlinecap
0.690 setgray
gsave
357.1 266.1 57.6 38.02 clipbox
271.872 38.016 m
271.872 304.128 l
stroke
grestore
0 setlinecap
0.000 setgray
gsave
/o {
gsave
newpath
translate
0.8 setlinewidth
1 setlinejoin
0 setlinecap
0 0 m
0 -3.5 l

gsave
0.000 setgray
fill
grestore
stroke
grestore
} bind def
271.872 38.016 o
grestore
gsave
262.325125 21.891000 translate
0.000000 rotate
0.000000 0.000000 m /zero glyphshow
7.634766 0.000000 m /period glyphshow
11.449219 0.000000 m /six glyphshow
grestore
2 setlinecap
0.690 setgray
gsave
357.1 266.1 57.6 38.02 clipbox
343.296 38.016 m
343.296 304.128 l
stroke
grestore
0 setlinecap
0.000 setgray
gsave
/o {
gsave
newpath
translate
0.8 setlinewidth
1 setlinejoin
0 setlinecap
0 0 m
0 -3.5 l

gsave
0.000 setgray
fill
grestore
stroke
grestore
} bind def
343.296 38.016 o
grestore
gsave
333.749125 21.891000 translate
0.000000 rotate
0.000000 0.000000 m /zero glyphshow
7.634766 0.000000 m /period glyphshow
11.449219 0.000000 m /eight glyphshow
grestore
2 setlinecap
0.690 setgray
gsave
357.1 266.1 57.6 38.02 clipbox
414.72 38.016 m
414.72 304.128 l
stroke
grestore
0 setlinecap
0.000 setgray
gsave
/o {
gsave
newpath
translate
0.8 setlinewidth
1 setlinejoin
0 setlinecap
0 0 m
0 -3.5 l

gsave
0.000 setgray
fill
grestore
stroke
grestore
} bind def
414.72 38.016 o
grestore
gsave
405.173125 21.891000 translate
0.000000 rotate
0.000000 0.000000 m /one glyphshow
7.634766 0.000000 m /period glyphshow
11.449219 0.000000 m /zero glyphshow
grestore
gsave
232.160000 6.766000 translate
0.000000 rotate
/DejaVuSans-Oblique findfont
12.0 scalefont
setfont
0.000000 0.281250 moveto
/p glyphshow


grestore
2 setlinecap
0.690 setgray
gsave
357.1 266.1 57.6 38.02 clipbox
57.6 38.016 m
414.72 38.016 l
stroke
grestore
0 setlinecap
0.000 setgray
gsave
/o {
gsave
newpath
translate
0.8 setlinewidth
1 setlinejoin
0 setlinecap
0 0 m
-3.5 0 l

gsave
0.000 setgray
fill
grestore
stroke
grestore
} bind def
57.6 38.016 o
grestore
gsave
31.506250 33.453500 translate
0.000000 rotate
0.000000 0.000000 m /zero glyphshow
7.634766 0.000000 m /period glyphshow
11.449219 0.000000 m /zero glyphshow
grestore
2 setlinecap
0.690 setgray
gsave
357.1 266.1 57.6 38.02 clipbox
57.6 91.2384 m
414.72 91.2384 l
stroke
grestore
0 setlinecap
0.000 setgray
gsave
/o {
gsave
newpath
translate
0.8 setlinewidth
1 setlinejoin
0 setlinecap
0 0 m
-3.5 0 l

gsave
0.000 setgray
fill
grestore
stroke
grestore
} bind def
57.6 91.2384 o
grestore
gsave
31.506250 86.675900 translate
0.000000 rotate
0.000000 0.000000 m /zero glyphshow
7.634766 0.000000 m /period glyphshow
11.449219 0.000000 m /two glyphshow
grestore
2 setlinecap
0.690 setgray
gsave
357.1 266.1 57.6 38.02 clipbox
57.6 144.4608 m
414.72 144.4608 l
stroke
grestore
0 setlinecap
0.000 setgray
gsave
/o {
gsave
newpath
translate
0.8 setlinewidth
1 setlinejoin
0 setlinecap
0 0 m
-3.5 0 l

gsave
0.000 setgray
fill
grestore
stroke
grestore
} bind def
57.6 144.461 o
grestore
gsave
31.506250 139.898300 translate
0.000000 rotate
0.000000 0.000000 m /zero glyphshow
7.634766 0.000000 m /period glyphshow
11.449219 0.000000 m /four glyphshow
grestore
2 setlinecap
0.690 setgray
gsave
357.1 266.1 57.6 38.02 clipbox
57.6 197.6832 m
414.72 197.6832 l
stroke
grestore
0 setlinecap
0.000 setgray
gsave
/o {
gsave
newpath
translate
0.8 setlinewidth
1 setlinejoin
0 setlinecap
0 0 m
-3.5 0 l

gsave
0.000 setgray
fill
grestore
stroke
grestore
} bind def
57.6 197.683 o
grestore
gsave
31.506250 193.120700 translate
0.000000 rotate
0.000000 0.000000 m /zero glyphshow
7.634766 0.000000 m /period glyphshow
11.449219 0.000000 m /six glyphshow
grestore
2 setlinecap
0.690 setgray
gsave
357.1 266.1 57.6 38.02 clipbox
57.6 250.9056 m
414.72 250.9056 l
stroke
grestore
0 setlinecap
0.000 setgray
gsave
/o {
gsave
newpath
translate
0.8 setlinewidth
1 setlinejoin
0 setlinecap
0 0 m
-3.5 0 l

gsave
0.000 setgray
fill
grestore
stroke
grestore
} bind def
57.6 250.906 o
grestore
gsave
31.506250 246.343100 translate
0.000000 rotate
0.000000 0.000000 m /zero glyphshow
7.634766 0.000000 m /period glyphshow
11.449219 0.000000 m /eight glyphshow
grestore
2 setlinecap
0.690 setgray
gsave
357.1 266.1 57.6 38.02 clipbox
57.6 304.128 m
414.72 304.128 l
stroke
grestore
0 setlinecap
0.000 setgray
gsave
/o {
gsave
newpath
translate
0.8 setlinewidth
1 setlinejoin
0 setlinecap
0 0 m
-3.5 0 l

gsave
0.000 setgray
fill
grestore
stroke
grestore
} bind def
57.6 304.128 o
grestore
gsave
31.506250 299.565500 translate
0.000000 rotate
0.000000 0.000000 m /one glyphshow
7.634766 0.000000 m /period glyphshow
11.449219 0.000000 m /zero glyphshow
grestore
gsave
24.506250 157.572000 translate
90.000000 rotate
/DejaVuSans-Oblique findfont
12.0 scalefont
setfont
0.000000 0.890625 moveto
/w glyphshow

/DejaVuSans findfont
12.0 scalefont
setfont
9.814453 0.890625 moveto
/parenleft glyphshow

/DejaVuSans-Oblique findfont
12.0 scalefont
setfont
14.496094 0.890625 moveto
/p glyphshow

/DejaVuSans findfont
12.0 scalefont
setfont
22.113281 0.890625 moveto
/parenright glyphshow


grestore
2.000 setlinewidth
[7.4 3.2] 0 setdash
0.000 0.500 0.000 setrgbcolor
gsave
357.1 266.1 57.6 38.02 clipbox
57.6 44.317908 m
61.207273 44.317908 l
64.814545 44.317908 l
68.421818 44.317908 l
72.029091 44.317908 l
75.636364 44.317908 l
79.243636 44.317908 l
82.850909 44.317908 l
86.458182 44.317908 l
90.065455 44.317908 l
93.672727 44.317908 l
97.28 44.317908 l
100.887273 44.317908 l
104.494545 44.317908 l
108.101818 44.317908 l
111.709091 44.317908 l
115.316364 44.317908 l
118.923636 44.317908 l
122.530909 44.317908 l
126.138182 44.317934 l
129.745455 44.318965 l
133.352727 44.335531 l
136.96 44.468255 l
140.567273 45.094988 l
144.174545 47.071515 l
147.781818 51.646847 l
151.389091 59.998847 l
154.996364 72.696848 l
158.603636 89.460716 l
162.210909 109.30209 l
165.818182 130.877747 l
169.425455 152.84275 l
173.032727 174.084047 l
176.64 193.816846 l
180.247273 211.580453 l
183.854545 227.181 l
187.461818 240.617726 l
191.069091 252.014063 l
194.676364 261.562571 l
198.283636 269.485363 l
201.890909 276.008074 l
205.498182 281.344271 l
209.105455 285.687261 l
212.712727 289.206765 l
216.32 292.048611 l
219.927273 294.336123 l
223.534545 296.172361 l
227.141818 297.642674 l
230.749091 298.81725 l
234.356364 299.75349 l
237.963636 300.498135 l
241.570909 301.089106 l
245.178182 301.557079 l
248.785455 301.926807 l
252.392727 302.218219 l
256 302.447329 l
259.607273 302.626977 l
263.214545 302.767444 l
266.821818 302.876947 l
270.429091 302.962035 l
274.036364 303.027926 l
277.643636 303.078763 l
281.250909 303.117831 l
284.858182 303.147727 l
288.465455 303.170502 l
292.072727 303.187767 l
295.68 303.200787 l
299.287273 303.21055 l
302.894545 303.217828 l
306.501818 303.223217 l
310.109091 303.227179 l
313.716364 303.230071 l
317.323636 303.232164 l
320.930909 303.233666 l
324.538182 303.234733 l
328.145455 303.235483 l
331.752727 303.236004 l
335.36 303.236362 l
338.967273 303.236605 l
342.574545 303.236766 l
346.181818 303.236872 l
349.789091 303.236941 l
353.396364 303.236984 l
357.003636 303.23701 l
360.610909 303.237026 l
364.218182 303.237035 l
367.825455 303.237041 l
371.432727 303.237043 l
375.04 303.237045 l
378.647273 303.237046 l
382.254545 303.237046 l
385.861818 303.237046 l
389.469091 303.237046 l
393.076364 303.237046 l
396.683636 303.237046 l
400.290909 303.237046 l
403.898182 303.237046 l
407.505455 303.237046 l
411.112727 303.237046 l
414.72 303.237046 l
stroke
grestore
2 setlinecap
[] 0 setdash
0.750 0.000 0.750 setrgbcolor
gsave
357.1 266.1 57.6 38.02 clipbox
57.6 38.016 m
61.207273 38.016 l
64.814545 38.016 l
68.421818 38.016 l
72.029091 38.016 l
75.636364 38.016 l
79.243636 38.016 l
82.850909 38.016 l
86.458182 38.016 l
90.065455 38.016 l
93.672727 38.016 l
97.28 38.016 l
100.887273 38.016002 l
104.494545 38.01602 l
108.101818 38.016174 l
111.709091 38.017064 l
115.316364 38.020926 l
118.923636 38.034197 l
122.530909 38.071831 l
126.138182 38.162848 l
129.745455 38.355597 l
133.352727 38.720681 l
136.96 39.349926 l
140.567273 40.350872 l
144.174545 41.837606 l
147.781818 43.919668 l
151.389091 46.691131 l
154.996364 50.221617 l
158.603636 54.550401 l
162.210909 59.684006 l
165.818182 65.597041 l
169.425455 72.235637 l
173.032727 79.522638 l
176.64 87.363683 l
180.247273 95.653461 l
183.854545 104.281576 l
187.461818 113.137647 l
191.069091 122.115473 l
194.676364 131.116177 l
198.283636 140.050395 l
201.890909 148.839599 l
205.498182 157.416699 l
209.105455 165.726062 l
212.712727 173.723106 l
216.32 181.373575 l
219.927273 188.652626 l
223.534545 195.543797 l
227.141818 202.037941 l
230.749091 208.132172 l
234.356364 213.828852 l
237.963636 219.13466 l
241.570909 224.059735 l
245.178182 228.616921 l
248.785455 232.821104 l
252.392727 236.688634 l
256 240.236842 l
259.607273 243.483626 l
263.214545 246.447118 l
266.821818 249.145406 l
270.429091 251.596314 l
274.036364 253.817229 l
277.643636 255.824973 l
281.250909 257.635701 l
284.858182 259.264836 l
288.465455 260.727024 l
292.072727 262.036106 l
295.68 263.205112 l
299.287273 264.246261 l
302.894545 265.170976 l
306.501818 265.989902 l
310.109091 266.712937 l
313.716364 267.349253 l
317.323636 267.907338 l
320.930909 268.395023 l
324.538182 268.819524 l
328.145455 269.187471 l
331.752727 269.504947 l
335.36 269.777522 l
338.967273 270.010285 l
342.574545 270.207877 l
346.181818 270.374522 l
349.789091 270.514057 l
353.396364 270.629956 l
357.003636 270.725361 l
360.610909 270.803102 l
364.218182 270.865725 l
367.825455 270.915507 l
371.432727 270.954483 l
375.04 270.984458 l
378.647273 271.007029 l
382.254545 271.0236 l
385.861818 271.035393 l
389.469091 271.043465 l
393.076364 271.048722 l
396.683636 271.051924 l
400.290909 271.053701 l
403.898182 271.054559 l
407.505455 271.054888 l
411.112727 271.054968 l
414.72 271.054974 l
stroke
grestore
1.500 setlinewidth
0 setlinecap
[9.6 2.4 1.5 2.4] 0 setdash
0.000 setgray
gsave
357.1 266.1 57.6 38.02 clipbox
57.6 38.016 m
414.72 304.128 l
stroke
grestore
0.800 setlinewidth
0 setlinejoin
2 setlinecap
[] 0 setdash
gsave
57.6 38.016 m
57.6 304.128 l
stroke
grestore
gsave
414.72 38.016 m
414.72 304.128 l
stroke
grestore
gsave
57.6 38.016 m
414.72 38.016 l
stroke
grestore
gsave
57.6 304.128 m
414.72 304.128 l
stroke
grestore
1.000 setlinewidth
0 setlinecap
0.800 setgray
gsave
66 259.278 m
134.821875 259.278 l
136.421875 259.278 137.221875 260.078 137.221875 261.678 c
137.221875 295.728 l
137.221875 297.328 136.421875 298.128 134.821875 298.128 c
66 298.128 l
64.4 298.128 63.6 297.328 63.6 295.728 c
63.6 261.678 l
63.6 260.078 64.4 259.278 66 259.278 c
cl
gsave
1.000 setgray
fill
grestore
stroke
grestore
2.000 setlinewidth
1 setlinejoin
[7.4 3.2] 0 setdash
0.000 0.500 0.000 setrgbcolor
gsave
68.4 288.403 m
92.4 288.403 l
stroke
grestore
0.000 setgray
gsave
102.000000 284.203000 translate
0.000000 rotate
0.000000 0.000000 m /R glyphshow
8.337891 0.000000 m /T glyphshow
15.667969 0.000000 m /x glyphshow
22.769531 0.000000 m /seven glyphshow
grestore
2 setlinecap
[] 0 setdash
0.750 0.000 0.750 setrgbcolor
gsave
68.4 270.778 m
92.4 270.778 l
stroke
grestore
0.000 setgray
gsave
102.000000 266.578000 translate
0.000000 rotate
0.000000 0.000000 m /R glyphshow
8.337891 0.000000 m /T glyphshow
15.667969 0.000000 m /x glyphshow
grestore

end
showpage
